<?xml version="1.0"?>
<robot name="servo" xmlns:xacro="http://www.ros.org/wiki/xacro">

  <!-- General -->
  <xacro:property name="PI" value="3.1415926535897931" />

  <!-- Base -->
  <xacro:property name="m" value="1" />
  <xacro:property name="l" value="0.05" />
  <xacro:property name="w" value="0.05" />
  <xacro:property name="h" value="0.05" />

  <!-- Offset -->
  <xacro:property name="offset" value="0.005" />

  <link name="base">
    <!-- Origin -->
    <xacro:property name="o_xyz" value="0 0 ${h / 2}" />
    <xacro:property name="o_rpy" value="0 0 0" />

    <visual>
      <origin xyz="${o_xyz}" rpy="${o_rpy}" />
      <geometry>
        <box size="${l} ${w} ${h}" />
      </geometry>
    </visual>

    <collision>
      <origin xyz="${o_xyz}" rpy="${o_rpy}" />
      <geometry>
        <box size="${l} ${w} ${h}" />
      </geometry>
    </collision>

    <inertial>
      <origin xyz="${o_xyz}" rpy="${o_rpy}" />
      <mass value="${m}" />
      <inertia
        ixx="${m / 12 * (w*w + h*h)}" ixy="0" ixz="0"
        iyy="${m / 12 * (l*l + h*h)}" iyz="0"
        izz="${m / 12 * (l*l + w*w)}" />
    </inertial>
  </link>

  <joint name="joint" type="revolute">
    <parent link="base" />
    <child link="sensor_link" />
    <origin xyz="0 0 ${h + offset}" rpy="0 0 0" />
    <axis xyz="0 0 1" />
    <limit lower="${-PI / 2}" upper="${PI / 2}" effort="1000" velocity="${PI}" />
  </joint>

  <xacro:include filename="$(find mt)/models/hokuyo/hokuyo.xacro" />

  <transmission name="transmission">
    <type>transmission_interface/SimpleTransmission</type>
    <joint name="joint">
      <hardwareInterface>hardware_interface/EffortJointInterface</hardwareInterface>
    </joint>
    <actuator name="motor">
      <hardwareInterface>hardware_interface/EffortJointInterface</hardwareInterface>
    </actuator>
  </transmission>

  <gazebo>
    <plugin name="gazebo_ros_control" filename="libgazebo_ros_control.so">
      <robotNamespace>/servo</robotNamespace>
    </plugin>
  </gazebo>
</robot>