%!PS-Adobe-3.0 EPSF-3.0
%%Title: sloam_acc.eps
%%Creator: Matplotlib v3.4.3, https://matplotlib.org/
%%CreationDate: Thu May 26 21:18:57 2022
%%Orientation: portrait
%%BoundingBox: 113 151 499 641
%%HiResBoundingBox: 113.821875 151.375938 498.178125 640.624062
%%EndComments
%%BeginProlog
/mpldict 12 dict def
mpldict begin
/_d { bind def } bind def
/m { moveto } _d
/l { lineto } _d
/r { rlineto } _d
/c { curveto } _d
/cl { closepath } _d
/ce { closepath eofill } _d
/box {
      m
      1 index 0 r
      0 exch r
      neg 0 r
      cl
    } _d
/clipbox {
      box
      clip
      newpath
    } _d
/sc { setcachedevice } _d
%!PS-Adobe-3.0 Resource-Font
%%Creator: Converted from TrueType to Type 3 by Matplotlib.
10 dict begin
/FontName /LiberationSans def
/PaintType 0 def
/FontMatrix [0.00048828125 0 0 0.00048828125 0 0] def
/FontBBox [-1114 -621 2666 2007] def
/FontType 3 def
/Encoding [/space /numbersign /period /zero /one /two /three /four /five /six /A /B /C /D /E /G /H /L /M /N /O /P /S /bracketleft /bracketright /a /b /c /d /e /f /h /i /k /l /m /n /o /p /r /s /t /u /w /x] def
/CharStrings 46 dict dup begin
/.notdef 0 def
/space{569 0 0 0 0 0 sc
ce} _d
/numbersign{1139 0 9 0 1129 1401 sc
896 885 m
818 516 l
1078 516 l
1078 408 l
795 408 l
707 0 l
597 0 l
683 408 l
320 408 l
236 0 l
126 0 l
210 408 l
9 408 l
9 516 l
234 516 l
312 885 l
60 885 l
60 993 l
334 993 l
423 1401 l
533 1401 l
445 993 l
808 993 l
896 1401 l
1006 1401 l
918 993 l
1129 993 l
1129 885 l
896 885 l

425 885 m
345 516 l
707 516 l
785 885 l
425 885 l

ce} _d
/period{569 0 187 0 382 219 sc
187 0 m
187 219 l
382 219 l
382 0 l
187 0 l

ce} _d
/zero{1139 0 80 -20 1059 1430 sc
1059 705 m
1059 470 1017 290 934 166 c
851 42 729 -20 567 -20 c
405 -20 283 42 202 165 c
121 288 80 468 80 705 c
80 947 119 1128 198 1249 c
277 1370 402 1430 573 1430 c
739 1430 861 1369 940 1247 c
1019 1125 1059 944 1059 705 c

876 705 m
876 908 852 1056 805 1147 c
758 1238 681 1284 573 1284 c
462 1284 383 1239 334 1149 c
286 1059 262 911 262 705 c
262 505 286 359 335 266 c
384 173 462 127 569 127 c
675 127 753 174 802 269 c
851 364 876 509 876 705 c

ce} _d
/one{1139 0 156 0 1039 1409 sc
156 0 m
156 153 l
515 153 l
515 1237 l
197 1010 l
197 1180 l
530 1409 l
696 1409 l
696 153 l
1039 153 l
1039 0 l
156 0 l

ce} _d
/two{1139 0 103 0 1036 1430 sc
103 0 m
103 127 l
137 205 178 274 227 333 c
276 393 328 447 382 495 c
436 544 489 589 542 630 c
595 671 643 713 686 754 c
729 795 763 839 789 884 c
816 929 829 981 829 1038 c
829 1115 806 1175 761 1218 c
716 1261 653 1282 572 1282 c
495 1282 432 1261 382 1219 c
333 1178 304 1119 295 1044 c
111 1061 l
124 1174 172 1263 254 1330 c
337 1397 443 1430 572 1430 c
714 1430 823 1396 899 1329 c
976 1262 1014 1167 1014 1044 c
1014 989 1001 935 976 881 c
951 827 914 773 865 719 c
816 665 721 581 582 468 c
505 405 444 349 399 298 c
354 248 321 200 301 153 c
1036 153 l
1036 0 l
103 0 l

ce} _d
/three{1139 0 78 -20 1049 1430 sc
1049 389 m
1049 259 1008 158 925 87 c
842 16 724 -20 571 -20 c
428 -20 314 12 229 76 c
144 141 94 236 78 362 c
264 379 l
288 212 390 129 571 129 c
662 129 733 151 784 196 c
836 241 862 307 862 395 c
862 472 832 531 773 574 c
714 617 629 639 518 639 c
416 639 l
416 795 l
514 795 l
613 795 689 816 743 859 c
798 902 825 962 825 1038 c
825 1113 803 1173 758 1216 c
714 1260 648 1282 561 1282 c
482 1282 417 1262 368 1221 c
319 1180 291 1123 283 1049 c
102 1063 l
115 1178 163 1268 245 1333 c
328 1398 434 1430 563 1430 c
704 1430 814 1397 892 1331 c
971 1266 1010 1174 1010 1057 c
1010 967 985 894 934 837 c
884 781 811 743 715 723 c
715 719 l
820 708 902 672 961 613 c
1020 554 1049 479 1049 389 c

ce} _d
/four{1139 0 47 0 1079 1409 sc
881 319 m
881 0 l
711 0 l
711 319 l
47 319 l
47 459 l
692 1409 l
881 1409 l
881 461 l
1079 461 l
1079 319 l
881 319 l

711 1206 m
710 1202 700 1184 683 1153 c
666 1122 653 1100 644 1087 c
283 555 l
229 481 l
213 461 l
711 461 l
711 1206 l

ce} _d
/five{1139 0 82 -20 1053 1409 sc
1053 459 m
1053 310 1009 193 920 108 c
832 23 710 -20 553 -20 c
422 -20 316 9 235 66 c
154 123 103 206 82 315 c
264 336 l
302 197 400 127 557 127 c
654 127 729 156 784 214 c
839 273 866 353 866 455 c
866 544 838 615 783 670 c
728 725 654 752 561 752 c
512 752 467 744 425 729 c
383 714 341 688 299 651 c
123 651 l
170 1409 l
971 1409 l
971 1256 l
334 1256 l
307 809 l
385 869 482 899 598 899 c
737 899 847 858 929 777 c
1012 696 1053 590 1053 459 c

ce} _d
/six{1139 0 104 -20 1049 1430 sc
1049 461 m
1049 312 1009 195 928 109 c
847 23 736 -20 594 -20 c
435 -20 314 39 230 157 c
146 275 104 447 104 672 c
104 916 148 1103 235 1234 c
322 1365 447 1430 608 1430 c
821 1430 955 1334 1010 1143 c
838 1112 l
803 1227 725 1284 606 1284 c
503 1284 424 1236 367 1140 c
311 1045 283 906 283 725 c
316 786 362 832 421 863 c
480 895 548 911 625 911 c
755 911 858 870 934 789 c
1011 708 1049 598 1049 461 c

866 453 m
866 555 841 634 791 689 c
741 744 671 772 582 772 c
498 772 430 747 378 698 c
327 649 301 582 301 496 c
301 387 328 298 381 229 c
435 160 504 125 588 125 c
675 125 743 154 792 212 c
841 271 866 351 866 453 c

ce} _d
/A{1366 0 4 0 1362 1409 sc
1167 0 m
1006 412 l
364 412 l
202 0 l
4 0 l
579 1409 l
796 1409 l
1362 0 l
1167 0 l

685 1265 m
676 1237 l
659 1182 635 1111 602 1024 c
422 561 l
949 561 l
768 1026 l
749 1072 731 1124 712 1182 c
685 1265 l

ce} _d
/B{1366 0 168 0 1258 1409 sc
1258 397 m
1258 272 1212 174 1121 104 c
1030 35 903 0 740 0 c
168 0 l
168 1409 l
680 1409 l
1011 1409 1176 1295 1176 1067 c
1176 984 1153 914 1106 857 c
1059 800 993 762 908 743 c
1020 730 1106 692 1167 630 c
1228 569 1258 491 1258 397 c

984 1044 m
984 1120 958 1174 906 1207 c
854 1240 779 1256 680 1256 c
359 1256 l
359 810 l
680 810 l
782 810 858 829 908 867 c
959 906 984 965 984 1044 c

1065 412 m
1065 578 948 661 715 661 c
359 661 l
359 153 l
730 153 l
847 153 932 175 985 218 c
1038 261 1065 326 1065 412 c

ce} _d
/C{1479 0 104 -20 1401 1430 sc
792 1274 m
636 1274 515 1224 428 1123 c
341 1023 298 886 298 711 c
298 538 343 399 433 294 c
524 189 646 137 800 137 c
997 137 1146 235 1245 430 c
1401 352 l
1343 231 1261 138 1156 75 c
1051 12 930 -20 791 -20 c
649 -20 526 9 422 68 c
319 127 240 212 185 321 c
131 431 104 561 104 711 c
104 936 165 1112 286 1239 c
407 1366 575 1430 790 1430 c
940 1430 1065 1401 1166 1342 c
1267 1283 1341 1196 1388 1081 c
1207 1021 l
1174 1103 1122 1166 1049 1209 c
977 1252 891 1274 792 1274 c

ce} _d
/D{1479 0 168 0 1381 1409 sc
1381 719 m
1381 574 1353 446 1296 337 c
1239 228 1159 145 1055 87 c
951 29 831 0 695 0 c
168 0 l
168 1409 l
634 1409 l
873 1409 1057 1349 1186 1229 c
1316 1110 1381 940 1381 719 c

1189 719 m
1189 894 1141 1027 1045 1118 c
950 1210 811 1256 630 1256 c
359 1256 l
359 153 l
673 153 l
776 153 867 176 945 221 c
1024 266 1084 332 1126 417 c
1168 502 1189 603 1189 719 c

ce} _d
/E{1366 0 168 0 1278 1409 sc
168 0 m
168 1409 l
1237 1409 l
1237 1253 l
359 1253 l
359 801 l
1177 801 l
1177 647 l
359 647 l
359 156 l
1278 156 l
1278 0 l
168 0 l

ce} _d
/G{1593 0 103 -20 1440 1430 sc
103 711 m
103 940 164 1117 287 1242 c
410 1367 582 1430 804 1430 c
960 1430 1087 1404 1184 1351 c
1281 1298 1356 1214 1409 1098 c
1227 1044 l
1187 1124 1132 1182 1061 1219 c
991 1256 904 1274 799 1274 c
636 1274 512 1225 426 1126 c
340 1028 297 890 297 711 c
297 533 343 392 434 289 c
525 186 652 135 813 135 c
905 135 991 149 1070 177 c
1150 205 1215 243 1264 291 c
1264 545 l
843 545 l
843 705 l
1440 705 l
1440 219 l
1365 143 1274 84 1165 42 c
1057 1 940 -20 813 -20 c
666 -20 539 9 432 68 c
325 127 244 211 187 321 c
131 432 103 562 103 711 c

ce} _d
/H{1479 0 168 0 1312 1409 sc
1121 0 m
1121 653 l
359 653 l
359 0 l
168 0 l
168 1409 l
359 1409 l
359 813 l
1121 813 l
1121 1409 l
1312 1409 l
1312 0 l
1121 0 l

ce} _d
/L{1139 0 168 0 1071 1409 sc
168 0 m
168 1409 l
359 1409 l
359 156 l
1071 156 l
1071 0 l
168 0 l

ce} _d
/M{1706 0 168 0 1538 1409 sc
1366 0 m
1366 940 l
1366 1044 1369 1144 1375 1240 c
1342 1121 1313 1027 1287 960 c
923 0 l
789 0 l
420 960 l
364 1130 l
331 1240 l
334 1129 l
338 940 l
338 0 l
168 0 l
168 1409 l
419 1409 l
794 432 l
807 393 820 350 832 305 c
845 260 853 228 857 208 c
862 235 873 275 890 329 c
907 384 919 418 925 432 c
1293 1409 l
1538 1409 l
1538 0 l
1366 0 l

ce} _d
/N{1479 0 168 0 1312 1409 sc
1082 0 m
328 1200 l
333 1103 l
338 936 l
338 0 l
168 0 l
168 1409 l
390 1409 l
1152 201 l
1144 332 1140 426 1140 485 c
1140 1409 l
1312 1409 l
1312 0 l
1082 0 l

ce} _d
/O{1593 0 97 -20 1495 1430 sc
1495 711 m
1495 564 1467 435 1410 324 c
1354 213 1273 128 1168 69 c
1063 10 938 -20 795 -20 c
650 -20 525 9 420 68 c
315 127 235 211 180 322 c
125 433 97 563 97 711 c
97 936 159 1112 282 1239 c
405 1366 577 1430 797 1430 c
940 1430 1065 1401 1170 1344 c
1275 1287 1356 1205 1411 1096 c
1467 987 1495 859 1495 711 c

1300 711 m
1300 886 1256 1024 1168 1124 c
1081 1224 957 1274 797 1274 c
636 1274 511 1225 423 1126 c
335 1027 291 889 291 711 c
291 534 335 394 424 290 c
513 187 637 135 795 135 c
958 135 1082 185 1169 285 c
1256 386 1300 528 1300 711 c

ce} _d
/P{1366 0 168 0 1258 1409 sc
1258 985 m
1258 852 1214 746 1127 667 c
1040 588 922 549 773 549 c
359 549 l
359 0 l
168 0 l
168 1409 l
761 1409 l
919 1409 1041 1372 1128 1298 c
1215 1224 1258 1120 1258 985 c

1066 983 m
1066 1165 957 1256 738 1256 c
359 1256 l
359 700 l
746 700 l
959 700 1066 794 1066 983 c

ce} _d
/S{1366 0 93 -20 1272 1430 sc
1272 389 m
1272 259 1221 158 1119 87 c
1018 16 875 -20 690 -20 c
347 -20 148 99 93 338 c
278 375 l
299 290 345 228 414 188 c
483 149 578 129 697 129 c
820 129 915 150 982 192 c
1049 235 1083 297 1083 379 c
1083 425 1072 462 1051 491 c
1030 520 1001 543 963 562 c
925 581 880 596 827 609 c
774 622 716 635 652 650 c
541 675 456 699 398 724 c
341 749 295 776 262 806 c
229 837 203 872 185 913 c
168 954 159 1000 159 1053 c
159 1174 205 1267 297 1332 c
390 1397 522 1430 694 1430 c
854 1430 976 1405 1061 1356 c
1146 1307 1205 1224 1239 1106 c
1051 1073 l
1030 1148 991 1202 933 1235 c
875 1269 795 1286 692 1286 c
579 1286 493 1267 434 1230 c
375 1193 345 1137 345 1063 c
345 1020 356 984 379 955 c
402 927 436 903 479 883 c
522 864 609 840 738 811 c
781 801 824 791 867 780 c
910 770 952 758 991 743 c
1030 729 1067 712 1101 693 c
1136 674 1166 650 1191 622 c
1216 594 1236 561 1250 523 c
1265 485 1272 440 1272 389 c

ce} _d
/bracketleft{569 0 146 -425 553 1484 sc
146 -425 m
146 1484 l
553 1484 l
553 1355 l
320 1355 l
320 -296 l
553 -296 l
553 -425 l
146 -425 l

ce} _d
/bracketright{569 0 16 -425 423 1484 sc
16 -425 m
16 -296 l
249 -296 l
249 1355 l
16 1355 l
16 1484 l
423 1484 l
423 -425 l
16 -425 l

ce} _d
/a{1139 0 87 -20 1139 1102 sc
414 -20 m
305 -20 224 9 169 66 c
114 123 87 202 87 302 c
87 414 124 500 197 560 c
271 620 390 652 554 656 c
797 660 l
797 719 l
797 807 778 870 741 908 c
704 946 645 965 565 965 c
484 965 426 951 389 924 c
352 897 330 853 323 793 c
135 810 l
166 1005 310 1102 569 1102 c
705 1102 807 1071 876 1008 c
945 946 979 856 979 738 c
979 272 l
979 219 986 178 1000 151 c
1014 124 1041 111 1080 111 c
1097 111 1117 113 1139 118 c
1139 6 l
1094 -5 1047 -10 1000 -10 c
933 -10 885 7 854 42 c
824 77 807 132 803 207 c
797 207 l
751 124 697 66 636 31 c
575 -3 501 -20 414 -20 c

455 115 m
521 115 580 130 631 160 c
682 190 723 231 752 283 c
782 336 797 390 797 445 c
797 534 l
600 530 l
515 529 451 520 407 504 c
364 488 330 463 307 430 c
284 397 272 353 272 299 c
272 240 288 195 319 163 c
351 131 396 115 455 115 c

ce} _d
/b{1139 0 132 -20 1053 1484 sc
1053 546 m
1053 169 920 -20 655 -20 c
573 -20 505 -5 450 24 c
396 54 352 102 318 168 c
316 168 l
316 147 315 116 312 73 c
309 31 307 7 306 0 c
132 0 l
136 36 138 110 138 223 c
138 1484 l
318 1484 l
318 1061 l
318 1018 317 967 314 908 c
318 908 l
351 977 395 1027 450 1057 c
505 1087 574 1102 655 1102 c
792 1102 892 1056 956 964 c
1021 872 1053 733 1053 546 c

864 540 m
864 691 844 800 804 865 c
764 930 699 963 609 963 c
508 963 434 928 387 859 c
341 790 318 680 318 529 c
318 387 341 282 386 214 c
431 147 505 113 607 113 c
698 113 763 146 803 213 c
844 280 864 389 864 540 c

ce} _d
/c{1024 0 87 -20 970 1102 sc
275 546 m
275 402 298 295 343 226 c
388 157 457 122 548 122 c
612 122 665 139 708 174 c
751 209 778 262 788 334 c
970 322 l
956 218 912 135 837 73 c
762 11 668 -20 553 -20 c
402 -20 286 28 206 123 c
127 219 87 359 87 542 c
87 724 127 863 207 958 c
287 1054 402 1102 551 1102 c
662 1102 753 1073 826 1016 c
899 959 945 880 964 779 c
779 765 l
770 825 746 873 708 908 c
670 943 616 961 546 961 c
451 961 382 929 339 866 c
296 803 275 696 275 546 c

ce} _d
/d{1139 0 86 -20 1007 1484 sc
821 174 m
788 105 743 55 688 25 c
633 -5 565 -20 484 -20 c
347 -20 247 26 182 118 c
118 210 86 349 86 536 c
86 913 219 1102 484 1102 c
566 1102 634 1087 689 1057 c
744 1027 788 979 821 914 c
823 914 l
821 1035 l
821 1484 l
1001 1484 l
1001 223 l
1001 110 1003 36 1007 0 c
835 0 l
833 11 831 35 828 74 c
826 113 825 146 825 174 c
821 174 l

275 542 m
275 391 295 282 335 217 c
375 152 440 119 530 119 c
632 119 706 154 752 225 c
798 296 821 405 821 554 c
821 697 798 802 752 869 c
706 936 633 969 532 969 c
441 969 376 935 335 868 c
295 801 275 693 275 542 c

ce} _d
/e{1139 0 87 -20 1048 1102 sc
276 503 m
276 379 302 283 353 216 c
404 149 479 115 578 115 c
656 115 718 131 765 162 c
812 193 844 233 861 281 c
1019 236 l
954 65 807 -20 578 -20 c
418 -20 296 28 212 123 c
129 218 87 360 87 548 c
87 727 129 864 212 959 c
296 1054 416 1102 571 1102 c
889 1102 1048 910 1048 527 c
1048 503 l
276 503 l

862 641 m
852 755 823 838 775 890 c
727 943 658 969 568 969 c
481 969 411 940 360 881 c
309 823 282 743 278 641 c
862 641 l

ce} _d
/f{569 0 29 0 572 1482 sc
361 951 m
361 0 l
181 0 l
181 951 l
29 951 l
29 1082 l
181 1082 l
181 1204 l
181 1303 203 1374 246 1417 c
289 1460 356 1482 445 1482 c
495 1482 537 1478 572 1470 c
572 1333 l
542 1338 515 1341 492 1341 c
446 1341 413 1329 392 1306 c
371 1283 361 1240 361 1179 c
361 1082 l
572 1082 l
572 951 l
361 951 l

ce} _d
/h{1139 0 142 0 1006 1484 sc
317 897 m
356 968 402 1019 456 1052 c
511 1085 580 1102 663 1102 c
780 1102 867 1073 922 1014 c
978 956 1006 858 1006 721 c
1006 0 l
825 0 l
825 686 l
825 762 818 818 804 855 c
790 892 767 920 735 937 c
703 954 659 963 602 963 c
517 963 449 934 398 875 c
347 816 322 737 322 638 c
322 0 l
142 0 l
142 1484 l
322 1484 l
322 1098 l
322 1057 321 1015 318 972 c
316 929 315 904 314 897 c
317 897 l

ce} _d
/i{455 0 137 0 317 1484 sc
137 1312 m
137 1484 l
317 1484 l
317 1312 l
137 1312 l

137 0 m
137 1082 l
317 1082 l
317 0 l
137 0 l

ce} _d
/k{1024 0 138 0 1027 1484 sc
816 0 m
450 494 l
318 385 l
318 0 l
138 0 l
138 1484 l
318 1484 l
318 557 l
793 1082 l
1004 1082 l
565 617 l
1027 0 l
816 0 l

ce} _d
/l{455 0 138 0 318 1484 sc
138 0 m
138 1484 l
318 1484 l
318 0 l
138 0 l

ce} _d
/m{1706 0 136 0 1571 1102 sc
768 0 m
768 686 l
768 791 754 863 725 903 c
696 943 645 963 570 963 c
493 963 433 934 388 875 c
343 816 321 734 321 627 c
321 0 l
142 0 l
142 851 l
142 977 140 1054 136 1082 c
306 1082 l
307 1079 307 1070 308 1055 c
309 1040 309 1023 310 1004 c
311 985 313 950 314 897 c
317 897 l
356 974 400 1027 450 1057 c
500 1087 561 1102 633 1102 c
715 1102 780 1086 827 1053 c
875 1020 908 968 927 897 c
930 897 l
967 970 1012 1022 1065 1054 c
1118 1086 1183 1102 1258 1102 c
1367 1102 1447 1072 1496 1013 c
1546 954 1571 856 1571 721 c
1571 0 l
1393 0 l
1393 686 l
1393 791 1379 863 1350 903 c
1321 943 1270 963 1195 963 c
1116 963 1055 934 1011 875 c
968 817 946 734 946 627 c
946 0 l
768 0 l

ce} _d
/n{1139 0 136 0 1006 1102 sc
825 0 m
825 686 l
825 757 818 813 804 852 c
790 891 768 920 737 937 c
706 954 661 963 602 963 c
515 963 447 933 397 874 c
347 815 322 732 322 627 c
322 0 l
142 0 l
142 851 l
142 977 140 1054 136 1082 c
306 1082 l
307 1079 307 1070 308 1055 c
309 1040 309 1023 310 1004 c
311 985 313 950 314 897 c
317 897 l
358 972 406 1024 460 1055 c
515 1086 582 1102 663 1102 c
782 1102 868 1072 923 1013 c
978 954 1006 857 1006 721 c
1006 0 l
825 0 l

ce} _d
/o{1139 0 86 -20 1053 1102 sc
1053 542 m
1053 353 1011 212 928 119 c
845 26 724 -20 565 -20 c
407 -20 288 28 207 124 c
126 221 86 360 86 542 c
86 915 248 1102 571 1102 c
736 1102 858 1056 936 965 c
1014 874 1053 733 1053 542 c

864 542 m
864 691 842 800 797 867 c
753 935 679 969 574 969 c
469 969 392 934 345 865 c
298 796 275 689 275 542 c
275 399 298 292 344 220 c
391 149 464 113 563 113 c
671 113 748 148 794 217 c
841 286 864 395 864 542 c

ce} _d
/p{1139 0 132 -425 1053 1101 sc
1053 546 m
1053 169 920 -20 655 -20 c
488 -20 376 43 319 168 c
314 168 l
317 163 318 106 318 -2 c
318 -425 l
138 -425 l
138 861 l
138 972 136 1046 132 1082 c
306 1082 l
307 1079 308 1070 309 1053 c
310 1037 312 1012 313 978 c
315 944 316 921 316 908 c
320 908 l
352 975 394 1023 447 1054 c
500 1085 569 1101 655 1101 c
788 1101 888 1056 954 967 c
1020 878 1053 737 1053 546 c

864 542 m
864 693 844 800 803 865 c
762 930 698 962 609 962 c
538 962 482 947 441 917 c
401 887 370 840 349 776 c
328 713 318 630 318 528 c
318 386 341 281 386 214 c
431 147 505 113 607 113 c
696 113 761 146 802 211 c
843 277 864 387 864 542 c

ce} _d
/r{682 0 136 0 648 1102 sc
142 0 m
142 830 l
142 906 140 990 136 1082 c
306 1082 l
311 959 314 886 314 861 c
318 861 l
347 954 380 1017 417 1051 c
454 1085 507 1102 575 1102 c
599 1102 623 1099 648 1092 c
648 927 l
624 934 592 937 552 937 c
477 937 420 905 381 840 c
342 776 322 684 322 564 c
322 0 l
142 0 l

ce} _d
/s{1024 0 57 -20 950 1099 sc
950 299 m
950 197 911 118 834 63 c
757 8 650 -20 511 -20 c
376 -20 272 2 199 46 c
126 91 79 160 57 254 c
216 285 l
231 227 263 184 311 157 c
359 130 426 117 511 117 c
602 117 669 131 711 159 c
754 187 775 229 775 285 c
775 328 760 362 731 389 c
702 416 654 438 589 455 c
460 489 l
357 516 283 542 239 567 c
196 593 162 624 137 661 c
112 698 100 743 100 796 c
100 895 135 970 205 1021 c
276 1073 378 1099 513 1099 c
632 1099 727 1078 797 1036 c
868 994 912 927 931 834 c
769 814 l
759 862 732 899 688 924 c
645 950 586 963 513 963 c
432 963 372 951 333 926 c
294 901 275 864 275 814 c
275 783 283 758 299 738 c
315 718 339 701 370 687 c
401 673 467 654 568 629 c
663 605 732 583 774 562 c
816 542 849 520 873 495 c
898 470 917 442 930 409 c
943 377 950 340 950 299 c

ce} _d
/t{569 0 31 -16 554 1324 sc
554 8 m
495 -8 434 -16 372 -16 c
228 -16 156 66 156 229 c
156 951 l
31 951 l
31 1082 l
163 1082 l
216 1324 l
336 1324 l
336 1082 l
536 1082 l
536 951 l
336 951 l
336 268 l
336 216 344 179 361 158 c
378 137 408 127 450 127 c
474 127 509 132 554 141 c
554 8 l

ce} _d
/u{1139 0 133 -20 1003 1082 sc
314 1082 m
314 396 l
314 325 321 269 335 230 c
349 191 371 162 402 145 c
433 128 478 119 537 119 c
624 119 692 149 742 208 c
792 267 817 350 817 455 c
817 1082 l
997 1082 l
997 231 l
997 105 999 28 1003 0 c
833 0 l
832 3 832 12 831 27 c
830 42 829 58 828 77 c
827 96 826 132 825 185 c
822 185 l
781 110 733 57 678 26 c
624 -5 557 -20 476 -20 c
357 -20 270 9 215 68 c
160 127 133 225 133 361 c
133 1082 l
314 1082 l

ce} _d
/w{1479 0 -3 0 1484 1082 sc
1174 0 m
965 0 l
776 765 l
740 934 l
734 904 725 861 712 804 c
699 748 631 480 508 0 c
300 0 l
-3 1082 l
175 1082 l
358 347 l
363 331 377 265 401 149 c
418 223 l
644 1082 l
837 1082 l
1026 339 l
1072 149 l
1103 288 l
1308 1082 l
1484 1082 l
1174 0 l

ce} _d
/x{1024 0 23 0 1002 1082 sc
801 0 m
510 444 l
217 0 l
23 0 l
408 556 l
41 1082 l
240 1082 l
510 661 l
778 1082 l
979 1082 l
612 558 l
1002 0 l
801 0 l

ce} _d
end readonly def

/BuildGlyph {
 exch begin
 CharStrings exch
 2 copy known not {pop /.notdef} if
 true 3 1 roll get exec
 end
} _d

/BuildChar {
 1 index /Encoding get exch get
 1 index /BuildGlyph get exec
} _d

FontName currentdict end definefont pop
%!PS-Adobe-3.0 Resource-Font
%%Creator: Converted from TrueType to Type 3 by Matplotlib.
10 dict begin
/FontName /DejaVuSans-Oblique def
/PaintType 0 def
/FontMatrix [0.00048828125 0 0 0.00048828125 0 0] def
/FontBBox [-2080 -717 3398 2187] def
/FontType 3 def
/Encoding [/t] def
/CharStrings 2 dict dup begin
/.notdef 0 def
/t{803 0 131 0 866 1438 sc
866 1120 m
838 977 l
471 977 l
352 369 l
348 346 345 327 343 312 c
341 297 340 285 340 276 c
340 233 353 202 378 183 c
404 164 445 154 502 154 c
688 154 l
657 0 l
481 0 l
372 0 290 21 236 64 c
183 107 156 171 156 258 c
156 273 157 290 159 308 c
161 327 164 347 168 369 c
287 977 l
131 977 l
160 1120 l
313 1120 l
375 1438 l
559 1438 l
498 1120 l
866 1120 l

ce} _d
end readonly def

/BuildGlyph {
 exch begin
 CharStrings exch
 2 copy known not {pop /.notdef} if
 true 3 1 roll get exec
 end
} _d

/BuildChar {
 1 index /Encoding get exch get
 1 index /BuildGlyph get exec
} _d

FontName currentdict end definefont pop
end
%%EndProlog
mpldict begin
113.822 151.376 translate
384.356 489.248 0 0 clipbox
gsave
0 0 m
384.35625 0 l
384.35625 489.248125 l
0 489.248125 l
cl
1.000 setgray
fill
grestore
gsave
42.35625 385.630734 m
377.15625 385.630734 l
377.15625 482.048125 l
42.35625 482.048125 l
cl
0.918 0.918 0.949 setrgbcolor
fill
grestore
1.000 setlinewidth
1 setlinejoin
1 setlinecap
[] 0 setdash
1.000 setgray
gsave
334.8 96.417 42.356 385.631 clipbox
57.574432 385.630734 m
57.574432 482.048125 l
stroke
grestore
gsave
334.8 96.417 42.356 385.631 clipbox
97.905445 385.630734 m
97.905445 482.048125 l
stroke
grestore
gsave
334.8 96.417 42.356 385.631 clipbox
138.236458 385.630734 m
138.236458 482.048125 l
stroke
grestore
gsave
334.8 96.417 42.356 385.631 clipbox
178.567471 385.630734 m
178.567471 482.048125 l
stroke
grestore
gsave
334.8 96.417 42.356 385.631 clipbox
218.898484 385.630734 m
218.898484 482.048125 l
stroke
grestore
gsave
334.8 96.417 42.356 385.631 clipbox
259.229497 385.630734 m
259.229497 482.048125 l
stroke
grestore
gsave
334.8 96.417 42.356 385.631 clipbox
299.56051 385.630734 m
299.56051 482.048125 l
stroke
grestore
gsave
334.8 96.417 42.356 385.631 clipbox
339.891523 385.630734 m
339.891523 482.048125 l
stroke
grestore
gsave
334.8 96.417 42.356 385.631 clipbox
42.35625 389.919261 m
377.15625 389.919261 l
stroke
grestore
0.150 setgray
/LiberationSans 10.000 selectfont
gsave

29.793750 386.294261 translate
0.000000 rotate
0.000000 0 m /zero glyphshow
grestore
1.000 setgray
gsave
334.8 96.417 42.356 385.631 clipbox
42.35625 418.741185 m
377.15625 418.741185 l
stroke
grestore
0.150 setgray
gsave

24.231250 415.116185 translate
0.000000 rotate
0.000000 0 m /two glyphshow
5.561523 0 m /zero glyphshow
grestore
1.000 setgray
gsave
334.8 96.417 42.356 385.631 clipbox
42.35625 447.563109 m
377.15625 447.563109 l
stroke
grestore
0.150 setgray
gsave

24.231250 443.938109 translate
0.000000 rotate
0.000000 0 m /four glyphshow
5.561523 0 m /zero glyphshow
grestore
1.000 setgray
gsave
334.8 96.417 42.356 385.631 clipbox
42.35625 476.385032 m
377.15625 476.385032 l
stroke
grestore
0.150 setgray
gsave

24.231250 472.760032 translate
0.000000 rotate
0.000000 0 m /six glyphshow
5.561523 0 m /zero glyphshow
grestore
/LiberationSans 11.000 selectfont
gsave

17.950000 412.417554 translate
90.000000 rotate
0.000000 0 m /E glyphshow
7.336914 0 m /r glyphshow
11.000000 0 m /r glyphshow
14.663086 0 m /o glyphshow
20.780762 0 m /r glyphshow
24.443848 0 m /space glyphshow
27.500000 0 m /bracketleft glyphshow
30.556152 0 m /m glyphshow
39.719238 0 m /bracketright glyphshow
grestore
1.750 setlinewidth
0.298 0.447 0.690 setrgbcolor
gsave
334.8 96.417 42.356 385.631 clipbox
57.574432 390.209328 m
58.139066 390.178135 l
58.555282 390.565051 l
60.245958 390.530274 l
60.694439 391.073738 l
61.588174 390.941311 l
62.010843 390.933688 l
63.375645 392.921014 l
63.904788 392.568245 l
64.353268 393.195216 l
66.892509 393.175514 l
67.424878 393.948099 l
67.966927 393.915959 l
68.479938 394.74318 l
69.02844 395.30221 l
70.080272 395.309564 l
70.625548 395.892382 l
71.161143 396.953768 l
72.219429 397.001181 l
73.248677 397.021467 l
73.764914 398.849573 l
74.761896 398.723375 l
75.28136 400.018493 l
75.771785 399.834313 l
78.185193 399.845794 l
79.162816 402.322217 l
79.659695 402.318086 l
80.19529 403.109967 l
80.737339 403.422406 l
81.811757 403.492079 l
83.295939 403.495812 l
83.750873 403.616425 l
84.25743 403.62927 l
84.776894 405.2199 l
85.276998 405.082181 l
85.812594 406.942834 l
86.299793 408.095099 l
87.390343 407.901863 l
87.903354 411.234094 l
89.003584 410.953873 l
89.552085 411.71058 l
90.123173 411.992669 l
90.674901 412.033773 l
91.194364 413.848035 l
91.762225 413.65375 l
92.26233 413.653554 l
93.246406 416.745906 l
102.1644 416.745487 l
102.667731 419.99764 l
103.174288 419.613741 l
103.742149 421.125445 l
104.290651 420.895056 l
106.533055 420.87111 l
107.08801 422.443191 l
107.588114 422.220599 l
108.698024 422.209716 l
109.198129 423.366713 l
109.707913 423.375869 l
110.211244 424.754053 l
111.282435 424.607181 l
112.963432 424.620024 l
113.489348 425.642637 l
114.660561 425.637475 l
115.170345 426.7942 l
116.296387 426.73431 l
117.438561 426.842419 l
118.577509 428.756099 l
119.119558 428.572788 l
120.732798 428.552275 l
121.307112 429.147865 l
124.740088 429.091396 l
131.147879 429.047838 l
131.647984 429.865577 l
132.654646 429.817055 l
136.497385 429.806603 l
137.052339 430.912317 l
137.558897 430.756317 l
148.999999 430.749404 l
150.084096 430.739317 l
150.639051 431.895045 l
151.194006 432.00487 l
151.752187 433.24898 l
152.887908 433.236591 l
153.465448 432.942756 l
153.994591 432.975025 l
154.575358 433.87268 l
155.133539 434.36024 l
156.314431 434.105387 l
159.640933 434.145083 l
162.509275 434.239338 l
163.090041 434.778586 l
163.670808 435.069416 l
164.767812 435.086681 l
165.355031 435.092668 l
166.003554 436.718393 l
167.752307 436.680049 l
168.300808 436.668952 l
168.888028 436.978917 l
171.904788 436.866217 l
173.082453 436.880528 l
173.650314 438.753432 l
174.192363 438.50547 l
174.808621 440.175649 l
201.481939 440.26049 l
206.660441 440.315026 l
207.228302 441.746447 l
207.831654 441.271751 l
210.148267 441.171509 l
210.725808 442.013903 l
212.548769 441.809733 l
213.142442 444.211235 l
214.923459 444.336016 l
217.856331 444.33881 l
218.475815 445.285659 l
219.069488 445.019619 l
220.231021 444.870306 l
221.995906 444.783566 l
223.115495 446.262651 l
223.644638 446.170492 l
224.180234 445.888223 l
226.880798 445.860749 l
235.6536 445.875454 l
236.189196 447.187417 l
237.815342 447.133203 l
238.357391 448.668702 l
238.941384 448.546461 l
239.980311 448.590762 l
240.557851 450.57387 l
241.122485 450.325426 l
242.606667 450.245266 l
243.177754 452.137662 l
243.716576 451.953176 l
245.297552 451.890216 l
246.452632 451.886309 l
247.010813 453.820999 l
249.14997 453.728187 l
249.656528 455.893699 l
250.714814 455.865879 l
251.318166 457.843847 l
251.876347 457.706169 l
253.008842 457.76137 l
254.13811 457.841383 l
258.739072 457.82306 l
259.242403 457.454089 l
259.777999 457.426444 l
260.297462 461.700054 l
260.849191 461.435816 l
261.43641 477.665516 l
262.091386 461.394637 l
265.304961 461.441009 l
265.879275 461.475276 l
266.450362 463.37323 l
267.031128 463.178347 l
269.215456 463.189859 l
270.315686 463.260182 l
270.886773 464.705496 l
272.474202 464.695657 l
273.067874 466.175998 l
273.597017 466.259946 l
274.684341 466.252309 l
277.968899 466.272302 l
279.553101 466.260943 l
280.091924 469.860319 l
280.633972 467.411671 l
281.179248 467.394941 l
281.734202 468.101366 l
282.289157 467.928094 l
282.87315 467.930074 l
283.45069 469.101505 l
284.534788 469.017914 l
361.938068 468.962537 l
361.938068 468.962537 l
stroke
grestore
0.333 0.659 0.408 setrgbcolor
gsave
334.8 96.417 42.356 385.631 clipbox
57.574432 390.130716 m
58.139066 390.013342 l
58.555282 390.227489 l
59.432885 390.083672 l
60.245958 390.074858 l
60.694439 390.592479 l
61.146146 390.311363 l
62.010843 390.176196 l
62.894899 390.379414 l
63.375645 391.457966 l
63.904788 390.417864 l
64.353268 390.937225 l
65.36961 390.661712 l
66.424669 390.484165 l
66.892509 390.46431 l
67.424878 390.608169 l
67.966927 390.520727 l
68.479938 391.054122 l
69.02844 390.670591 l
70.080272 390.644451 l
70.625548 391.45838 l
71.161143 392.024956 l
71.690286 391.515373 l
72.735666 391.055222 l
73.248677 390.807945 l
73.764914 391.290828 l
74.313415 391.034046 l
74.761896 390.987414 l
75.28136 391.695894 l
75.771785 391.039278 l
78.185193 391.033243 l
79.162816 391.215898 l
79.659695 391.200322 l
80.19529 392.388338 l
80.737339 391.854907 l
81.256803 391.700248 l
83.295939 391.705299 l
83.750873 391.287445 l
84.25743 391.284196 l
84.776894 391.762504 l
85.276998 391.397467 l
85.812594 392.488344 l
86.299793 391.920507 l
86.8612 391.614369 l
87.390343 391.533553 l
87.903354 392.278449 l
89.003584 391.782659 l
89.552085 392.713395 l
90.123173 392.117453 l
90.674901 392.010903 l
91.194364 392.619558 l
91.762225 392.096937 l
92.26233 392.092476 l
93.246406 392.435405 l
94.22403 392.293906 l
96.821347 392.27004 l
98.273264 392.338227 l
98.786274 392.045037 l
100.386609 391.944709 l
102.1644 391.909772 l
102.667731 392.973015 l
103.174288 392.174493 l
103.742149 392.768352 l
104.290651 392.184856 l
105.939383 392.123057 l
106.533055 392.11853 l
107.08801 392.641355 l
107.588114 392.206607 l
108.698024 392.186802 l
109.198129 392.403597 l
109.707913 392.296559 l
110.211244 392.746924 l
110.750066 392.452958 l
111.788993 392.424958 l
112.963432 392.478617 l
113.489348 392.701442 l
114.041077 392.582181 l
114.660561 392.566738 l
115.170345 392.827573 l
115.757564 392.649661 l
117.438561 392.873121 l
118.016101 393.805214 l
118.577509 393.958074 l
119.119558 393.769736 l
120.732798 393.75156 l
121.307112 393.490789 l
123.643084 393.434595 l
131.147879 393.322485 l
131.647984 393.726209 l
132.138409 393.498974 l
133.761329 393.506509 l
136.497385 393.495679 l
137.052339 394.034183 l
137.558897 393.751537 l
140.869266 393.732422 l
144.098974 393.791465 l
144.637796 393.958934 l
145.150807 393.790383 l
147.373852 393.695219 l
150.084096 393.622551 l
150.639051 394.202215 l
151.752187 394.560153 l
152.887908 394.52431 l
153.465448 393.877826 l
153.994591 393.93845 l
154.575358 394.538986 l
155.133539 394.481425 l
156.314431 394.015393 l
158.505212 394.028046 l
162.509275 394.215984 l
163.090041 395.417593 l
163.670808 394.978276 l
164.203177 394.890405 l
165.355031 394.952241 l
166.003554 395.392429 l
167.129596 395.138588 l
168.300808 395.111563 l
168.888028 394.369337 l
173.082453 394.354501 l
173.650314 394.886388 l
174.192363 394.432775 l
174.808621 394.813718 l
193.42219 394.829146 l
195.777521 394.890527 l
206.660441 394.97562 l
207.228302 396.295808 l
207.831654 395.345066 l
209.022226 395.326687 l
210.148267 395.171486 l
210.725808 395.911516 l
211.31948 395.76784 l
212.548769 395.206233 l
213.142442 396.867576 l
216.039822 396.926763 l
217.856331 396.908221 l
218.475815 396.769048 l
219.069488 396.35803 l
220.231021 396.087415 l
221.995906 395.87481 l
222.596031 396.776164 l
223.115495 397.295624 l
223.644638 397.045446 l
224.180234 396.291942 l
225.257878 396.220833 l
235.6536 396.154999 l
236.189196 396.413946 l
236.757057 396.212106 l
237.815342 396.164676 l
238.357391 397.216008 l
238.941384 396.250641 l
239.980311 396.249012 l
240.557851 397.523661 l
241.122485 396.740976 l
242.606667 396.57158 l
243.177754 397.339257 l
243.716576 396.601557 l
244.239266 396.420956 l
246.452632 396.492473 l
247.010813 396.652826 l
247.52705 396.625705 l
249.14997 396.956083 l
249.656528 398.163309 l
250.714814 398.197099 l
251.318166 398.593904 l
251.876347 398.403698 l
253.008842 398.56473 l
254.13811 398.744258 l
258.739072 398.69355 l
259.242403 397.884476 l
259.777999 397.760677 l
260.297462 398.834496 l
260.849191 398.313013 l
262.659246 398.202933 l
264.779044 398.200202 l
265.879275 398.354916 l
266.450362 399.011665 l
267.031128 398.548695 l
268.676634 398.511461 l
270.315686 398.658183 l
270.886773 398.845707 l
271.932153 398.784616 l
272.474202 398.772734 l
273.067874 399.643792 l
274.116481 399.413281 l
275.765212 399.609075 l
276.287902 399.247076 l
279.553101 399.171017 l
280.091924 399.460397 l
280.633972 399.272324 l
281.179248 399.236251 l
281.734202 399.319564 l
282.289157 398.621223 l
282.87315 398.423858 l
283.45069 398.632999 l
283.97338 398.494758 l
286.786872 398.445823 l
294.052907 398.377229 l
327.334059 398.369207 l
361.938068 398.369207 l
361.938068 398.369207 l
stroke
grestore
gsave
42.35625 385.630734 m
42.35625 482.048125 l
grestore
gsave
377.15625 385.630734 m
377.15625 482.048125 l
grestore
gsave
42.35625 385.630734 m
377.15625 385.630734 l
grestore
gsave
42.35625 482.048125 m
377.15625 482.048125 l
grestore
0.300 setlinewidth
0 setlinejoin
0 setlinecap
0.800 setgray
gsave
49.35625 431.06375 m
178.965625 431.06375 l
180.298958 431.06375 180.965625 431.730417 180.965625 433.06375 c
180.965625 475.048125 l
180.965625 476.381458 180.298958 477.048125 178.965625 477.048125 c
49.35625 477.048125 l
48.022917 477.048125 47.35625 476.381458 47.35625 475.048125 c
47.35625 433.06375 l
47.35625 431.730417 48.022917 431.06375 49.35625 431.06375 c
cl
gsave
1.000 setgray
fill
grestore
stroke
grestore
0.150 setgray
/LiberationSans 10.000 selectfont
gsave

51.356250 465.798125 translate
0.000000 rotate
0.000000 0 m /A glyphshow
6.669922 0 m /c glyphshow
11.669922 0 m /c glyphshow
16.669922 0 m /u glyphshow
22.231445 0 m /m glyphshow
30.561523 0 m /u glyphshow
36.123047 0 m /l glyphshow
38.344727 0 m /a glyphshow
43.906250 0 m /t glyphshow
46.684570 0 m /e glyphshow
52.246094 0 m /d glyphshow
57.807617 0 m /space glyphshow
60.585938 0 m /l glyphshow
62.807617 0 m /a glyphshow
68.369141 0 m /n glyphshow
73.930664 0 m /d glyphshow
79.492188 0 m /m glyphshow
87.822266 0 m /a glyphshow
93.383789 0 m /r glyphshow
96.713867 0 m /k glyphshow
101.713867 0 m /space glyphshow
104.492188 0 m /e glyphshow
110.053711 0 m /r glyphshow
113.383789 0 m /r glyphshow
116.713867 0 m /o glyphshow
122.275391 0 m /r glyphshow
grestore
1.750 setlinewidth
1 setlinejoin
1 setlinecap
0.298 0.447 0.690 setrgbcolor
gsave
70.426563 454.97 m
90.426563 454.97 l
stroke
grestore
0.150 setgray
gsave

98.426563 451.470000 translate
0.000000 rotate
0.000000 0 m /P glyphshow
6.669922 0 m /o glyphshow
12.231445 0 m /s glyphshow
17.231445 0 m /i glyphshow
19.453125 0 m /t glyphshow
22.231445 0 m /i glyphshow
24.453125 0 m /o glyphshow
30.014648 0 m /n glyphshow
35.576172 0 m /space glyphshow
38.354492 0 m /e glyphshow
43.916016 0 m /r glyphshow
47.246094 0 m /r glyphshow
50.576172 0 m /o glyphshow
56.137695 0 m /r glyphshow
grestore
0.333 0.659 0.408 setrgbcolor
gsave
70.426563 440.641875 m
90.426563 440.641875 l
stroke
grestore
0.150 setgray
gsave

98.426563 437.141875 translate
0.000000 rotate
0.000000 0 m /D glyphshow
7.221680 0 m /B glyphshow
13.891602 0 m /H glyphshow
21.113281 0 m /space glyphshow
23.891602 0 m /e glyphshow
29.453125 0 m /r glyphshow
32.783203 0 m /r glyphshow
36.113281 0 m /o glyphshow
41.674805 0 m /r glyphshow
grestore
gsave
42.35625 269.929864 m
377.15625 269.929864 l
377.15625 366.347255 l
42.35625 366.347255 l
cl
0.918 0.918 0.949 setrgbcolor
fill
grestore
1.000 setlinewidth
1.000 setgray
gsave
334.8 96.417 42.356 269.93 clipbox
57.574432 269.929864 m
57.574432 366.347255 l
stroke
grestore
gsave
334.8 96.417 42.356 269.93 clipbox
97.905445 269.929864 m
97.905445 366.347255 l
stroke
grestore
gsave
334.8 96.417 42.356 269.93 clipbox
138.236458 269.929864 m
138.236458 366.347255 l
stroke
grestore
gsave
334.8 96.417 42.356 269.93 clipbox
178.567471 269.929864 m
178.567471 366.347255 l
stroke
grestore
gsave
334.8 96.417 42.356 269.93 clipbox
218.898484 269.929864 m
218.898484 366.347255 l
stroke
grestore
gsave
334.8 96.417 42.356 269.93 clipbox
259.229497 269.929864 m
259.229497 366.347255 l
stroke
grestore
gsave
334.8 96.417 42.356 269.93 clipbox
299.56051 269.929864 m
299.56051 366.347255 l
stroke
grestore
gsave
334.8 96.417 42.356 269.93 clipbox
339.891523 269.929864 m
339.891523 366.347255 l
stroke
grestore
gsave
334.8 96.417 42.356 269.93 clipbox
42.35625 317.33457 m
377.15625 317.33457 l
stroke
grestore
0.150 setgray
gsave

21.450000 313.709570 translate
0.000000 rotate
0.000000 0 m /zero glyphshow
5.561523 0 m /period glyphshow
8.339844 0 m /five glyphshow
grestore
1.000 setgray
gsave
334.8 96.417 42.356 269.93 clipbox
42.35625 365.171142 m
377.15625 365.171142 l
stroke
grestore
0.150 setgray
gsave

21.450000 361.546142 translate
0.000000 rotate
0.000000 0 m /one glyphshow
5.561523 0 m /period glyphshow
8.339844 0 m /zero glyphshow
grestore
/LiberationSans 11.000 selectfont
gsave

15.168750 296.716685 translate
90.000000 rotate
0.000000 0 m /E glyphshow
7.336914 0 m /r glyphshow
11.000000 0 m /r glyphshow
14.663086 0 m /o glyphshow
20.780762 0 m /r glyphshow
24.443848 0 m /space glyphshow
27.500000 0 m /bracketleft glyphshow
30.556152 0 m /m glyphshow
39.719238 0 m /bracketright glyphshow
grestore
1.750 setlinewidth
0.298 0.447 0.690 setrgbcolor
gsave
334.8 96.417 42.356 269.93 clipbox
57.574432 288.755267 m
58.139066 286.684402 l
58.555282 290.934704 l
59.003763 289.930552 l
59.855554 289.721684 l
60.245958 289.780301 l
60.694439 295.046252 l
61.146146 292.863225 l
61.588174 292.115666 l
62.010843 291.946975 l
62.423833 295.455586 l
62.894899 297.123148 l
63.375645 302.711965 l
63.904788 298.808629 l
64.353268 300.567689 l
64.885638 300.322967 l
66.892509 300.380833 l
67.424878 302.931888 l
67.966927 302.665172 l
68.479938 305.081982 l
69.02844 305.234935 l
70.080272 305.283758 l
70.625548 305.548034 l
71.161143 308.415907 l
71.690286 308.333343 l
72.735666 308.977092 l
73.248677 308.790445 l
73.764914 311.846269 l
74.313415 311.340009 l
74.761896 311.247825 l
75.28136 314.196622 l
75.771785 313.381453 l
77.701221 313.426401 l
78.185193 313.432268 l
78.672391 315.993911 l
79.162816 317.934565 l
79.659695 317.918434 l
80.19529 318.149091 l
80.737339 319.301456 l
81.256803 319.618728 l
82.273144 319.558232 l
83.295939 319.572198 l
83.750873 320.017054 l
84.25743 320.06443 l
84.776894 322.960963 l
85.276998 322.479751 l
85.812594 326.00702 l
86.299793 326.958873 l
86.8612 326.470189 l
87.390343 326.347978 l
87.903354 331.022933 l
88.455082 330.523988 l
89.552085 329.777458 l
90.123173 330.557777 l
90.674901 330.671479 l
91.194364 333.042432 l
91.762225 332.526495 l
92.26233 332.525975 l
93.246406 335.460889 l
98.273264 335.414062 l
99.286379 335.512399 l
101.564274 335.443445 l
102.1644 335.459857 l
102.667731 338.355856 l
103.174288 337.477003 l
103.742149 338.556393 l
104.290651 338.04655 l
106.533055 337.993558 l
107.08801 339.15077 l
107.588114 338.674069 l
108.698024 338.650762 l
109.198129 338.890115 l
109.707913 338.90911 l
110.211244 339.578364 l
110.750066 339.343748 l
111.788993 339.293082 l
116.296387 339.329987 l
116.8707 339.493084 l
117.438561 339.535052 l
118.016101 339.228194 l
118.577509 339.182983 l
119.119558 338.854068 l
120.732798 338.817263 l
121.307112 338.033615 l
123.643084 337.946811 l
131.147879 337.85886 l
131.647984 337.498043 l
132.138409 337.365312 l
133.2096 337.401049 l
136.497385 337.397652 l
137.052339 337.535347 l
137.558897 337.276428 l
144.098974 337.317027 l
144.637796 337.49635 l
145.696082 337.331723 l
149.571086 337.251634 l
150.084096 337.248214 l
151.752187 337.989022 l
152.887908 337.969438 l
153.465448 337.504976 l
153.994591 337.555982 l
154.575358 337.359159 l
155.133539 338.111919 l
156.314431 337.718443 l
159.073073 337.748082 l
162.509275 337.925254 l
163.090041 337.183731 l
163.670808 337.622548 l
164.203177 337.693009 l
165.355031 337.657632 l
166.003554 338.541428 l
167.129596 338.472668 l
168.300808 338.468487 l
168.888028 338.925783 l
171.285303 338.757365 l
173.082453 338.780628 l
173.650314 339.977538 l
174.192363 339.619669 l
174.808621 340.486905 l
194.622441 340.569019 l
206.660441 340.68378 l
207.228302 341.180551 l
207.831654 340.523995 l
209.590086 340.435501 l
210.148267 340.38535 l
210.725808 340.080013 l
212.548769 339.803387 l
213.142442 340.172464 l
214.923459 340.334897 l
217.856331 340.338534 l
218.475815 340.185072 l
219.069488 339.845414 l
220.231021 339.654784 l
221.995906 339.544042 l
224.180234 338.307841 l
226.364561 338.274677 l
235.6536 338.292142 l
236.189196 338.624978 l
237.282973 338.560758 l
237.815342 338.559537 l
238.357391 339.146661 l
238.941384 339.001742 l
239.980311 339.054262 l
240.557851 340.143745 l
241.122485 339.854378 l
242.606667 339.761013 l
243.177754 340.715695 l
243.716576 340.504525 l
245.297552 340.432458 l
246.452632 340.427987 l
247.010813 341.402774 l
249.14997 341.298338 l
249.656528 342.497774 l
250.714814 342.466991 l
251.318166 343.423492 l
251.876347 343.273651 l
253.008842 343.333729 l
254.13811 343.420811 l
258.739072 343.400869 l
259.242403 342.9993 l
259.777999 342.969214 l
260.297462 345.140307 l
260.849191 344.861855 l
261.43641 361.964647 l
262.091386 344.81846 l
265.304961 344.867327 l
265.879275 344.903437 l
266.450362 345.694033 l
267.031128 345.491874 l
269.215456 345.503816 l
270.315686 345.576764 l
270.886773 345.882524 l
272.474202 345.872475 l
273.067874 346.204355 l
273.597017 346.288798 l
274.684341 346.281116 l
277.968899 346.301227 l
279.553101 346.289801 l
280.091924 348.710214 l
280.633972 346.283891 l
281.179248 346.267314 l
281.734202 345.828044 l
282.289157 345.658877 l
289.53906 345.583924 l
296.098496 345.553199 l
339.152659 345.550397 l
361.938068 345.550397 l
361.938068 345.550397 l
stroke
grestore
0.333 0.659 0.408 setrgbcolor
gsave
334.8 96.417 42.356 269.93 clipbox
57.574432 283.536346 m
58.139066 275.743981 l
58.555282 279.729483 l
59.003763 275.54369 l
59.855554 274.528905 l
60.245958 274.662972 l
60.694439 284.396122 l
61.146146 278.175108 l
61.588174 275.664062 l
62.010843 275.183889 l
62.423833 275.286896 l
62.894899 275.607834 l
63.375645 286.523552 l
63.904788 275.014968 l
64.353268 279.152537 l
64.885638 277.251622 l
65.36961 276.539524 l
65.872941 275.480333 l
66.424669 274.855643 l
66.892509 274.667329 l
67.424878 275.215003 l
67.966927 274.489353 l
68.479938 277.869384 l
69.02844 274.486016 l
70.080272 274.312473 l
70.625548 278.787162 l
71.161143 281.147604 l
71.690286 278.328372 l
72.219429 277.224664 l
73.248677 274.414579 l
73.764914 276.002082 l
74.313415 274.784401 l
74.761896 274.563267 l
75.28136 277.361274 l
75.771785 274.45513 l
78.185193 274.428417 l
78.672391 274.708385 l
79.659695 274.500852 l
80.19529 278.604661 l
80.737339 276.637214 l
81.256803 276.066786 l
82.273144 276.124994 l
83.295939 276.085416 l
83.750873 274.544253 l
84.25743 274.532266 l
84.776894 275.938593 l
85.276998 274.663095 l
85.812594 278.025958 l
86.299793 275.824712 l
86.8612 274.856891 l
87.390343 274.6014 l
87.903354 276.307756 l
88.455082 275.435671 l
89.003584 274.876667 l
89.552085 277.227171 l
90.123173 275.578668 l
90.674901 275.283929 l
91.194364 276.668814 l
91.762225 275.280959 l
92.26233 275.269112 l
92.772114 275.371676 l
93.246406 275.684835 l
93.772323 275.370003 l
96.276072 275.26066 l
97.908671 275.406767 l
98.273264 275.44589 l
98.786274 274.724978 l
99.847786 274.521938 l
102.1644 274.39238 l
102.667731 276.488897 l
103.174288 274.660857 l
103.742149 275.802955 l
104.290651 274.511696 l
105.40056 274.4012 l
106.533055 274.364917 l
107.08801 275.327593 l
107.588114 274.396544 l
108.698024 274.354129 l
109.198129 274.652151 l
109.707913 274.430085 l
110.211244 275.186668 l
110.750066 274.595269 l
111.282435 274.485009 l
112.963432 274.64689 l
113.489348 274.930546 l
114.041077 274.697673 l
114.660561 274.667519 l
115.170345 275.014578 l
115.757564 274.677109 l
116.296387 274.749191 l
116.8707 275.035826 l
117.438561 275.100976 l
118.016101 276.66425 l
118.577509 276.744844 l
119.119558 276.406909 l
120.732798 276.374296 l
121.307112 275.737753 l
122.449286 275.680931 l
125.262778 275.635137 l
127.998834 275.607668 l
131.147879 275.443712 l
131.647984 275.97851 l
132.138409 275.591692 l
133.2096 275.617735 l
136.497385 275.586083 l
137.052339 276.327651 l
137.558897 275.858536 l
139.781942 275.808316 l
143.00197 275.884799 l
144.098974 275.924806 l
144.637796 276.202758 l
145.150807 275.92301 l
146.283302 275.835607 l
150.084096 275.644454 l
150.639051 276.433159 l
151.194006 276.711239 l
151.752187 276.833827 l
152.887908 276.77717 l
153.465448 275.755278 l
153.994591 275.851104 l
154.575358 276.630546 l
155.133539 276.541675 l
155.759476 276.082568 l
156.314431 275.822154 l
157.959937 275.759621 l
159.640933 275.922174 l
160.786334 275.951025 l
161.383233 276.129147 l
162.509275 276.131852 l
163.090041 277.794124 l
163.670808 277.131263 l
164.203177 276.99868 l
165.355031 277.09198 l
166.003554 277.57264 l
167.129596 277.198146 l
168.300808 277.158275 l
168.888028 276.063258 l
173.082453 276.041371 l
173.650314 276.666765 l
174.192363 276.012091 l
174.808621 276.411589 l
192.793026 276.378222 l
195.225793 276.518714 l
204.972992 276.627787 l
206.063542 276.658356 l
206.660441 276.640281 l
207.228302 278.317446 l
207.831654 277.002467 l
209.022226 276.977047 l
210.148267 276.762387 l
210.725808 277.616787 l
211.31948 277.422124 l
211.932511 276.958525 l
212.548769 276.661213 l
213.142442 278.542952 l
216.039822 278.619999 l
217.856331 278.595861 l
218.475815 278.243219 l
219.069488 277.718466 l
220.231021 277.372968 l
221.995906 277.101532 l
222.596031 278.087128 l
223.115495 278.566708 l
223.644638 278.259133 l
224.180234 277.332754 l
225.257878 277.24533 l
231.833447 277.247279 l
234.566276 277.215034 l
235.6536 277.164391 l
236.189196 277.337571 l
236.757057 277.093935 l
237.815342 277.036684 l
238.357391 278.14844 l
238.941384 277.003977 l
239.980311 277.002047 l
240.557851 278.355008 l
241.122485 277.443398 l
242.606667 277.246098 l
243.177754 277.991225 l
243.716576 277.146823 l
244.239266 276.9401 l
247.52705 277.044355 l
249.14997 277.416109 l
249.656528 278.619919 l
250.714814 278.657308 l
251.318166 278.939016 l
251.876347 278.732006 l
253.008842 278.907264 l
253.567023 279.062257 l
255.309323 279.100277 l
258.739072 279.047465 l
259.242403 278.166912 l
259.777999 278.032176 l
260.297462 278.892835 l
260.849191 278.343299 l
262.659246 278.227297 l
264.779044 278.224419 l
265.879275 278.387457 l
266.450362 278.929824 l
267.031128 278.449571 l
268.676634 278.410947 l
270.315686 278.563147 l
270.886773 278.615215 l
271.932153 278.552818 l
272.474202 278.540682 l
273.067874 279.279866 l
274.116481 279.047995 l
275.765212 279.244944 l
276.287902 278.880811 l
280.633972 278.765786 l
281.734202 278.675616 l
282.289157 277.993818 l
282.87315 277.801129 l
283.45069 277.882021 l
284.534788 277.720463 l
302.251395 277.62821 l
361.938068 277.62821 l
361.938068 277.62821 l
stroke
grestore
gsave
42.35625 269.929864 m
42.35625 366.347255 l
grestore
gsave
377.15625 269.929864 m
377.15625 366.347255 l
grestore
gsave
42.35625 269.929864 m
377.15625 269.929864 l
grestore
gsave
42.35625 366.347255 m
377.15625 366.347255 l
grestore
0.300 setlinewidth
0 setlinejoin
0 setlinecap
0.800 setgray
gsave
49.35625 315.36288 m
146.16875 315.36288 l
147.502083 315.36288 148.16875 316.029547 148.16875 317.36288 c
148.16875 359.347255 l
148.16875 360.680589 147.502083 361.347255 146.16875 361.347255 c
49.35625 361.347255 l
48.022917 361.347255 47.35625 360.680589 47.35625 359.347255 c
47.35625 317.36288 l
47.35625 316.029547 48.022917 315.36288 49.35625 315.36288 c
cl
gsave
1.000 setgray
fill
grestore
stroke
grestore
0.150 setgray
/LiberationSans 10.000 selectfont
gsave

51.356250 350.097255 translate
0.000000 rotate
0.000000 0 m /M glyphshow
8.330078 0 m /e glyphshow
13.891602 0 m /a glyphshow
19.453125 0 m /n glyphshow
25.014648 0 m /space glyphshow
27.792969 0 m /l glyphshow
30.014648 0 m /a glyphshow
35.576172 0 m /n glyphshow
41.137695 0 m /d glyphshow
46.699219 0 m /m glyphshow
55.029297 0 m /a glyphshow
60.590820 0 m /r glyphshow
63.920898 0 m /k glyphshow
68.920898 0 m /space glyphshow
71.699219 0 m /e glyphshow
77.260742 0 m /r glyphshow
80.590820 0 m /r glyphshow
83.920898 0 m /o glyphshow
89.482422 0 m /r glyphshow
grestore
1.750 setlinewidth
1 setlinejoin
1 setlinecap
0.298 0.447 0.690 setrgbcolor
gsave
54.028125 339.26913 m
74.028125 339.26913 l
stroke
grestore
0.150 setgray
gsave

82.028125 335.769130 translate
0.000000 rotate
0.000000 0 m /P glyphshow
6.669922 0 m /o glyphshow
12.231445 0 m /s glyphshow
17.231445 0 m /i glyphshow
19.453125 0 m /t glyphshow
22.231445 0 m /i glyphshow
24.453125 0 m /o glyphshow
30.014648 0 m /n glyphshow
35.576172 0 m /space glyphshow
38.354492 0 m /e glyphshow
43.916016 0 m /r glyphshow
47.246094 0 m /r glyphshow
50.576172 0 m /o glyphshow
56.137695 0 m /r glyphshow
grestore
0.333 0.659 0.408 setrgbcolor
gsave
54.028125 324.941005 m
74.028125 324.941005 l
stroke
grestore
0.150 setgray
gsave

82.028125 321.441005 translate
0.000000 rotate
0.000000 0 m /D glyphshow
7.221680 0 m /B glyphshow
13.891602 0 m /H glyphshow
21.113281 0 m /space glyphshow
23.891602 0 m /e glyphshow
29.453125 0 m /r glyphshow
32.783203 0 m /r glyphshow
36.113281 0 m /o glyphshow
41.674805 0 m /r glyphshow
grestore
gsave
42.35625 154.228995 m
377.15625 154.228995 l
377.15625 250.646386 l
42.35625 250.646386 l
cl
0.918 0.918 0.949 setrgbcolor
fill
grestore
1.000 setlinewidth
1.000 setgray
gsave
334.8 96.417 42.356 154.229 clipbox
57.574432 154.228995 m
57.574432 250.646386 l
stroke
grestore
gsave
334.8 96.417 42.356 154.229 clipbox
97.905445 154.228995 m
97.905445 250.646386 l
stroke
grestore
gsave
334.8 96.417 42.356 154.229 clipbox
138.236458 154.228995 m
138.236458 250.646386 l
stroke
grestore
gsave
334.8 96.417 42.356 154.229 clipbox
178.567471 154.228995 m
178.567471 250.646386 l
stroke
grestore
gsave
334.8 96.417 42.356 154.229 clipbox
218.898484 154.228995 m
218.898484 250.646386 l
stroke
grestore
gsave
334.8 96.417 42.356 154.229 clipbox
259.229497 154.228995 m
259.229497 250.646386 l
stroke
grestore
gsave
334.8 96.417 42.356 154.229 clipbox
299.56051 154.228995 m
299.56051 250.646386 l
stroke
grestore
gsave
334.8 96.417 42.356 154.229 clipbox
339.891523 154.228995 m
339.891523 250.646386 l
stroke
grestore
gsave
334.8 96.417 42.356 154.229 clipbox
42.35625 158.208098 m
377.15625 158.208098 l
stroke
grestore
0.150 setgray
gsave

21.450000 154.583098 translate
0.000000 rotate
0.000000 0 m /zero glyphshow
5.561523 0 m /period glyphshow
8.339844 0 m /zero glyphshow
grestore
1.000 setgray
gsave
334.8 96.417 42.356 154.229 clipbox
42.35625 190.580376 m
377.15625 190.580376 l
stroke
grestore
0.150 setgray
gsave

21.450000 186.955376 translate
0.000000 rotate
0.000000 0 m /zero glyphshow
5.561523 0 m /period glyphshow
8.339844 0 m /five glyphshow
grestore
1.000 setgray
gsave
334.8 96.417 42.356 154.229 clipbox
42.35625 222.952655 m
377.15625 222.952655 l
stroke
grestore
0.150 setgray
gsave

21.450000 219.327655 translate
0.000000 rotate
0.000000 0 m /one glyphshow
5.561523 0 m /period glyphshow
8.339844 0 m /zero glyphshow
grestore
/LiberationSans 11.000 selectfont
gsave

15.168750 181.015815 translate
90.000000 rotate
0.000000 0 m /E glyphshow
7.336914 0 m /r glyphshow
11.000000 0 m /r glyphshow
14.663086 0 m /o glyphshow
20.780762 0 m /r glyphshow
24.443848 0 m /space glyphshow
27.500000 0 m /bracketleft glyphshow
30.556152 0 m /m glyphshow
39.719238 0 m /bracketright glyphshow
grestore
1.750 setlinewidth
1.000 0.000 0.000 setrgbcolor
gsave
334.8 96.417 42.356 154.229 clipbox
57.574432 170.157899 m
58.139066 169.373975 l
58.555282 167.829845 l
59.003763 171.600196 l
59.432885 174.24879 l
59.855554 175.053976 l
60.245958 174.618211 l
60.694439 173.146944 l
61.146146 176.449184 l
62.010843 171.55078 l
62.423833 173.069469 l
63.375645 174.95194 l
63.904788 178.802745 l
64.353268 178.394079 l
64.885638 181.809268 l
65.872941 184.550252 l
66.424669 186.328716 l
66.892509 184.960527 l
67.424878 189.097378 l
67.966927 189.700497 l
68.479938 187.075653 l
69.02844 186.993341 l
70.080272 192.725372 l
70.625548 191.297778 l
71.161143 191.217519 l
71.690286 191.309564 l
72.219429 194.471592 l
72.735666 196.500229 l
73.248677 196.369751 l
73.764914 197.761376 l
74.761896 197.174168 l
75.28136 199.33062 l
75.771785 200.251748 l
76.265437 198.605909 l
76.739729 201.990453 l
77.194663 200.841838 l
77.701221 202.128385 l
78.185193 203.786249 l
78.672391 202.801426 l
79.659695 205.387853 l
80.737339 208.585122 l
81.256803 210.911424 l
81.811757 211.156205 l
82.273144 212.212627 l
83.295939 214.989632 l
83.750873 215.536996 l
84.25743 216.86452 l
84.776894 216.76148 l
85.276998 218.340161 l
85.812594 219.652913 l
86.299793 221.278267 l
86.8612 222.668512 l
87.390343 225.614429 l
87.903354 223.919763 l
88.455082 225.803412 l
89.003584 224.616508 l
89.552085 225.219359 l
90.123173 226.561431 l
90.674901 227.498668 l
91.194364 230.935422 l
91.762225 231.908307 l
92.26233 234.068613 l
92.772114 231.066254 l
93.246406 226.038949 l
93.772323 223.323864 l
94.740267 228.945603 l
95.272636 224.324467 l
95.766288 221.822285 l
96.276072 220.237453 l
96.821347 219.435546 l
97.36017 230.915475 l
97.908671 234.506076 l
98.273264 230.233661 l
98.786274 227.973754 l
99.286379 224.319171 l
99.847786 229.804198 l
100.386609 230.411699 l
100.957696 227.114133 l
101.564274 226.624344 l
102.1644 223.817713 l
102.667731 222.189794 l
103.174288 225.19716 l
103.742149 224.213267 l
104.8327 228.164636 l
105.40056 227.696826 l
105.939383 222.830592 l
106.533055 220.570272 l
107.08801 219.775012 l
107.588114 218.541489 l
108.698024 215.013601 l
109.198129 214.800226 l
109.707913 212.811789 l
110.211244 212.023154 l
110.750066 212.438574 l
111.282435 210.675855 l
111.788993 210.315706 l
112.963432 205.994791 l
113.489348 202.96708 l
114.041077 204.430927 l
114.660561 204.313497 l
115.170345 206.634771 l
115.757564 207.876463 l
116.296387 207.311352 l
116.8707 205.736962 l
117.438561 204.537937 l
118.016101 202.672232 l
118.577509 200.016841 l
119.119558 198.849558 l
119.693871 197.262477 l
120.203655 192.753311 l
120.732798 193.215988 l
121.897558 186.502416 l
122.449286 182.234642 l
123.068771 181.500636 l
123.643084 178.576735 l
124.217398 180.661396 l
124.740088 177.959594 l
125.262778 183.450263 l
125.811279 184.971374 l
126.395272 184.922284 l
126.934095 188.691195 l
127.450332 187.307683 l
127.998834 188.839481 l
128.534429 186.529411 l
129.008722 187.060435 l
129.534639 188.302506 l
130.050876 188.587853 l
130.589698 186.810431 l
131.147879 187.419491 l
132.138409 187.289609 l
132.654646 186.886548 l
133.2096 187.983009 l
133.761329 191.483544 l
134.296925 192.344796 l
134.790576 185.602141 l
135.342304 180.845758 l
135.919845 180.425122 l
136.497385 190.749683 l
137.052339 196.395798 l
137.558897 188.697281 l
138.152569 184.111975 l
138.697845 182.1148 l
139.233441 189.098238 l
139.781942 187.367873 l
140.34335 186.44601 l
140.869266 187.29206 l
141.408089 188.725572 l
141.930779 191.045638 l
142.459922 193.960349 l
143.00197 198.499243 l
143.566605 201.344573 l
144.098974 204.623925 l
144.637796 206.753767 l
145.150807 196.963327 l
145.696082 194.624725 l
146.831803 206.948004 l
147.373852 203.73903 l
147.93526 204.295515 l
148.477309 206.579379 l
148.999999 205.277517 l
150.084096 207.866073 l
150.639051 208.626002 l
151.194006 206.84609 l
151.752187 207.33837 l
152.329727 201.971717 l
152.887908 200.552214 l
153.465448 198.277752 l
153.994591 199.98092 l
154.575358 203.592566 l
155.133539 210.238501 l
155.759476 201.048682 l
156.314431 198.205805 l
157.417888 207.256832 l
157.959937 214.22466 l
158.505212 214.322004 l
159.073073 217.637861 l
159.640933 212.945088 l
160.231379 212.362954 l
160.786334 212.730915 l
161.383233 213.70996 l
161.957547 211.599176 l
162.509275 213.288115 l
163.090041 214.171482 l
164.203177 222.412541 l
164.767812 224.048503 l
165.355031 222.325476 l
166.003554 223.468491 l
166.545603 225.231028 l
167.752307 212.849954 l
168.300808 213.653888 l
168.888028 220.545682 l
169.513965 223.050592 l
170.12377 220.25313 l
170.704537 226.587165 l
171.285303 228.472913 l
171.904788 228.184829 l
172.462969 229.721687 l
173.082453 224.582856 l
173.650314 223.780687 l
174.192363 224.128293 l
174.808621 224.123926 l
175.979833 224.53068 l
176.544467 223.645566 l
177.105875 223.382337 l
177.702774 221.837064 l
178.260955 217.377985 l
178.848175 217.319186 l
179.454753 215.488211 l
180.106502 222.008415 l
180.645325 218.366547 l
181.258356 215.374311 l
181.852029 213.467704 l
182.432795 222.457031 l
183.026468 226.97233 l
183.597555 222.959507 l
184.217039 215.32675 l
184.768768 216.799423 l
185.359214 217.50135 l
185.894809 214.462605 l
186.452991 210.049206 l
187.011172 207.818957 l
187.611297 204.418161 l
188.188837 208.091665 l
188.805095 209.413 l
189.4149 208.999266 l
189.982761 211.771946 l
190.521583 212.376541 l
191.137841 212.296062 l
191.696022 209.894165 l
192.212259 209.312578 l
192.793026 215.07954 l
193.42219 213.607987 l
193.99973 211.196329 l
195.225793 199.639853 l
195.777521 203.518354 l
196.358287 215.304181 l
196.968092 211.055742 l
197.523047 200.544179 l
198.090908 200.912182 l
198.658768 199.057777 l
199.20727 196.829603 l
199.723507 197.730146 l
201.481939 208.29081 l
202.085291 212.209089 l
202.63702 207.903939 l
203.221013 201.143358 l
203.795326 201.637064 l
204.385772 199.218023 l
204.972992 194.62041 l
205.502135 195.900176 l
206.660441 202.00998 l
207.228302 203.199171 l
207.831654 201.476968 l
208.444685 201.986114 l
209.590086 198.96341 l
210.148267 199.679997 l
210.725808 190.942823 l
211.932511 200.883878 l
212.548769 202.8651 l
213.723208 197.698542 l
214.339466 196.752288 l
214.923459 195.508633 l
215.471961 198.837153 l
216.039822 199.535985 l
216.630268 204.428715 l
217.256205 206.114827 l
217.856331 208.395101 l
218.475815 201.259736 l
219.069488 202.035306 l
219.669613 202.115243 l
220.231021 201.245439 l
220.81824 203.07516 l
221.421592 200.929933 l
221.995906 202.83225 l
222.596031 194.876369 l
223.115495 189.751723 l
223.644638 189.974617 l
224.180234 195.510136 l
224.738415 197.949635 l
225.257878 194.89358 l
225.835418 193.166222 l
226.364561 194.719157 l
226.880798 193.294548 l
227.458338 186.272732 l
228.026199 185.513649 l
228.545662 185.035806 l
229.123202 188.365984 l
229.700743 186.407666 l
230.21698 188.149034 l
230.759028 197.847848 l
231.294624 200.400995 l
231.833447 190.277059 l
232.35291 187.952582 l
232.878826 191.979807 l
233.449914 198.896016 l
234.03068 201.764529 l
234.566276 198.898536 l
235.118004 201.345583 l
236.189196 208.187822 l
236.757057 206.999049 l
237.282973 209.887342 l
237.815342 207.183728 l
238.941384 207.555984 l
239.447942 207.173069 l
239.980311 208.160207 l
240.557851 209.507744 l
241.122485 210.001858 l
241.603231 211.107269 l
242.103336 212.860182 l
242.606667 210.982201 l
243.177754 213.036686 l
243.716576 213.059386 l
244.239266 215.014321 l
244.781315 215.758877 l
245.297552 218.381681 l
247.010813 223.59459 l
247.52705 225.346316 l
248.056193 222.236516 l
248.620827 223.875492 l
249.14997 226.850594 l
249.656528 226.829101 l
250.156632 222.127754 l
250.714814 222.670128 l
252.479699 227.268103 l
253.008842 229.903307 l
253.567023 233.339874 l
254.13811 234.959027 l
254.760821 239.983547 l
255.309323 240.552481 l
255.886863 242.173958 l
256.486988 238.687625 l
257.032264 238.702356 l
257.61303 241.015758 l
258.197023 245.488187 l
258.739072 244.964391 l
259.242403 236.400248 l
260.297462 246.263777 l
260.849191 245.079147 l
261.43641 244.387668 l
262.091386 241.386423 l
262.659246 243.581266 l
263.149672 243.400463 l
263.665909 243.977738 l
264.217637 242.378951 l
264.779044 238.854453 l
265.304961 240.517546 l
265.879275 237.621902 l
266.450362 239.817221 l
267.031128 246.136042 l
267.57963 244.26387 l
268.160397 239.56643 l
268.676634 241.56911 l
269.215456 240.794532 l
269.802675 237.603646 l
270.315686 240.324244 l
270.886773 234.514584 l
271.441728 234.217 l
271.932153 235.067444 l
272.474202 233.068323 l
273.067874 233.39509 l
273.597017 234.293394 l
274.116481 227.837048 l
274.684341 226.884423 l
276.287902 216.59326 l
276.862216 216.49872 l
277.417171 218.543143 l
277.968899 218.830425 l
278.478683 218.399559 l
279.027185 216.158574 l
279.553101 217.393916 l
280.091924 211.808175 l
280.633972 216.638612 l
281.179248 210.117404 l
281.734202 208.719947 l
282.289157 207.64825 l
282.87315 208.746874 l
283.45069 204.779396 l
283.97338 204.754869 l
284.534788 198.821222 l
285.725359 193.675241 l
286.270635 192.283372 l
286.786872 192.453581 l
287.354732 184.207168 l
287.883875 185.632349 l
288.43883 195.00619 l
288.993785 198.101977 l
289.53906 199.820514 l
290.103694 185.403207 l
290.678008 183.960493 l
291.213604 192.548178 l
291.791144 196.680073 l
292.362231 197.473471 l
292.926865 189.320342 l
293.501179 188.574746 l
294.052907 192.020506 l
294.57237 194.477773 l
295.085381 194.590996 l
295.595165 190.767657 l
296.598601 188.937592 l
297.095479 187.392164 l
297.59881 184.290099 l
298.140858 186.232184 l
298.615151 183.972948 l
299.09267 183.840986 l
299.547604 180.794439 l
299.976726 181.016108 l
300.434887 180.206121 l
300.870461 182.118426 l
301.315716 179.937114 l
301.764197 182.301065 l
302.251395 184.093362 l
302.767632 183.255304 l
303.232246 187.426391 l
303.722671 183.7809 l
304.709974 189.465539 l
305.200399 190.53551 l
305.697277 192.338024 l
306.168343 188.567129 l
307.100796 190.139255 l
308.02357 190.845 l
308.526901 192.194359 l
308.981835 192.891036 l
309.446448 194.049941 l
310.372448 194.313825 l
310.875779 197.010537 l
311.788873 203.51289 l
312.276072 203.382136 l
339.610819 203.384689 l
361.938068 203.380966 l
361.938068 203.380966 l
stroke
grestore
0.502 0.000 0.502 setrgbcolor
gsave
334.8 96.417 42.356 154.229 clipbox
57.574432 159.531827 m
58.139066 160.013461 l
58.555282 159.536543 l
59.432885 160.468955 l
59.855554 159.697939 l
60.245958 159.711672 l
60.694439 159.071877 l
61.146146 159.316134 l
61.588174 159.916186 l
62.423833 159.331449 l
62.894899 158.763019 l
63.375645 159.227287 l
63.904788 159.568505 l
64.353268 159.013612 l
64.885638 159.591877 l
65.36961 159.750093 l
66.424669 160.666495 l
66.892509 160.429749 l
67.424878 160.988393 l
67.966927 160.919289 l
68.479938 160.445444 l
69.02844 160.222161 l
69.560809 160.662682 l
70.080272 161.327542 l
70.625548 160.946515 l
71.161143 160.284563 l
71.690286 160.157016 l
72.219429 161.051998 l
72.735666 162.310151 l
73.248677 162.448289 l
73.764914 162.372058 l
74.761896 162.703038 l
75.28136 162.818869 l
75.771785 162.763489 l
76.265437 161.219838 l
77.194663 160.16375 l
77.701221 158.611603 l
78.185193 158.949808 l
78.672391 160.908374 l
79.162816 160.219156 l
79.659695 160.51176 l
80.19529 161.078595 l
80.737339 159.809876 l
81.256803 161.344415 l
82.273144 159.965843 l
82.770022 160.904144 l
83.295939 160.706819 l
83.750873 161.448193 l
84.25743 161.408179 l
84.776894 163.34185 l
85.276998 162.334338 l
85.812594 162.975322 l
86.299793 163.06427 l
86.8612 163.409557 l
87.390343 164.495877 l
87.903354 164.969456 l
88.455082 164.250866 l
89.003584 164.58217 l
90.123173 163.886621 l
90.674901 164.451205 l
91.194364 164.50325 l
91.762225 165.675333 l
92.26233 166.42085 l
92.772114 167.506982 l
93.246406 167.228508 l
93.772323 169.369373 l
94.22403 168.307403 l
94.740267 167.970704 l
95.272636 168.493251 l
95.766288 168.659001 l
96.276072 168.649075 l
96.821347 168.308953 l
97.908671 166.459161 l
98.273264 166.449289 l
98.786274 166.085077 l
99.286379 166.142775 l
99.847786 165.333027 l
100.386609 163.691593 l
100.957696 163.101672 l
101.564274 163.625322 l
102.1644 165.308589 l
102.667731 165.81276 l
103.174288 165.104372 l
103.742149 165.115727 l
104.290651 165.890049 l
104.8327 164.580416 l
105.40056 163.979985 l
105.939383 164.505588 l
106.533055 163.916264 l
107.08801 165.259124 l
107.588114 164.657082 l
108.136616 165.841382 l
108.698024 165.56673 l
109.198129 166.430223 l
109.707913 165.221374 l
110.211244 164.795152 l
110.750066 164.056609 l
111.282435 165.864383 l
111.788993 166.138141 l
112.347174 165.931697 l
112.963432 164.354615 l
113.489348 167.041398 l
114.041077 165.493305 l
114.660561 166.065864 l
115.170345 165.472585 l
115.757564 165.29749 l
116.8707 166.975499 l
117.438561 166.279481 l
118.577509 166.680361 l
119.119558 166.629061 l
120.203655 167.088319 l
121.307112 166.584772 l
121.897558 166.492797 l
122.449286 165.270297 l
123.068771 164.973386 l
123.643084 165.064521 l
124.217398 164.8773 l
124.740088 165.566416 l
125.262778 165.669922 l
125.811279 166.003515 l
126.395272 167.381571 l
126.934095 166.43603 l
127.450332 166.496362 l
127.998834 167.802717 l
128.534429 165.686839 l
129.008722 164.865728 l
129.534639 164.524138 l
130.589698 162.762992 l
131.647984 161.430741 l
132.138409 161.292075 l
132.654646 160.210507 l
133.2096 159.977281 l
133.761329 160.262206 l
134.296925 159.467067 l
134.790576 160.643183 l
135.342304 160.778195 l
135.919845 161.137487 l
136.497385 160.604841 l
137.052339 160.826317 l
137.558897 161.359034 l
138.152569 162.25532 l
138.697845 162.328306 l
139.233441 161.120539 l
139.781942 160.786688 l
140.869266 162.528132 l
141.930779 161.435047 l
142.459922 161.600574 l
143.00197 160.663284 l
143.566605 160.715175 l
144.098974 160.489345 l
144.637796 160.032922 l
145.150807 160.217645 l
145.696082 161.238705 l
146.283302 161.277308 l
146.831803 161.495718 l
147.373852 161.960369 l
147.93526 162.283098 l
148.477309 162.166708 l
148.999999 162.982494 l
149.571086 163.433986 l
150.084096 162.804192 l
150.639051 162.500638 l
151.194006 161.439508 l
152.887908 160.804364 l
153.465448 160.300637 l
153.994591 160.854181 l
154.575358 161.272573 l
155.133539 161.357692 l
156.885518 159.119984 l
157.417888 160.479681 l
158.505212 161.648351 l
159.073073 161.956277 l
159.640933 162.719452 l
160.231379 163.274786 l
160.786334 164.465846 l
161.383233 163.67506 l
161.957547 163.616111 l
162.509275 163.874707 l
163.090041 162.898964 l
163.670808 162.645098 l
164.203177 163.15317 l
164.767812 162.596685 l
166.003554 164.157436 l
166.545603 163.506331 l
167.129596 163.496372 l
167.752307 164.187992 l
168.300808 163.710245 l
168.888028 162.905159 l
169.513965 162.838673 l
170.12377 164.065497 l
170.704537 162.306858 l
171.285303 162.953107 l
172.462969 162.339346 l
173.082453 162.962174 l
173.650314 163.018775 l
174.192363 163.362373 l
174.808621 163.285965 l
175.415199 161.798486 l
175.979833 162.050186 l
176.544467 161.683827 l
177.105875 163.414281 l
177.702774 163.800199 l
178.260955 163.799979 l
178.848175 164.307721 l
180.106502 168.400069 l
180.645325 168.618311 l
181.258356 168.371842 l
181.852029 168.751028 l
183.026468 168.0119 l
183.597555 168.310101 l
184.217039 166.480117 l
184.768768 165.915875 l
185.359214 166.959123 l
185.894809 167.092784 l
186.452991 165.30679 l
187.011172 165.068188 l
188.188837 163.958955 l
188.805095 163.707294 l
189.4149 164.794003 l
189.982761 164.477523 l
190.521583 163.484367 l
191.137841 163.399491 l
191.696022 162.968993 l
192.212259 164.671417 l
192.793026 163.608931 l
193.42219 163.554117 l
193.99973 163.24988 l
195.225793 163.353899 l
196.358287 161.999967 l
196.968092 162.670736 l
197.523047 162.789106 l
198.090908 162.444677 l
198.658768 162.881188 l
199.20727 162.312893 l
199.723507 161.980125 l
200.313953 162.072591 l
200.914079 161.897253 l
202.085291 161.807369 l
202.63702 161.960946 l
203.221013 161.159542 l
203.795326 163.50379 l
204.385772 163.552091 l
204.972992 163.183867 l
205.502135 164.40973 l
206.063542 163.755577 l
206.660441 164.2054 l
207.228302 163.437784 l
207.831654 164.579948 l
208.444685 163.410895 l
209.022226 163.036839 l
209.590086 162.335698 l
210.148267 161.08881 l
210.725808 161.787383 l
211.31948 161.24687 l
211.932511 161.331674 l
212.548769 161.65234 l
213.142442 160.580457 l
213.723208 158.860404 l
214.339466 159.646295 l
215.471961 160.267758 l
216.039822 160.375517 l
216.630268 159.962826 l
217.256205 160.017737 l
217.856331 160.642977 l
218.475815 160.787857 l
219.069488 162.43314 l
219.669613 161.212527 l
220.231021 163.590403 l
220.81824 163.51344 l
221.421592 161.743412 l
221.995906 162.568377 l
222.596031 163.007761 l
223.115495 162.928528 l
223.644638 163.81937 l
224.180234 164.187729 l
224.738415 165.183412 l
225.257878 164.897292 l
225.835418 165.303445 l
226.364561 164.841913 l
226.880798 164.898355 l
228.026199 163.96962 l
228.545662 163.827405 l
229.123202 162.855613 l
229.700743 163.180661 l
230.21698 162.642715 l
230.759028 162.628375 l
231.294624 162.072916 l
231.833447 161.884685 l
232.35291 161.845815 l
233.449914 159.803789 l
234.03068 160.40576 l
234.566276 160.570759 l
235.118004 160.107101 l
235.6536 160.383146 l
236.189196 160.077668 l
236.757057 160.499857 l
237.282973 161.282615 l
237.815342 159.994196 l
238.357391 159.764974 l
238.941384 159.731299 l
239.447942 159.858259 l
239.980311 160.64031 l
240.557851 160.247299 l
241.122485 159.679007 l
242.103336 160.572613 l
242.606667 160.772015 l
243.716576 162.233099 l
244.239266 162.254606 l
244.781315 161.591891 l
245.297552 162.684885 l
245.910583 162.50455 l
246.452632 163.264898 l
247.010813 162.954379 l
247.52705 162.189872 l
248.056193 161.631234 l
248.620827 161.788438 l
249.14997 160.840942 l
249.656528 162.168839 l
250.156632 161.985012 l
250.714814 162.69124 l
251.318166 164.003263 l
251.876347 163.034023 l
252.479699 163.198164 l
253.008842 164.581766 l
253.567023 163.240462 l
254.760821 164.721536 l
255.309323 165.110045 l
255.886863 166.183939 l
256.486988 166.680865 l
257.032264 168.002144 l
257.61303 166.763391 l
258.197023 166.602374 l
258.739072 165.797343 l
259.242403 166.765533 l
260.297462 166.720475 l
260.849191 167.2394 l
261.43641 167.382824 l
262.091386 167.713691 l
262.659246 167.783178 l
263.149672 166.535538 l
263.665909 166.781712 l
264.217637 168.652244 l
264.779044 167.876012 l
265.304961 167.662584 l
265.879275 167.052111 l
266.450362 166.169609 l
267.031128 166.677323 l
267.57963 166.543575 l
268.676634 167.174624 l
269.215456 168.218431 l
269.802675 168.118511 l
270.315686 167.832881 l
271.932153 166.041818 l
272.474202 164.673836 l
273.067874 165.693174 l
273.597017 167.683319 l
274.116481 166.325072 l
274.684341 165.219748 l
275.197352 165.338818 l
275.765212 165.247607 l
276.287902 165.362386 l
276.862216 164.885219 l
277.417171 164.604536 l
277.968899 166.495629 l
278.478683 164.641127 l
279.027185 165.891032 l
279.553101 165.434767 l
280.091924 165.183474 l
280.633972 165.392373 l
281.179248 164.885484 l
281.734202 164.925447 l
282.289157 165.967175 l
282.87315 163.308002 l
283.45069 163.996746 l
283.97338 163.743533 l
284.534788 162.788858 l
285.144593 162.558307 l
285.725359 162.975362 l
286.270635 163.068234 l
286.786872 161.85396 l
287.354732 162.310768 l
287.883875 162.474631 l
288.43883 162.022659 l
288.993785 161.773596 l
289.53906 162.477974 l
291.213604 163.261977 l
291.791144 163.063529 l
292.362231 163.187852 l
292.926865 163.147318 l
293.501179 162.578715 l
294.57237 161.785382 l
295.085381 161.836009 l
295.595165 163.06601 l
296.098496 162.766917 l
296.598601 161.908441 l
297.095479 161.872499 l
297.59881 162.294637 l
298.140858 163.119116 l
298.615151 161.736449 l
299.09267 162.605962 l
299.547604 162.756521 l
299.976726 162.491296 l
300.434887 163.479704 l
300.870461 162.471706 l
301.315716 163.089711 l
301.764197 162.134408 l
302.251395 163.406558 l
302.767632 163.650105 l
303.232246 163.64805 l
303.722671 160.904579 l
304.222775 160.945341 l
304.709974 164.233428 l
305.200399 161.63884 l
305.697277 162.211764 l
306.168343 161.230303 l
307.100796 161.290608 l
307.584769 161.626671 l
308.02357 161.023312 l
308.526901 161.379932 l
309.446448 160.300034 l
310.372448 160.995633 l
310.875779 161.620209 l
311.304901 161.021959 l
311.788873 160.69072 l
312.276072 160.685192 l
312.7181 160.905185 l
313.205298 161.320552 l
313.679591 161.300078 l
314.140978 161.894956 l
314.576553 160.885998 l
315.034713 160.823699 l
315.4961 161.126047 l
315.941354 161.103695 l
316.428553 160.858538 l
316.902846 160.961531 l
317.380365 160.716687 l
317.87079 160.756802 l
318.316044 160.410932 l
319.748602 158.952325 l
324.507662 159.293003 l
324.965822 159.050696 l
325.427209 159.491995 l
325.92086 160.167342 l
326.372568 159.560394 l
326.859766 159.66733 l
327.334059 159.614593 l
327.850296 160.043474 l
328.334268 160.076146 l
328.785975 160.245468 l
329.640993 159.681686 l
330.544408 159.523311 l
331.015474 160.151826 l
331.499446 160.521705 l
331.973739 160.457889 l
332.46739 159.869967 l
333.909627 159.964197 l
334.374241 159.588716 l
334.858213 159.347875 l
335.316373 159.37104 l
335.806798 159.132913 l
336.29077 159.161905 l
336.774743 158.738636 l
337.287753 158.910473 l
337.752366 159.230467 l
338.223433 159.256364 l
338.697725 158.909693 l
339.152659 158.985972 l
339.610819 159.296751 l
340.0593 159.308754 l
340.536819 159.020052 l
341.024018 158.940523 l
341.524123 158.986378 l
342.453349 158.640003 l
343.869774 159.57154 l
344.344067 159.597844 l
344.811907 159.430152 l
345.305558 159.425558 l
345.850834 159.609724 l
346.831684 159.237649 l
347.325336 158.923497 l
347.773816 158.795833 l
348.277147 158.897347 l
348.748214 159.225824 l
350.225942 159.017857 l
350.726047 159.276265 l
351.187433 158.953104 l
351.677858 159.440751 l
352.165057 159.700856 l
352.642576 159.435831 l
353.133001 159.361863 l
353.587935 159.487103 l
354.08804 160.062453 l
354.581691 160.289447 l
355.062437 160.748352 l
355.99489 160.077576 l
356.498221 160.011487 l
356.991873 160.220659 l
357.462939 160.115406 l
357.982402 160.142767 l
358.501866 159.437368 l
360.027991 159.211399 l
361.03788 159.846023 l
361.479908 160.056337 l
361.938068 159.891575 l
361.938068 159.891575 l
stroke
grestore
gsave
42.35625 154.228995 m
42.35625 250.646386 l
grestore
gsave
377.15625 154.228995 m
377.15625 250.646386 l
grestore
gsave
42.35625 154.228995 m
377.15625 154.228995 l
grestore
gsave
42.35625 250.646386 m
377.15625 250.646386 l
grestore
0.300 setlinewidth
0 setlinejoin
0 setlinecap
0.800 setgray
gsave
49.35625 199.662011 m
141.73125 199.662011 l
143.064583 199.662011 143.73125 200.328678 143.73125 201.662011 c
143.73125 243.646386 l
143.73125 244.979719 143.064583 245.646386 141.73125 245.646386 c
49.35625 245.646386 l
48.022917 245.646386 47.35625 244.979719 47.35625 243.646386 c
47.35625 201.662011 l
47.35625 200.328678 48.022917 199.662011 49.35625 199.662011 c
cl
gsave
1.000 setgray
fill
grestore
stroke
grestore
0.150 setgray
/LiberationSans 10.000 selectfont
gsave

51.356250 234.396386 translate
0.000000 rotate
0.000000 0 m /D glyphshow
7.221680 0 m /r glyphshow
10.551758 0 m /o glyphshow
16.113281 0 m /n glyphshow
21.674805 0 m /e glyphshow
27.236328 0 m /space glyphshow
30.014648 0 m /p glyphshow
35.576172 0 m /o glyphshow
41.137695 0 m /s glyphshow
46.137695 0 m /i glyphshow
48.359375 0 m /t glyphshow
51.137695 0 m /i glyphshow
53.359375 0 m /o glyphshow
58.920898 0 m /n glyphshow
64.482422 0 m /space glyphshow
67.260742 0 m /e glyphshow
72.822266 0 m /r glyphshow
76.152344 0 m /r glyphshow
79.482422 0 m /o glyphshow
85.043945 0 m /r glyphshow
grestore
1.750 setlinewidth
1 setlinejoin
1 setlinecap
1.000 0.000 0.000 setrgbcolor
gsave
62.926563 223.568261 m
82.926563 223.568261 l
stroke
grestore
0.150 setgray
gsave

90.926563 220.068261 translate
0.000000 rotate
0.000000 0 m /S glyphshow
6.669922 0 m /L glyphshow
12.231445 0 m /O glyphshow
20.009766 0 m /A glyphshow
26.679688 0 m /M glyphshow
grestore
0.502 0.000 0.502 setrgbcolor
gsave
62.926563 209.240136 m
82.926563 209.240136 l
stroke
grestore
0.150 setgray
gsave

90.926563 205.740136 translate
0.000000 rotate
0.000000 0 m /P glyphshow
6.669922 0 m /i glyphshow
8.891602 0 m /x glyphshow
13.891602 0 m /h glyphshow
19.453125 0 m /a glyphshow
25.014648 0 m /w glyphshow
32.236328 0 m /k glyphshow
grestore
gsave
42.35625 38.528125 m
377.15625 38.528125 l
377.15625 134.945516 l
42.35625 134.945516 l
cl
0.918 0.918 0.949 setrgbcolor
fill
grestore
1.000 setlinewidth
1.000 setgray
gsave
334.8 96.417 42.356 38.528 clipbox
57.574432 38.528125 m
57.574432 134.945516 l
stroke
grestore
0.150 setgray
gsave

54.793182 24.278125 translate
0.000000 rotate
0.000000 0 m /zero glyphshow
grestore
1.000 setgray
gsave
334.8 96.417 42.356 38.528 clipbox
97.905445 38.528125 m
97.905445 134.945516 l
stroke
grestore
0.150 setgray
gsave

92.342945 24.278125 translate
0.000000 rotate
0.000000 0 m /five glyphshow
5.561523 0 m /zero glyphshow
grestore
1.000 setgray
gsave
334.8 96.417 42.356 38.528 clipbox
138.236458 38.528125 m
138.236458 134.945516 l
stroke
grestore
0.150 setgray
gsave

129.892708 24.278125 translate
0.000000 rotate
0.000000 0 m /one glyphshow
5.561523 0 m /zero glyphshow
11.123047 0 m /zero glyphshow
grestore
1.000 setgray
gsave
334.8 96.417 42.356 38.528 clipbox
178.567471 38.528125 m
178.567471 134.945516 l
stroke
grestore
0.150 setgray
gsave

170.223721 24.278125 translate
0.000000 rotate
0.000000 0 m /one glyphshow
5.561523 0 m /five glyphshow
11.123047 0 m /zero glyphshow
grestore
1.000 setgray
gsave
334.8 96.417 42.356 38.528 clipbox
218.898484 38.528125 m
218.898484 134.945516 l
stroke
grestore
0.150 setgray
gsave

210.554734 24.278125 translate
0.000000 rotate
0.000000 0 m /two glyphshow
5.561523 0 m /zero glyphshow
11.123047 0 m /zero glyphshow
grestore
1.000 setgray
gsave
334.8 96.417 42.356 38.528 clipbox
259.229497 38.528125 m
259.229497 134.945516 l
stroke
grestore
0.150 setgray
gsave

250.885747 24.278125 translate
0.000000 rotate
0.000000 0 m /two glyphshow
5.561523 0 m /five glyphshow
11.123047 0 m /zero glyphshow
grestore
1.000 setgray
gsave
334.8 96.417 42.356 38.528 clipbox
299.56051 38.528125 m
299.56051 134.945516 l
stroke
grestore
0.150 setgray
gsave

291.216760 24.278125 translate
0.000000 rotate
0.000000 0 m /three glyphshow
5.561523 0 m /zero glyphshow
11.123047 0 m /zero glyphshow
grestore
1.000 setgray
gsave
334.8 96.417 42.356 38.528 clipbox
339.891523 38.528125 m
339.891523 134.945516 l
stroke
grestore
0.150 setgray
gsave

331.547773 24.278125 translate
0.000000 rotate
0.000000 0 m /three glyphshow
5.561523 0 m /five glyphshow
11.123047 0 m /zero glyphshow
grestore
gsave
200.256250 10.200000 translate
0.000000 rotate
/DejaVuSans-Oblique 11.0 selectfont
0.000000 0.031250 moveto
/t glyphshow
/LiberationSans 11.0 selectfont
4.312988 0.031250 moveto
/space glyphshow
7.369141 0.031250 moveto
/bracketleft glyphshow
10.425293 0.031250 moveto
/s glyphshow
15.925293 0.031250 moveto
/bracketright glyphshow
grestore
1.000 setgray
gsave
334.8 96.417 42.356 38.528 clipbox
42.35625 41.640412 m
377.15625 41.640412 l
stroke
grestore
0.150 setgray
gsave

29.793750 38.015412 translate
0.000000 rotate
0.000000 0 m /zero glyphshow
grestore
1.000 setgray
gsave
334.8 96.417 42.356 38.528 clipbox
42.35625 67.04684 m
377.15625 67.04684 l
stroke
grestore
0.150 setgray
gsave

24.231250 63.421840 translate
0.000000 rotate
0.000000 0 m /two glyphshow
5.561523 0 m /zero glyphshow
grestore
1.000 setgray
gsave
334.8 96.417 42.356 38.528 clipbox
42.35625 92.453267 m
377.15625 92.453267 l
stroke
grestore
0.150 setgray
gsave

24.231250 88.828267 translate
0.000000 rotate
0.000000 0 m /four glyphshow
5.561523 0 m /zero glyphshow
grestore
1.000 setgray
gsave
334.8 96.417 42.356 38.528 clipbox
42.35625 117.859694 m
377.15625 117.859694 l
stroke
grestore
0.150 setgray
gsave

24.231250 114.234694 translate
0.000000 rotate
0.000000 0 m /six glyphshow
5.561523 0 m /zero glyphshow
grestore
/LiberationSans 11.000 selectfont
gsave

17.950000 64.393071 translate
90.000000 rotate
0.000000 0 m /C glyphshow
7.943848 0 m /o glyphshow
14.061523 0 m /u glyphshow
20.179199 0 m /n glyphshow
26.296875 0 m /t glyphshow
29.353027 0 m /space glyphshow
32.409180 0 m /bracketleft glyphshow
35.465332 0 m /numbersign glyphshow
41.583008 0 m /bracketright glyphshow
grestore
1.750 setlinewidth
0.000 setgray
gsave
334.8 96.417 42.356 38.528 clipbox
57.574432 42.910734 m
58.139066 42.910734 l
58.555282 44.181055 l
60.245958 44.181055 l
60.694439 45.451376 l
62.010843 45.451376 l
62.894899 47.992019 l
63.375645 49.262341 l
63.904788 49.262341 l
64.353268 50.532662 l
66.892509 50.532662 l
67.424878 51.802983 l
67.966927 51.802983 l
69.02844 54.343626 l
70.080272 54.343626 l
71.161143 56.884269 l
73.248677 56.884269 l
73.764914 59.424911 l
74.761896 59.424911 l
75.28136 60.695233 l
78.185193 60.695233 l
79.162816 63.235875 l
79.659695 63.235875 l
80.19529 64.506197 l
84.25743 64.506197 l
84.776894 65.776518 l
85.276998 65.776518 l
86.299793 68.317161 l
87.390343 68.317161 l
87.903354 70.857804 l
89.003584 70.857804 l
89.552085 72.128125 l
90.674901 72.128125 l
91.194364 73.398446 l
92.26233 73.398446 l
93.246406 75.939089 l
102.1644 75.939089 l
102.667731 78.479732 l
103.174288 78.479732 l
103.742149 79.750053 l
106.533055 79.750053 l
107.08801 81.020375 l
108.698024 81.020375 l
109.198129 82.290696 l
109.707913 82.290696 l
110.211244 83.561017 l
112.963432 83.561017 l
113.489348 84.831339 l
114.660561 84.831339 l
115.170345 86.10166 l
117.438561 86.10166 l
118.577509 88.642303 l
120.732798 88.642303 l
121.307112 89.912624 l
131.147879 89.912624 l
131.647984 91.182945 l
136.497385 91.182945 l
137.052339 92.453267 l
150.084096 92.453267 l
150.639051 93.723588 l
151.194006 93.723588 l
151.752187 94.993909 l
153.994591 94.993909 l
154.575358 96.264231 l
162.509275 96.264231 l
163.090041 97.534552 l
165.355031 97.534552 l
166.003554 98.804874 l
173.082453 98.804874 l
173.650314 100.075195 l
174.192363 100.075195 l
174.808621 101.345516 l
206.660441 101.345516 l
207.228302 102.615838 l
210.148267 102.615838 l
210.725808 103.886159 l
212.548769 103.886159 l
213.142442 106.426802 l
217.856331 106.426802 l
218.475815 107.697123 l
221.995906 107.697123 l
223.115495 110.237766 l
235.6536 110.237766 l
236.189196 111.508087 l
237.815342 111.508087 l
238.357391 112.778409 l
239.980311 112.778409 l
240.557851 114.04873 l
242.606667 114.04873 l
243.177754 115.319051 l
246.452632 115.319051 l
247.010813 116.589373 l
249.14997 116.589373 l
249.656528 117.859694 l
250.714814 117.859694 l
251.318166 119.130015 l
259.777999 119.130015 l
260.297462 121.670658 l
265.879275 121.670658 l
266.450362 122.940979 l
270.315686 122.940979 l
270.886773 124.211301 l
272.474202 124.211301 l
273.067874 125.481622 l
279.553101 125.481622 l
280.091924 126.751944 l
281.179248 126.751944 l
281.734202 128.022265 l
282.87315 128.022265 l
283.45069 129.292586 l
361.938068 129.292586 l
361.938068 129.292586 l
stroke
grestore
0 setlinecap
[6.475 2.8] 0 setdash
0.502 setgray
gsave
334.8 96.417 42.356 38.528 clipbox
57.574432 130.562908 m
224.180234 130.562908 l
224.738415 112.778409 l
225.257878 130.562908 l
260.849191 130.562908 l
261.43641 70.857804 l
262.091386 130.562908 l
279.553101 130.562908 l
280.091924 126.751944 l
280.633972 130.562908 l
361.938068 130.562908 l
361.938068 130.562908 l
stroke
grestore
gsave
42.35625 38.528125 m
42.35625 134.945516 l
grestore
gsave
377.15625 38.528125 m
377.15625 134.945516 l
grestore
gsave
42.35625 38.528125 m
377.15625 38.528125 l
grestore
gsave
42.35625 134.945516 m
377.15625 134.945516 l
grestore
0.300 setlinewidth
0 setlinejoin
[] 0 setdash
0.800 setgray
gsave
49.35625 83.961141 m
148.95 83.961141 l
150.283333 83.961141 150.95 84.627808 150.95 85.961141 c
150.95 127.945516 l
150.95 129.27885 150.283333 129.945516 148.95 129.945516 c
49.35625 129.945516 l
48.022917 129.945516 47.35625 129.27885 47.35625 127.945516 c
47.35625 85.961141 l
47.35625 84.627808 48.022917 83.961141 49.35625 83.961141 c
cl
gsave
1.000 setgray
fill
grestore
stroke
grestore
0.150 setgray
/LiberationSans 10.000 selectfont
gsave

51.356250 118.695516 translate
0.000000 rotate
0.000000 0 m /N glyphshow
7.221680 0 m /u glyphshow
12.783203 0 m /m glyphshow
21.113281 0 m /b glyphshow
26.674805 0 m /e glyphshow
32.236328 0 m /r glyphshow
35.566406 0 m /space glyphshow
38.344727 0 m /o glyphshow
43.906250 0 m /f glyphshow
46.684570 0 m /space glyphshow
49.462891 0 m /l glyphshow
51.684570 0 m /a glyphshow
57.246094 0 m /n glyphshow
62.807617 0 m /d glyphshow
68.369141 0 m /m glyphshow
76.699219 0 m /a glyphshow
82.260742 0 m /r glyphshow
85.590820 0 m /k glyphshow
90.590820 0 m /s glyphshow
grestore
1.750 setlinewidth
1 setlinejoin
1 setlinecap
0.000 setgray
gsave
57.075 107.867391 m
77.075 107.867391 l
stroke
grestore
0.150 setgray
gsave

85.075000 104.367391 translate
0.000000 rotate
0.000000 0 m /S glyphshow
6.669922 0 m /L glyphshow
12.231445 0 m /O glyphshow
20.009766 0 m /A glyphshow
26.679688 0 m /M glyphshow
grestore
0 setlinecap
[6.475 2.8] 0 setdash
0.502 setgray
gsave
57.075 93.539266 m
77.075 93.539266 l
stroke
grestore
0.150 setgray
gsave

85.075000 90.039266 translate
0.000000 rotate
0.000000 0 m /G glyphshow
7.778320 0 m /r glyphshow
11.108398 0 m /o glyphshow
16.669922 0 m /u glyphshow
22.231445 0 m /n glyphshow
27.792969 0 m /d glyphshow
33.354492 0 m /space glyphshow
36.132812 0 m /t glyphshow
38.911133 0 m /r glyphshow
42.241211 0 m /u glyphshow
47.802734 0 m /t glyphshow
50.581055 0 m /h glyphshow
grestore

end
showpage
