%!PS-Adobe-3.0 EPSF-3.0
%%Title: sloam_acc.eps
%%Creator: Matplotlib v3.4.3, https://matplotlib.org/
%%CreationDate: Thu May 26 21:32:36 2022
%%Orientation: portrait
%%BoundingBox: 113 151 499 641
%%HiResBoundingBox: 113.821875 151.375938 498.178125 640.624062
%%EndComments
%%BeginProlog
/mpldict 12 dict def
mpldict begin
/_d { bind def } bind def
/m { moveto } _d
/l { lineto } _d
/r { rlineto } _d
/c { curveto } _d
/cl { closepath } _d
/ce { closepath eofill } _d
/box {
      m
      1 index 0 r
      0 exch r
      neg 0 r
      cl
    } _d
/clipbox {
      box
      clip
      newpath
    } _d
/sc { setcachedevice } _d
%!PS-Adobe-3.0 Resource-Font
%%Creator: Converted from TrueType to Type 3 by Matplotlib.
10 dict begin
/FontName /LiberationSans def
/PaintType 0 def
/FontMatrix [0.00048828125 0 0 0.00048828125 0 0] def
/FontBBox [-1114 -621 2666 2007] def
/FontType 3 def
/Encoding [/space /numbersign /period /zero /one /two /three /five /seven /A /B /C /D /E /G /H /L /M /N /O /P /S /bracketleft /bracketright /a /b /c /d /e /f /h /i /k /l /m /n /o /p /r /s /t /u /w /x] def
/CharStrings 45 dict dup begin
/.notdef 0 def
/space{569 0 0 0 0 0 sc
ce} _d
/numbersign{1139 0 9 0 1129 1401 sc
896 885 m
818 516 l
1078 516 l
1078 408 l
795 408 l
707 0 l
597 0 l
683 408 l
320 408 l
236 0 l
126 0 l
210 408 l
9 408 l
9 516 l
234 516 l
312 885 l
60 885 l
60 993 l
334 993 l
423 1401 l
533 1401 l
445 993 l
808 993 l
896 1401 l
1006 1401 l
918 993 l
1129 993 l
1129 885 l
896 885 l

425 885 m
345 516 l
707 516 l
785 885 l
425 885 l

ce} _d
/period{569 0 187 0 382 219 sc
187 0 m
187 219 l
382 219 l
382 0 l
187 0 l

ce} _d
/zero{1139 0 80 -20 1059 1430 sc
1059 705 m
1059 470 1017 290 934 166 c
851 42 729 -20 567 -20 c
405 -20 283 42 202 165 c
121 288 80 468 80 705 c
80 947 119 1128 198 1249 c
277 1370 402 1430 573 1430 c
739 1430 861 1369 940 1247 c
1019 1125 1059 944 1059 705 c

876 705 m
876 908 852 1056 805 1147 c
758 1238 681 1284 573 1284 c
462 1284 383 1239 334 1149 c
286 1059 262 911 262 705 c
262 505 286 359 335 266 c
384 173 462 127 569 127 c
675 127 753 174 802 269 c
851 364 876 509 876 705 c

ce} _d
/one{1139 0 156 0 1039 1409 sc
156 0 m
156 153 l
515 153 l
515 1237 l
197 1010 l
197 1180 l
530 1409 l
696 1409 l
696 153 l
1039 153 l
1039 0 l
156 0 l

ce} _d
/two{1139 0 103 0 1036 1430 sc
103 0 m
103 127 l
137 205 178 274 227 333 c
276 393 328 447 382 495 c
436 544 489 589 542 630 c
595 671 643 713 686 754 c
729 795 763 839 789 884 c
816 929 829 981 829 1038 c
829 1115 806 1175 761 1218 c
716 1261 653 1282 572 1282 c
495 1282 432 1261 382 1219 c
333 1178 304 1119 295 1044 c
111 1061 l
124 1174 172 1263 254 1330 c
337 1397 443 1430 572 1430 c
714 1430 823 1396 899 1329 c
976 1262 1014 1167 1014 1044 c
1014 989 1001 935 976 881 c
951 827 914 773 865 719 c
816 665 721 581 582 468 c
505 405 444 349 399 298 c
354 248 321 200 301 153 c
1036 153 l
1036 0 l
103 0 l

ce} _d
/three{1139 0 78 -20 1049 1430 sc
1049 389 m
1049 259 1008 158 925 87 c
842 16 724 -20 571 -20 c
428 -20 314 12 229 76 c
144 141 94 236 78 362 c
264 379 l
288 212 390 129 571 129 c
662 129 733 151 784 196 c
836 241 862 307 862 395 c
862 472 832 531 773 574 c
714 617 629 639 518 639 c
416 639 l
416 795 l
514 795 l
613 795 689 816 743 859 c
798 902 825 962 825 1038 c
825 1113 803 1173 758 1216 c
714 1260 648 1282 561 1282 c
482 1282 417 1262 368 1221 c
319 1180 291 1123 283 1049 c
102 1063 l
115 1178 163 1268 245 1333 c
328 1398 434 1430 563 1430 c
704 1430 814 1397 892 1331 c
971 1266 1010 1174 1010 1057 c
1010 967 985 894 934 837 c
884 781 811 743 715 723 c
715 719 l
820 708 902 672 961 613 c
1020 554 1049 479 1049 389 c

ce} _d
/five{1139 0 82 -20 1053 1409 sc
1053 459 m
1053 310 1009 193 920 108 c
832 23 710 -20 553 -20 c
422 -20 316 9 235 66 c
154 123 103 206 82 315 c
264 336 l
302 197 400 127 557 127 c
654 127 729 156 784 214 c
839 273 866 353 866 455 c
866 544 838 615 783 670 c
728 725 654 752 561 752 c
512 752 467 744 425 729 c
383 714 341 688 299 651 c
123 651 l
170 1409 l
971 1409 l
971 1256 l
334 1256 l
307 809 l
385 869 482 899 598 899 c
737 899 847 858 929 777 c
1012 696 1053 590 1053 459 c

ce} _d
/seven{1139 0 105 0 1036 1409 sc
1036 1263 m
892 1043 790 871 731 746 c
672 621 627 498 597 377 c
568 256 553 130 553 0 c
365 0 l
365 180 403 369 479 568 c
556 767 683 997 862 1256 c
105 1256 l
105 1409 l
1036 1409 l
1036 1263 l

ce} _d
/A{1366 0 4 0 1362 1409 sc
1167 0 m
1006 412 l
364 412 l
202 0 l
4 0 l
579 1409 l
796 1409 l
1362 0 l
1167 0 l

685 1265 m
676 1237 l
659 1182 635 1111 602 1024 c
422 561 l
949 561 l
768 1026 l
749 1072 731 1124 712 1182 c
685 1265 l

ce} _d
/B{1366 0 168 0 1258 1409 sc
1258 397 m
1258 272 1212 174 1121 104 c
1030 35 903 0 740 0 c
168 0 l
168 1409 l
680 1409 l
1011 1409 1176 1295 1176 1067 c
1176 984 1153 914 1106 857 c
1059 800 993 762 908 743 c
1020 730 1106 692 1167 630 c
1228 569 1258 491 1258 397 c

984 1044 m
984 1120 958 1174 906 1207 c
854 1240 779 1256 680 1256 c
359 1256 l
359 810 l
680 810 l
782 810 858 829 908 867 c
959 906 984 965 984 1044 c

1065 412 m
1065 578 948 661 715 661 c
359 661 l
359 153 l
730 153 l
847 153 932 175 985 218 c
1038 261 1065 326 1065 412 c

ce} _d
/C{1479 0 104 -20 1401 1430 sc
792 1274 m
636 1274 515 1224 428 1123 c
341 1023 298 886 298 711 c
298 538 343 399 433 294 c
524 189 646 137 800 137 c
997 137 1146 235 1245 430 c
1401 352 l
1343 231 1261 138 1156 75 c
1051 12 930 -20 791 -20 c
649 -20 526 9 422 68 c
319 127 240 212 185 321 c
131 431 104 561 104 711 c
104 936 165 1112 286 1239 c
407 1366 575 1430 790 1430 c
940 1430 1065 1401 1166 1342 c
1267 1283 1341 1196 1388 1081 c
1207 1021 l
1174 1103 1122 1166 1049 1209 c
977 1252 891 1274 792 1274 c

ce} _d
/D{1479 0 168 0 1381 1409 sc
1381 719 m
1381 574 1353 446 1296 337 c
1239 228 1159 145 1055 87 c
951 29 831 0 695 0 c
168 0 l
168 1409 l
634 1409 l
873 1409 1057 1349 1186 1229 c
1316 1110 1381 940 1381 719 c

1189 719 m
1189 894 1141 1027 1045 1118 c
950 1210 811 1256 630 1256 c
359 1256 l
359 153 l
673 153 l
776 153 867 176 945 221 c
1024 266 1084 332 1126 417 c
1168 502 1189 603 1189 719 c

ce} _d
/E{1366 0 168 0 1278 1409 sc
168 0 m
168 1409 l
1237 1409 l
1237 1253 l
359 1253 l
359 801 l
1177 801 l
1177 647 l
359 647 l
359 156 l
1278 156 l
1278 0 l
168 0 l

ce} _d
/G{1593 0 103 -20 1440 1430 sc
103 711 m
103 940 164 1117 287 1242 c
410 1367 582 1430 804 1430 c
960 1430 1087 1404 1184 1351 c
1281 1298 1356 1214 1409 1098 c
1227 1044 l
1187 1124 1132 1182 1061 1219 c
991 1256 904 1274 799 1274 c
636 1274 512 1225 426 1126 c
340 1028 297 890 297 711 c
297 533 343 392 434 289 c
525 186 652 135 813 135 c
905 135 991 149 1070 177 c
1150 205 1215 243 1264 291 c
1264 545 l
843 545 l
843 705 l
1440 705 l
1440 219 l
1365 143 1274 84 1165 42 c
1057 1 940 -20 813 -20 c
666 -20 539 9 432 68 c
325 127 244 211 187 321 c
131 432 103 562 103 711 c

ce} _d
/H{1479 0 168 0 1312 1409 sc
1121 0 m
1121 653 l
359 653 l
359 0 l
168 0 l
168 1409 l
359 1409 l
359 813 l
1121 813 l
1121 1409 l
1312 1409 l
1312 0 l
1121 0 l

ce} _d
/L{1139 0 168 0 1071 1409 sc
168 0 m
168 1409 l
359 1409 l
359 156 l
1071 156 l
1071 0 l
168 0 l

ce} _d
/M{1706 0 168 0 1538 1409 sc
1366 0 m
1366 940 l
1366 1044 1369 1144 1375 1240 c
1342 1121 1313 1027 1287 960 c
923 0 l
789 0 l
420 960 l
364 1130 l
331 1240 l
334 1129 l
338 940 l
338 0 l
168 0 l
168 1409 l
419 1409 l
794 432 l
807 393 820 350 832 305 c
845 260 853 228 857 208 c
862 235 873 275 890 329 c
907 384 919 418 925 432 c
1293 1409 l
1538 1409 l
1538 0 l
1366 0 l

ce} _d
/N{1479 0 168 0 1312 1409 sc
1082 0 m
328 1200 l
333 1103 l
338 936 l
338 0 l
168 0 l
168 1409 l
390 1409 l
1152 201 l
1144 332 1140 426 1140 485 c
1140 1409 l
1312 1409 l
1312 0 l
1082 0 l

ce} _d
/O{1593 0 97 -20 1495 1430 sc
1495 711 m
1495 564 1467 435 1410 324 c
1354 213 1273 128 1168 69 c
1063 10 938 -20 795 -20 c
650 -20 525 9 420 68 c
315 127 235 211 180 322 c
125 433 97 563 97 711 c
97 936 159 1112 282 1239 c
405 1366 577 1430 797 1430 c
940 1430 1065 1401 1170 1344 c
1275 1287 1356 1205 1411 1096 c
1467 987 1495 859 1495 711 c

1300 711 m
1300 886 1256 1024 1168 1124 c
1081 1224 957 1274 797 1274 c
636 1274 511 1225 423 1126 c
335 1027 291 889 291 711 c
291 534 335 394 424 290 c
513 187 637 135 795 135 c
958 135 1082 185 1169 285 c
1256 386 1300 528 1300 711 c

ce} _d
/P{1366 0 168 0 1258 1409 sc
1258 985 m
1258 852 1214 746 1127 667 c
1040 588 922 549 773 549 c
359 549 l
359 0 l
168 0 l
168 1409 l
761 1409 l
919 1409 1041 1372 1128 1298 c
1215 1224 1258 1120 1258 985 c

1066 983 m
1066 1165 957 1256 738 1256 c
359 1256 l
359 700 l
746 700 l
959 700 1066 794 1066 983 c

ce} _d
/S{1366 0 93 -20 1272 1430 sc
1272 389 m
1272 259 1221 158 1119 87 c
1018 16 875 -20 690 -20 c
347 -20 148 99 93 338 c
278 375 l
299 290 345 228 414 188 c
483 149 578 129 697 129 c
820 129 915 150 982 192 c
1049 235 1083 297 1083 379 c
1083 425 1072 462 1051 491 c
1030 520 1001 543 963 562 c
925 581 880 596 827 609 c
774 622 716 635 652 650 c
541 675 456 699 398 724 c
341 749 295 776 262 806 c
229 837 203 872 185 913 c
168 954 159 1000 159 1053 c
159 1174 205 1267 297 1332 c
390 1397 522 1430 694 1430 c
854 1430 976 1405 1061 1356 c
1146 1307 1205 1224 1239 1106 c
1051 1073 l
1030 1148 991 1202 933 1235 c
875 1269 795 1286 692 1286 c
579 1286 493 1267 434 1230 c
375 1193 345 1137 345 1063 c
345 1020 356 984 379 955 c
402 927 436 903 479 883 c
522 864 609 840 738 811 c
781 801 824 791 867 780 c
910 770 952 758 991 743 c
1030 729 1067 712 1101 693 c
1136 674 1166 650 1191 622 c
1216 594 1236 561 1250 523 c
1265 485 1272 440 1272 389 c

ce} _d
/bracketleft{569 0 146 -425 553 1484 sc
146 -425 m
146 1484 l
553 1484 l
553 1355 l
320 1355 l
320 -296 l
553 -296 l
553 -425 l
146 -425 l

ce} _d
/bracketright{569 0 16 -425 423 1484 sc
16 -425 m
16 -296 l
249 -296 l
249 1355 l
16 1355 l
16 1484 l
423 1484 l
423 -425 l
16 -425 l

ce} _d
/a{1139 0 87 -20 1139 1102 sc
414 -20 m
305 -20 224 9 169 66 c
114 123 87 202 87 302 c
87 414 124 500 197 560 c
271 620 390 652 554 656 c
797 660 l
797 719 l
797 807 778 870 741 908 c
704 946 645 965 565 965 c
484 965 426 951 389 924 c
352 897 330 853 323 793 c
135 810 l
166 1005 310 1102 569 1102 c
705 1102 807 1071 876 1008 c
945 946 979 856 979 738 c
979 272 l
979 219 986 178 1000 151 c
1014 124 1041 111 1080 111 c
1097 111 1117 113 1139 118 c
1139 6 l
1094 -5 1047 -10 1000 -10 c
933 -10 885 7 854 42 c
824 77 807 132 803 207 c
797 207 l
751 124 697 66 636 31 c
575 -3 501 -20 414 -20 c

455 115 m
521 115 580 130 631 160 c
682 190 723 231 752 283 c
782 336 797 390 797 445 c
797 534 l
600 530 l
515 529 451 520 407 504 c
364 488 330 463 307 430 c
284 397 272 353 272 299 c
272 240 288 195 319 163 c
351 131 396 115 455 115 c

ce} _d
/b{1139 0 132 -20 1053 1484 sc
1053 546 m
1053 169 920 -20 655 -20 c
573 -20 505 -5 450 24 c
396 54 352 102 318 168 c
316 168 l
316 147 315 116 312 73 c
309 31 307 7 306 0 c
132 0 l
136 36 138 110 138 223 c
138 1484 l
318 1484 l
318 1061 l
318 1018 317 967 314 908 c
318 908 l
351 977 395 1027 450 1057 c
505 1087 574 1102 655 1102 c
792 1102 892 1056 956 964 c
1021 872 1053 733 1053 546 c

864 540 m
864 691 844 800 804 865 c
764 930 699 963 609 963 c
508 963 434 928 387 859 c
341 790 318 680 318 529 c
318 387 341 282 386 214 c
431 147 505 113 607 113 c
698 113 763 146 803 213 c
844 280 864 389 864 540 c

ce} _d
/c{1024 0 87 -20 970 1102 sc
275 546 m
275 402 298 295 343 226 c
388 157 457 122 548 122 c
612 122 665 139 708 174 c
751 209 778 262 788 334 c
970 322 l
956 218 912 135 837 73 c
762 11 668 -20 553 -20 c
402 -20 286 28 206 123 c
127 219 87 359 87 542 c
87 724 127 863 207 958 c
287 1054 402 1102 551 1102 c
662 1102 753 1073 826 1016 c
899 959 945 880 964 779 c
779 765 l
770 825 746 873 708 908 c
670 943 616 961 546 961 c
451 961 382 929 339 866 c
296 803 275 696 275 546 c

ce} _d
/d{1139 0 86 -20 1007 1484 sc
821 174 m
788 105 743 55 688 25 c
633 -5 565 -20 484 -20 c
347 -20 247 26 182 118 c
118 210 86 349 86 536 c
86 913 219 1102 484 1102 c
566 1102 634 1087 689 1057 c
744 1027 788 979 821 914 c
823 914 l
821 1035 l
821 1484 l
1001 1484 l
1001 223 l
1001 110 1003 36 1007 0 c
835 0 l
833 11 831 35 828 74 c
826 113 825 146 825 174 c
821 174 l

275 542 m
275 391 295 282 335 217 c
375 152 440 119 530 119 c
632 119 706 154 752 225 c
798 296 821 405 821 554 c
821 697 798 802 752 869 c
706 936 633 969 532 969 c
441 969 376 935 335 868 c
295 801 275 693 275 542 c

ce} _d
/e{1139 0 87 -20 1048 1102 sc
276 503 m
276 379 302 283 353 216 c
404 149 479 115 578 115 c
656 115 718 131 765 162 c
812 193 844 233 861 281 c
1019 236 l
954 65 807 -20 578 -20 c
418 -20 296 28 212 123 c
129 218 87 360 87 548 c
87 727 129 864 212 959 c
296 1054 416 1102 571 1102 c
889 1102 1048 910 1048 527 c
1048 503 l
276 503 l

862 641 m
852 755 823 838 775 890 c
727 943 658 969 568 969 c
481 969 411 940 360 881 c
309 823 282 743 278 641 c
862 641 l

ce} _d
/f{569 0 29 0 572 1482 sc
361 951 m
361 0 l
181 0 l
181 951 l
29 951 l
29 1082 l
181 1082 l
181 1204 l
181 1303 203 1374 246 1417 c
289 1460 356 1482 445 1482 c
495 1482 537 1478 572 1470 c
572 1333 l
542 1338 515 1341 492 1341 c
446 1341 413 1329 392 1306 c
371 1283 361 1240 361 1179 c
361 1082 l
572 1082 l
572 951 l
361 951 l

ce} _d
/h{1139 0 142 0 1006 1484 sc
317 897 m
356 968 402 1019 456 1052 c
511 1085 580 1102 663 1102 c
780 1102 867 1073 922 1014 c
978 956 1006 858 1006 721 c
1006 0 l
825 0 l
825 686 l
825 762 818 818 804 855 c
790 892 767 920 735 937 c
703 954 659 963 602 963 c
517 963 449 934 398 875 c
347 816 322 737 322 638 c
322 0 l
142 0 l
142 1484 l
322 1484 l
322 1098 l
322 1057 321 1015 318 972 c
316 929 315 904 314 897 c
317 897 l

ce} _d
/i{455 0 137 0 317 1484 sc
137 1312 m
137 1484 l
317 1484 l
317 1312 l
137 1312 l

137 0 m
137 1082 l
317 1082 l
317 0 l
137 0 l

ce} _d
/k{1024 0 138 0 1027 1484 sc
816 0 m
450 494 l
318 385 l
318 0 l
138 0 l
138 1484 l
318 1484 l
318 557 l
793 1082 l
1004 1082 l
565 617 l
1027 0 l
816 0 l

ce} _d
/l{455 0 138 0 318 1484 sc
138 0 m
138 1484 l
318 1484 l
318 0 l
138 0 l

ce} _d
/m{1706 0 136 0 1571 1102 sc
768 0 m
768 686 l
768 791 754 863 725 903 c
696 943 645 963 570 963 c
493 963 433 934 388 875 c
343 816 321 734 321 627 c
321 0 l
142 0 l
142 851 l
142 977 140 1054 136 1082 c
306 1082 l
307 1079 307 1070 308 1055 c
309 1040 309 1023 310 1004 c
311 985 313 950 314 897 c
317 897 l
356 974 400 1027 450 1057 c
500 1087 561 1102 633 1102 c
715 1102 780 1086 827 1053 c
875 1020 908 968 927 897 c
930 897 l
967 970 1012 1022 1065 1054 c
1118 1086 1183 1102 1258 1102 c
1367 1102 1447 1072 1496 1013 c
1546 954 1571 856 1571 721 c
1571 0 l
1393 0 l
1393 686 l
1393 791 1379 863 1350 903 c
1321 943 1270 963 1195 963 c
1116 963 1055 934 1011 875 c
968 817 946 734 946 627 c
946 0 l
768 0 l

ce} _d
/n{1139 0 136 0 1006 1102 sc
825 0 m
825 686 l
825 757 818 813 804 852 c
790 891 768 920 737 937 c
706 954 661 963 602 963 c
515 963 447 933 397 874 c
347 815 322 732 322 627 c
322 0 l
142 0 l
142 851 l
142 977 140 1054 136 1082 c
306 1082 l
307 1079 307 1070 308 1055 c
309 1040 309 1023 310 1004 c
311 985 313 950 314 897 c
317 897 l
358 972 406 1024 460 1055 c
515 1086 582 1102 663 1102 c
782 1102 868 1072 923 1013 c
978 954 1006 857 1006 721 c
1006 0 l
825 0 l

ce} _d
/o{1139 0 86 -20 1053 1102 sc
1053 542 m
1053 353 1011 212 928 119 c
845 26 724 -20 565 -20 c
407 -20 288 28 207 124 c
126 221 86 360 86 542 c
86 915 248 1102 571 1102 c
736 1102 858 1056 936 965 c
1014 874 1053 733 1053 542 c

864 542 m
864 691 842 800 797 867 c
753 935 679 969 574 969 c
469 969 392 934 345 865 c
298 796 275 689 275 542 c
275 399 298 292 344 220 c
391 149 464 113 563 113 c
671 113 748 148 794 217 c
841 286 864 395 864 542 c

ce} _d
/p{1139 0 132 -425 1053 1101 sc
1053 546 m
1053 169 920 -20 655 -20 c
488 -20 376 43 319 168 c
314 168 l
317 163 318 106 318 -2 c
318 -425 l
138 -425 l
138 861 l
138 972 136 1046 132 1082 c
306 1082 l
307 1079 308 1070 309 1053 c
310 1037 312 1012 313 978 c
315 944 316 921 316 908 c
320 908 l
352 975 394 1023 447 1054 c
500 1085 569 1101 655 1101 c
788 1101 888 1056 954 967 c
1020 878 1053 737 1053 546 c

864 542 m
864 693 844 800 803 865 c
762 930 698 962 609 962 c
538 962 482 947 441 917 c
401 887 370 840 349 776 c
328 713 318 630 318 528 c
318 386 341 281 386 214 c
431 147 505 113 607 113 c
696 113 761 146 802 211 c
843 277 864 387 864 542 c

ce} _d
/r{682 0 136 0 648 1102 sc
142 0 m
142 830 l
142 906 140 990 136 1082 c
306 1082 l
311 959 314 886 314 861 c
318 861 l
347 954 380 1017 417 1051 c
454 1085 507 1102 575 1102 c
599 1102 623 1099 648 1092 c
648 927 l
624 934 592 937 552 937 c
477 937 420 905 381 840 c
342 776 322 684 322 564 c
322 0 l
142 0 l

ce} _d
/s{1024 0 57 -20 950 1099 sc
950 299 m
950 197 911 118 834 63 c
757 8 650 -20 511 -20 c
376 -20 272 2 199 46 c
126 91 79 160 57 254 c
216 285 l
231 227 263 184 311 157 c
359 130 426 117 511 117 c
602 117 669 131 711 159 c
754 187 775 229 775 285 c
775 328 760 362 731 389 c
702 416 654 438 589 455 c
460 489 l
357 516 283 542 239 567 c
196 593 162 624 137 661 c
112 698 100 743 100 796 c
100 895 135 970 205 1021 c
276 1073 378 1099 513 1099 c
632 1099 727 1078 797 1036 c
868 994 912 927 931 834 c
769 814 l
759 862 732 899 688 924 c
645 950 586 963 513 963 c
432 963 372 951 333 926 c
294 901 275 864 275 814 c
275 783 283 758 299 738 c
315 718 339 701 370 687 c
401 673 467 654 568 629 c
663 605 732 583 774 562 c
816 542 849 520 873 495 c
898 470 917 442 930 409 c
943 377 950 340 950 299 c

ce} _d
/t{569 0 31 -16 554 1324 sc
554 8 m
495 -8 434 -16 372 -16 c
228 -16 156 66 156 229 c
156 951 l
31 951 l
31 1082 l
163 1082 l
216 1324 l
336 1324 l
336 1082 l
536 1082 l
536 951 l
336 951 l
336 268 l
336 216 344 179 361 158 c
378 137 408 127 450 127 c
474 127 509 132 554 141 c
554 8 l

ce} _d
/u{1139 0 133 -20 1003 1082 sc
314 1082 m
314 396 l
314 325 321 269 335 230 c
349 191 371 162 402 145 c
433 128 478 119 537 119 c
624 119 692 149 742 208 c
792 267 817 350 817 455 c
817 1082 l
997 1082 l
997 231 l
997 105 999 28 1003 0 c
833 0 l
832 3 832 12 831 27 c
830 42 829 58 828 77 c
827 96 826 132 825 185 c
822 185 l
781 110 733 57 678 26 c
624 -5 557 -20 476 -20 c
357 -20 270 9 215 68 c
160 127 133 225 133 361 c
133 1082 l
314 1082 l

ce} _d
/w{1479 0 -3 0 1484 1082 sc
1174 0 m
965 0 l
776 765 l
740 934 l
734 904 725 861 712 804 c
699 748 631 480 508 0 c
300 0 l
-3 1082 l
175 1082 l
358 347 l
363 331 377 265 401 149 c
418 223 l
644 1082 l
837 1082 l
1026 339 l
1072 149 l
1103 288 l
1308 1082 l
1484 1082 l
1174 0 l

ce} _d
/x{1024 0 23 0 1002 1082 sc
801 0 m
510 444 l
217 0 l
23 0 l
408 556 l
41 1082 l
240 1082 l
510 661 l
778 1082 l
979 1082 l
612 558 l
1002 0 l
801 0 l

ce} _d
end readonly def

/BuildGlyph {
 exch begin
 CharStrings exch
 2 copy known not {pop /.notdef} if
 true 3 1 roll get exec
 end
} _d

/BuildChar {
 1 index /Encoding get exch get
 1 index /BuildGlyph get exec
} _d

FontName currentdict end definefont pop
%!PS-Adobe-3.0 Resource-Font
%%Creator: Converted from TrueType to Type 3 by Matplotlib.
10 dict begin
/FontName /DejaVuSans-Oblique def
/PaintType 0 def
/FontMatrix [0.00048828125 0 0 0.00048828125 0 0] def
/FontBBox [-2080 -717 3398 2187] def
/FontType 3 def
/Encoding [/t] def
/CharStrings 2 dict dup begin
/.notdef 0 def
/t{803 0 131 0 866 1438 sc
866 1120 m
838 977 l
471 977 l
352 369 l
348 346 345 327 343 312 c
341 297 340 285 340 276 c
340 233 353 202 378 183 c
404 164 445 154 502 154 c
688 154 l
657 0 l
481 0 l
372 0 290 21 236 64 c
183 107 156 171 156 258 c
156 273 157 290 159 308 c
161 327 164 347 168 369 c
287 977 l
131 977 l
160 1120 l
313 1120 l
375 1438 l
559 1438 l
498 1120 l
866 1120 l

ce} _d
end readonly def

/BuildGlyph {
 exch begin
 CharStrings exch
 2 copy known not {pop /.notdef} if
 true 3 1 roll get exec
 end
} _d

/BuildChar {
 1 index /Encoding get exch get
 1 index /BuildGlyph get exec
} _d

FontName currentdict end definefont pop
end
%%EndProlog
mpldict begin
113.822 151.376 translate
384.356 489.248 0 0 clipbox
gsave
0 0 m
384.35625 0 l
384.35625 489.248125 l
0 489.248125 l
cl
1.000 setgray
fill
grestore
gsave
42.35625 385.630734 m
377.15625 385.630734 l
377.15625 482.048125 l
42.35625 482.048125 l
cl
0.918 0.918 0.949 setrgbcolor
fill
grestore
1.000 setlinewidth
1 setlinejoin
1 setlinecap
[] 0 setdash
1.000 setgray
gsave
334.8 96.417 42.356 385.631 clipbox
57.574432 385.630734 m
57.574432 482.048125 l
stroke
grestore
gsave
334.8 96.417 42.356 385.631 clipbox
105.008514 385.630734 m
105.008514 482.048125 l
stroke
grestore
gsave
334.8 96.417 42.356 385.631 clipbox
152.442597 385.630734 m
152.442597 482.048125 l
stroke
grestore
gsave
334.8 96.417 42.356 385.631 clipbox
199.876679 385.630734 m
199.876679 482.048125 l
stroke
grestore
gsave
334.8 96.417 42.356 385.631 clipbox
247.310762 385.630734 m
247.310762 482.048125 l
stroke
grestore
gsave
334.8 96.417 42.356 385.631 clipbox
294.744844 385.630734 m
294.744844 482.048125 l
stroke
grestore
gsave
334.8 96.417 42.356 385.631 clipbox
342.178927 385.630734 m
342.178927 482.048125 l
stroke
grestore
gsave
334.8 96.417 42.356 385.631 clipbox
42.35625 389.898722 m
377.15625 389.898722 l
stroke
grestore
0.150 setgray
/LiberationSans 10.000 selectfont
gsave

29.793750 386.273722 translate
0.000000 rotate
0.000000 0 m /zero glyphshow
grestore
1.000 setgray
gsave
334.8 96.417 42.356 385.631 clipbox
42.35625 416.80239 m
377.15625 416.80239 l
stroke
grestore
0.150 setgray
gsave

24.231250 413.177390 translate
0.000000 rotate
0.000000 0 m /two glyphshow
5.561523 0 m /five glyphshow
grestore
1.000 setgray
gsave
334.8 96.417 42.356 385.631 clipbox
42.35625 443.706059 m
377.15625 443.706059 l
stroke
grestore
0.150 setgray
gsave

24.231250 440.081059 translate
0.000000 rotate
0.000000 0 m /five glyphshow
5.561523 0 m /zero glyphshow
grestore
1.000 setgray
gsave
334.8 96.417 42.356 385.631 clipbox
42.35625 470.609727 m
377.15625 470.609727 l
stroke
grestore
0.150 setgray
gsave

24.231250 466.984727 translate
0.000000 rotate
0.000000 0 m /seven glyphshow
5.561523 0 m /five glyphshow
grestore
/LiberationSans 11.000 selectfont
gsave

17.950000 412.417554 translate
90.000000 rotate
0.000000 0 m /E glyphshow
7.336914 0 m /r glyphshow
11.000000 0 m /r glyphshow
14.663086 0 m /o glyphshow
20.780762 0 m /r glyphshow
24.443848 0 m /space glyphshow
27.500000 0 m /bracketleft glyphshow
30.556152 0 m /m glyphshow
39.719238 0 m /bracketright glyphshow
grestore
1.750 setlinewidth
0.298 0.447 0.690 setrgbcolor
gsave
334.8 96.417 42.356 385.631 clipbox
57.574432 390.328578 m
58.743208 390.238032 l
60.632981 390.229211 l
61.187012 390.478829 l
62.754234 390.450771 l
63.285495 391.097419 l
63.858499 391.097419 l
64.423913 391.305855 l
65.125938 391.305855 l
65.774836 391.57089 l
68.49945 391.569567 l
69.057275 391.993863 l
70.275382 391.993863 l
70.855975 392.288632 l
72.047519 392.288632 l
72.715391 392.937176 l
73.887961 392.937176 l
74.521681 393.560851 l
77.094505 393.495228 l
77.663714 394.30938 l
78.270871 394.30938 l
78.893206 394.770024 l
82.414712 394.800143 l
82.987716 395.596248 l
85.332857 395.596452 l
85.924834 396.12083 l
88.994768 396.016913 l
90.28877 395.98911 l
90.895926 396.419844 l
91.635898 396.419844 l
92.205107 397.427885 l
92.926105 397.427885 l
93.510493 397.2908 l
94.121444 397.2908 l
94.732395 398.163722 l
95.988449 398.163722 l
96.694268 398.843851 l
99.092536 398.804704 l
99.65036 399.268218 l
100.822931 399.268218 l
101.422498 399.726937 l
103.114946 399.726937 l
103.756255 400.202049 l
107.623081 400.222106 l
108.279569 400.031711 l
111.273608 399.993795 l
111.903533 400.688983 l
112.594173 400.688983 l
113.163382 400.517666 l
120.039426 400.511784 l
120.657967 400.982556 l
121.982326 400.982556 l
122.665377 401.263591 l
127.845179 401.351217 l
128.524435 401.493019 l
131.279407 401.435259 l
131.901742 401.82465 l
132.527872 401.82465 l
133.207128 402.393037 l
135.867231 402.334506 l
136.470593 402.188719 l
139.570884 402.08134 l
140.773813 401.98539 l
145.04288 401.890802 l
148.632691 401.850755 l
149.258821 401.992499 l
154.358934 401.986074 l
154.950911 401.724221 l
163.796419 401.778484 l
164.460496 402.150798 l
167.135778 402.14061 l
167.73155 402.598821 l
170.456164 402.489261 l
171.712218 402.457778 l
172.353527 402.949677 l
173.025194 402.949677 l
173.655118 403.630132 l
176.876841 403.61512 l
177.502971 404.60706 l
182.087001 404.526809 l
182.743489 405.104021 l
204.821208 405.152909 l
205.511848 405.616559 l
211.021791 405.623855 l
211.682074 406.224209 l
217.746047 406.195944 l
218.444277 406.569354 l
223.825199 406.568075 l
224.50066 407.092797 l
225.206479 407.092797 l
225.859172 407.678141 l
226.599144 407.678141 l
227.2784 408.088456 l
232.048371 408.02755 l
232.739012 408.837752 l
234.184802 408.837752 l
234.886827 409.103398 l
242.609096 409.194062 l
243.360451 409.372719 l
243.994171 409.372719 l
244.734142 409.755562 l
246.134397 409.755562 l
246.840216 410.217965 l
256.725478 410.138889 l
257.374377 410.393484 l
278.252962 410.499132 l
284.681229 410.65458 l
285.311154 411.484502 l
285.933489 477.665516 l
286.555824 411.486 l
289.291822 411.485558 l
289.917952 412.404681 l
290.619976 412.404681 l
291.32959 413.392471 l
299.860136 413.388143 l
300.539392 415.343977 l
301.222443 415.343977 l
301.894109 416.234029 l
307.863214 416.22089 l
308.561444 416.752722 l
312.618007 416.714005 l
313.251726 417.116526 l
315.816961 417.075044 l
316.462065 417.863631 l
317.126142 417.863631 l
317.797808 418.543408 l
319.133552 418.543408 l
319.755887 418.056836 l
321.755708 417.979946 l
322.427375 418.72636 l
323.04971 418.72636 l
323.713787 419.701492 l
325.045736 419.701492 l
325.732582 420.958606 l
327.068325 420.958606 l
327.732403 423.321041 l
330.335585 423.269359 l
331.014841 424.298556 l
331.686508 424.298556 l
332.320227 424.091133 l
335.712713 424.049112 l
336.350227 425.475495 l
361.938068 425.459139 l
361.938068 425.459139 l
stroke
grestore
0.333 0.659 0.408 setrgbcolor
gsave
334.8 96.417 42.356 385.631 clipbox
57.574432 390.639926 m
58.234714 390.073953 l
60.632981 390.013342 l
61.187012 390.191027 l
62.754234 390.102441 l
63.285495 390.491011 l
63.858499 390.491011 l
64.423913 390.343682 l
65.125938 390.343682 l
65.774836 390.536016 l
66.799412 390.536016 l
67.376211 390.343837 l
72.047519 390.447319 l
72.715391 390.879394 l
73.887961 390.879394 l
74.521681 391.235585 l
75.204732 391.235585 l
75.842246 390.495475 l
77.094505 390.495475 l
77.663714 390.74042 l
78.270871 390.74042 l
78.893206 390.602674 l
82.414712 390.64315 l
82.987716 390.845756 l
85.332857 390.755399 l
85.924834 391.194573 l
87.761482 391.193267 l
88.326896 390.798505 l
91.635898 390.823794 l
92.205107 391.263619 l
92.926105 391.263619 l
93.510493 390.987663 l
95.988449 391.096602 l
96.694268 391.609039 l
103.114946 391.631299 l
103.756255 391.76783 l
107.623081 391.803487 l
108.279569 391.380695 l
111.273608 391.29152 l
111.903533 391.628105 l
112.594173 391.628105 l
113.163382 391.292344 l
121.982326 391.382736 l
123.31807 391.464367 l
126.562561 391.486154 l
128.524435 391.620539 l
129.951252 391.620539 l
130.60015 391.749616 l
131.279407 391.749616 l
131.901742 392.327014 l
132.527872 392.327014 l
133.207128 393.115652 l
134.497335 393.115652 l
135.138644 392.695655 l
139.570884 392.60363 l
143.187259 392.468051 l
146.799838 392.495314 l
152.408444 392.49473 l
154.358934 392.530522 l
154.950911 392.055155 l
167.135778 392.087 l
167.73155 392.368098 l
168.403217 392.368098 l
169.078678 392.250446 l
173.025194 392.233085 l
173.655118 392.656337 l
176.876841 392.618904 l
177.502971 392.812658 l
178.831126 392.812658 l
179.445871 392.663623 l
204.821208 392.738518 l
205.511848 392.895629 l
211.021791 392.865831 l
211.682074 393.234267 l
212.372714 393.234267 l
213.074738 393.006222 l
219.719305 393.115226 l
224.50066 393.092612 l
228.625528 393.127853 l
229.338937 392.959156 l
232.048371 392.948988 l
232.739012 393.898142 l
243.994171 393.987946 l
244.734142 394.192395 l
246.134397 394.192395 l
246.840216 394.451297 l
252.995262 394.501747 l
253.628982 394.653502 l
254.873652 394.653502 l
255.473219 394.474499 l
279.490043 394.55494 l
280.821992 394.650536 l
289.291822 394.748435 l
289.917952 394.897988 l
290.619976 394.897988 l
291.32959 395.065394 l
299.860136 395.07182 l
300.539392 395.647384 l
314.534344 395.744835 l
315.816961 395.767586 l
316.462065 396.281686 l
317.126142 396.281686 l
317.797808 397.185975 l
319.133552 397.185975 l
319.755887 396.327623 l
320.397196 396.327623 l
321.095426 396.177393 l
321.755708 396.177393 l
322.427375 396.477194 l
323.04971 396.477194 l
324.358891 396.363618 l
325.045736 396.363618 l
325.732582 396.212073 l
327.068325 396.212073 l
327.732403 396.799248 l
328.377506 396.799248 l
328.965689 396.596529 l
330.335585 396.596529 l
331.014841 397.466994 l
331.686508 397.466994 l
332.320227 396.914148 l
341.632486 396.805895 l
344.588578 396.783977 l
361.938068 396.783977 l
361.938068 396.783977 l
stroke
grestore
gsave
42.35625 385.630734 m
42.35625 482.048125 l
grestore
gsave
377.15625 385.630734 m
377.15625 482.048125 l
grestore
gsave
42.35625 385.630734 m
377.15625 385.630734 l
grestore
gsave
42.35625 482.048125 m
377.15625 482.048125 l
grestore
0.300 setlinewidth
0 setlinejoin
0 setlinecap
0.800 setgray
gsave
49.35625 431.06375 m
178.965625 431.06375 l
180.298958 431.06375 180.965625 431.730417 180.965625 433.06375 c
180.965625 475.048125 l
180.965625 476.381458 180.298958 477.048125 178.965625 477.048125 c
49.35625 477.048125 l
48.022917 477.048125 47.35625 476.381458 47.35625 475.048125 c
47.35625 433.06375 l
47.35625 431.730417 48.022917 431.06375 49.35625 431.06375 c
cl
gsave
1.000 setgray
fill
grestore
stroke
grestore
0.150 setgray
/LiberationSans 10.000 selectfont
gsave

51.356250 465.798125 translate
0.000000 rotate
0.000000 0 m /A glyphshow
6.669922 0 m /c glyphshow
11.669922 0 m /c glyphshow
16.669922 0 m /u glyphshow
22.231445 0 m /m glyphshow
30.561523 0 m /u glyphshow
36.123047 0 m /l glyphshow
38.344727 0 m /a glyphshow
43.906250 0 m /t glyphshow
46.684570 0 m /e glyphshow
52.246094 0 m /d glyphshow
57.807617 0 m /space glyphshow
60.585938 0 m /l glyphshow
62.807617 0 m /a glyphshow
68.369141 0 m /n glyphshow
73.930664 0 m /d glyphshow
79.492188 0 m /m glyphshow
87.822266 0 m /a glyphshow
93.383789 0 m /r glyphshow
96.713867 0 m /k glyphshow
101.713867 0 m /space glyphshow
104.492188 0 m /e glyphshow
110.053711 0 m /r glyphshow
113.383789 0 m /r glyphshow
116.713867 0 m /o glyphshow
122.275391 0 m /r glyphshow
grestore
1.750 setlinewidth
1 setlinejoin
1 setlinecap
0.298 0.447 0.690 setrgbcolor
gsave
70.426563 454.97 m
90.426563 454.97 l
stroke
grestore
0.150 setgray
gsave

98.426563 451.470000 translate
0.000000 rotate
0.000000 0 m /P glyphshow
6.669922 0 m /o glyphshow
12.231445 0 m /s glyphshow
17.231445 0 m /i glyphshow
19.453125 0 m /t glyphshow
22.231445 0 m /i glyphshow
24.453125 0 m /o glyphshow
30.014648 0 m /n glyphshow
35.576172 0 m /space glyphshow
38.354492 0 m /e glyphshow
43.916016 0 m /r glyphshow
47.246094 0 m /r glyphshow
50.576172 0 m /o glyphshow
56.137695 0 m /r glyphshow
grestore
0.333 0.659 0.408 setrgbcolor
gsave
70.426563 440.641875 m
90.426563 440.641875 l
stroke
grestore
0.150 setgray
gsave

98.426563 437.141875 translate
0.000000 rotate
0.000000 0 m /D glyphshow
7.221680 0 m /B glyphshow
13.891602 0 m /H glyphshow
21.113281 0 m /space glyphshow
23.891602 0 m /e glyphshow
29.453125 0 m /r glyphshow
32.783203 0 m /r glyphshow
36.113281 0 m /o glyphshow
41.674805 0 m /r glyphshow
grestore
gsave
42.35625 269.929864 m
377.15625 269.929864 l
377.15625 366.347255 l
42.35625 366.347255 l
cl
0.918 0.918 0.949 setrgbcolor
fill
grestore
1.000 setlinewidth
1.000 setgray
gsave
334.8 96.417 42.356 269.93 clipbox
57.574432 269.929864 m
57.574432 366.347255 l
stroke
grestore
gsave
334.8 96.417 42.356 269.93 clipbox
105.008514 269.929864 m
105.008514 366.347255 l
stroke
grestore
gsave
334.8 96.417 42.356 269.93 clipbox
152.442597 269.929864 m
152.442597 366.347255 l
stroke
grestore
gsave
334.8 96.417 42.356 269.93 clipbox
199.876679 269.929864 m
199.876679 366.347255 l
stroke
grestore
gsave
334.8 96.417 42.356 269.93 clipbox
247.310762 269.929864 m
247.310762 366.347255 l
stroke
grestore
gsave
334.8 96.417 42.356 269.93 clipbox
294.744844 269.929864 m
294.744844 366.347255 l
stroke
grestore
gsave
334.8 96.417 42.356 269.93 clipbox
342.178927 269.929864 m
342.178927 366.347255 l
stroke
grestore
gsave
334.8 96.417 42.356 269.93 clipbox
42.35625 271.457131 m
377.15625 271.457131 l
stroke
grestore
0.150 setgray
gsave

21.450000 267.832131 translate
0.000000 rotate
0.000000 0 m /zero glyphshow
5.561523 0 m /period glyphshow
8.339844 0 m /zero glyphshow
grestore
1.000 setgray
gsave
334.8 96.417 42.356 269.93 clipbox
42.35625 304.194812 m
377.15625 304.194812 l
stroke
grestore
0.150 setgray
gsave

21.450000 300.569812 translate
0.000000 rotate
0.000000 0 m /zero glyphshow
5.561523 0 m /period glyphshow
8.339844 0 m /five glyphshow
grestore
1.000 setgray
gsave
334.8 96.417 42.356 269.93 clipbox
42.35625 336.932493 m
377.15625 336.932493 l
stroke
grestore
0.150 setgray
gsave

21.450000 333.307493 translate
0.000000 rotate
0.000000 0 m /one glyphshow
5.561523 0 m /period glyphshow
8.339844 0 m /zero glyphshow
grestore
/LiberationSans 11.000 selectfont
gsave

15.168750 296.716685 translate
90.000000 rotate
0.000000 0 m /E glyphshow
7.336914 0 m /r glyphshow
11.000000 0 m /r glyphshow
14.663086 0 m /o glyphshow
20.780762 0 m /r glyphshow
24.443848 0 m /space glyphshow
27.500000 0 m /bracketleft glyphshow
30.556152 0 m /m glyphshow
39.719238 0 m /bracketright glyphshow
grestore
1.750 setlinewidth
0.298 0.447 0.690 setrgbcolor
gsave
334.8 96.417 42.356 269.93 clipbox
57.574432 297.610634 m
58.234714 281.779357 l
58.743208 281.779357 l
59.232727 281.513145 l
60.632981 281.511011 l
61.187012 283.222176 l
61.748631 283.222176 l
62.219177 282.653125 l
62.754234 282.653125 l
63.285495 286.04345 l
63.858499 286.04345 l
64.423913 285.726027 l
65.125938 285.726027 l
65.774836 285.991235 l
68.49945 285.979737 l
69.057275 287.391311 l
70.275382 287.391311 l
70.855975 287.613563 l
72.047519 287.613563 l
72.715391 288.263208 l
73.887961 288.263208 l
74.521681 290.02486 l
75.204732 290.02486 l
75.842246 289.692142 l
77.094505 289.692142 l
77.663714 290.62535 l
78.270871 290.62535 l
78.893206 291.215915 l
80.054392 291.215915 l
80.585654 291.342895 l
82.414712 291.338083 l
82.987716 291.848378 l
85.332857 291.84911 l
85.924834 292.488691 l
87.761482 292.50338 l
88.326896 292.137435 l
90.28877 292.043459 l
90.895926 292.339278 l
91.635898 292.339278 l
92.205107 293.271056 l
92.926105 293.271056 l
93.510493 292.873886 l
94.121444 292.873886 l
94.732395 293.320719 l
95.988449 293.320719 l
96.694268 294.133931 l
99.092536 294.03469 l
99.65036 294.259641 l
100.822931 294.259641 l
101.422498 294.456065 l
103.114946 294.456065 l
103.756255 294.674881 l
107.623081 294.720078 l
108.279569 294.291038 l
111.273608 294.205597 l
111.903533 294.903756 l
112.594173 294.903756 l
113.163382 294.531495 l
120.039426 294.518713 l
120.657967 294.711171 l
121.982326 294.711171 l
122.665377 294.505998 l
123.31807 294.505998 l
123.932816 294.343422 l
126.562561 294.294199 l
127.188691 293.934467 l
127.845179 293.934467 l
128.524435 293.501661 l
131.279407 293.391841 l
131.901742 292.798373 l
132.527872 292.798373 l
133.207128 293.176681 l
134.497335 293.176681 l
135.138644 292.474439 l
135.867231 292.474439 l
136.470593 292.228049 l
137.749415 292.228049 l
138.330009 292.046571 l
139.570884 292.046571 l
140.147683 291.88441 l
143.187259 291.775456 l
145.634857 291.691177 l
148.632691 291.656868 l
149.258821 291.34401 l
154.358934 291.333445 l
154.950911 290.902857 l
163.796419 290.992087 l
165.135957 291.074128 l
167.135778 291.057815 l
167.73155 291.27007 l
168.403217 291.27007 l
169.078678 291.09915 l
171.712218 291.050035 l
172.353527 291.30842 l
173.025194 291.30842 l
173.655118 291.834012 l
176.876841 291.811734 l
177.502971 292.268543 l
178.831126 292.268543 l
179.445871 292.140978 l
182.087001 292.154993 l
182.743489 292.482746 l
204.821208 292.550348 l
205.511848 292.708489 l
211.021791 292.718354 l
211.682074 293.050217 l
223.825199 293.035932 l
224.50066 293.251485 l
225.206479 293.251485 l
225.859172 293.533513 l
232.048371 293.517163 l
232.739012 294.051176 l
234.184802 294.051176 l
234.886827 293.927492 l
242.609096 294.033573 l
243.360451 293.812696 l
246.134397 293.830057 l
246.840216 293.533412 l
252.995262 293.500123 l
253.628982 293.238112 l
254.873652 293.238112 l
255.473219 293.061702 l
281.482275 293.161236 l
283.387228 293.212778 l
284.681229 293.230173 l
285.311154 293.716977 l
285.933489 361.964647 l
286.555824 293.718521 l
289.291822 293.718066 l
289.917952 294.279078 l
290.619976 294.279078 l
291.32959 294.890186 l
299.860136 294.885869 l
300.539392 296.030952 l
301.222443 296.030952 l
301.894109 296.493124 l
309.885803 296.593471 l
311.2557 296.632473 l
312.618007 296.557231 l
315.816961 296.509752 l
316.462065 296.851944 l
317.126142 296.851944 l
317.797808 297.086716 l
319.133552 297.086716 l
319.755887 296.65136 l
321.755708 296.582563 l
322.427375 296.876595 l
323.04971 296.876595 l
323.713787 297.361022 l
325.045736 297.361022 l
325.732582 298.073444 l
327.068325 298.073444 l
327.732403 299.313219 l
330.335585 299.270145 l
331.014841 299.740494 l
331.686508 299.740494 l
332.320227 299.569951 l
335.712713 299.535402 l
336.350227 300.318153 l
361.938068 300.304885 l
361.938068 300.304885 l
stroke
grestore
0.333 0.659 0.408 setrgbcolor
gsave
334.8 96.417 42.356 269.93 clipbox
57.574432 316.553792 m
58.234714 276.787856 l
58.743208 276.787856 l
59.232727 275.182015 l
59.699479 275.182015 l
60.188998 274.944023 l
60.632981 274.944023 l
61.187012 277.38531 l
61.748631 277.38531 l
62.219177 275.588707 l
62.754234 275.588707 l
63.285495 278.664394 l
63.858499 278.664394 l
64.423913 275.969205 l
65.125938 275.969205 l
65.774836 276.996346 l
66.799412 276.996346 l
67.376211 275.325974 l
68.49945 275.325974 l
69.057275 275.567354 l
70.275382 275.567354 l
70.855975 275.165791 l
72.047519 275.165791 l
72.715391 276.881351 l
73.887961 276.881351 l
74.521681 278.235296 l
75.204732 278.235296 l
75.842246 274.482791 l
77.094505 274.482791 l
77.663714 275.115057 l
78.270871 275.115057 l
78.893206 274.312473 l
80.054392 274.312473 l
80.585654 274.485878 l
82.414712 274.476652 l
82.987716 274.846532 l
83.55313 274.846532 l
84.175465 274.523149 l
85.332857 274.523149 l
85.924834 275.837281 l
87.761482 275.832865 l
88.326896 274.498517 l
88.994768 274.498517 l
89.636077 274.361079 l
91.635898 274.419426 l
92.205107 275.41159 l
92.926105 275.41159 l
93.510493 274.612073 l
95.988449 274.625909 l
96.694268 275.792957 l
97.252093 275.792957 l
97.85166 275.603626 l
105.084409 275.669022 l
106.32149 275.749371 l
107.623081 275.749371 l
108.279569 274.796643 l
109.474908 274.796643 l
110.047911 274.595694 l
111.273608 274.595694 l
111.903533 275.214982 l
112.594173 275.214982 l
113.163382 274.485393 l
121.982326 274.570613 l
123.31807 274.632385 l
125.287533 274.614346 l
127.188691 274.726934 l
129.951252 274.730866 l
130.60015 274.976282 l
131.279407 274.976282 l
131.901742 275.802517 l
132.527872 275.802517 l
133.207128 277.049297 l
134.497335 277.049297 l
135.138644 276.184135 l
137.749415 276.099895 l
138.948549 276.028607 l
141.972946 275.973233 l
142.591487 275.799468 l
154.358934 275.784834 l
154.950911 275.003146 l
167.135778 274.960819 l
167.73155 275.30951 l
168.403217 275.30951 l
169.078678 275.125965 l
171.712218 275.022876 l
173.025194 275.007837 l
173.655118 275.549325 l
178.831126 275.580175 l
179.445871 275.369299 l
204.821208 275.38395 l
205.511848 275.509109 l
211.021791 275.468822 l
211.682074 275.868927 l
212.372714 275.868927 l
213.074738 275.567301 l
225.206479 275.505547 l
225.859172 275.362777 l
228.625528 275.386493 l
229.338937 275.181215 l
232.048371 275.168841 l
232.739012 276.228392 l
246.134397 276.294861 l
247.534651 276.403375 l
252.995262 276.458187 l
254.27788 276.532434 l
254.873652 276.532434 l
255.473219 276.341364 l
287.197133 276.412791 l
289.917952 276.526588 l
299.860136 276.616865 l
300.539392 277.008916 l
311.2557 276.937048 l
312.618007 276.822788 l
315.816961 276.86737 l
316.462065 277.253473 l
317.126142 277.253473 l
317.797808 277.977338 l
319.133552 277.977338 l
319.755887 277.209334 l
320.397196 277.209334 l
321.095426 277.074917 l
321.755708 277.074917 l
322.427375 277.257857 l
323.04971 277.257857 l
323.713787 277.076272 l
325.045736 277.076272 l
325.732582 276.867264 l
327.068325 276.867264 l
327.732403 277.208427 l
328.377506 277.208427 l
328.965689 277.03947 l
330.335585 277.03947 l
331.014841 277.679724 l
331.686508 277.679724 l
332.320227 277.225177 l
335.712713 277.153224 l
337.044662 277.08617 l
340.4713 277.082627 l
344.026959 277.042671 l
361.938068 277.042671 l
361.938068 277.042671 l
stroke
grestore
gsave
42.35625 269.929864 m
42.35625 366.347255 l
grestore
gsave
377.15625 269.929864 m
377.15625 366.347255 l
grestore
gsave
42.35625 269.929864 m
377.15625 269.929864 l
grestore
gsave
42.35625 366.347255 m
377.15625 366.347255 l
grestore
0.300 setlinewidth
0 setlinejoin
0 setlinecap
0.800 setgray
gsave
49.35625 315.36288 m
146.16875 315.36288 l
147.502083 315.36288 148.16875 316.029547 148.16875 317.36288 c
148.16875 359.347255 l
148.16875 360.680589 147.502083 361.347255 146.16875 361.347255 c
49.35625 361.347255 l
48.022917 361.347255 47.35625 360.680589 47.35625 359.347255 c
47.35625 317.36288 l
47.35625 316.029547 48.022917 315.36288 49.35625 315.36288 c
cl
gsave
1.000 setgray
fill
grestore
stroke
grestore
0.150 setgray
/LiberationSans 10.000 selectfont
gsave

51.356250 350.097255 translate
0.000000 rotate
0.000000 0 m /M glyphshow
8.330078 0 m /e glyphshow
13.891602 0 m /a glyphshow
19.453125 0 m /n glyphshow
25.014648 0 m /space glyphshow
27.792969 0 m /l glyphshow
30.014648 0 m /a glyphshow
35.576172 0 m /n glyphshow
41.137695 0 m /d glyphshow
46.699219 0 m /m glyphshow
55.029297 0 m /a glyphshow
60.590820 0 m /r glyphshow
63.920898 0 m /k glyphshow
68.920898 0 m /space glyphshow
71.699219 0 m /e glyphshow
77.260742 0 m /r glyphshow
80.590820 0 m /r glyphshow
83.920898 0 m /o glyphshow
89.482422 0 m /r glyphshow
grestore
1.750 setlinewidth
1 setlinejoin
1 setlinecap
0.298 0.447 0.690 setrgbcolor
gsave
54.028125 339.26913 m
74.028125 339.26913 l
stroke
grestore
0.150 setgray
gsave

82.028125 335.769130 translate
0.000000 rotate
0.000000 0 m /P glyphshow
6.669922 0 m /o glyphshow
12.231445 0 m /s glyphshow
17.231445 0 m /i glyphshow
19.453125 0 m /t glyphshow
22.231445 0 m /i glyphshow
24.453125 0 m /o glyphshow
30.014648 0 m /n glyphshow
35.576172 0 m /space glyphshow
38.354492 0 m /e glyphshow
43.916016 0 m /r glyphshow
47.246094 0 m /r glyphshow
50.576172 0 m /o glyphshow
56.137695 0 m /r glyphshow
grestore
0.333 0.659 0.408 setrgbcolor
gsave
54.028125 324.941005 m
74.028125 324.941005 l
stroke
grestore
0.150 setgray
gsave

82.028125 321.441005 translate
0.000000 rotate
0.000000 0 m /D glyphshow
7.221680 0 m /B glyphshow
13.891602 0 m /H glyphshow
21.113281 0 m /space glyphshow
23.891602 0 m /e glyphshow
29.453125 0 m /r glyphshow
32.783203 0 m /r glyphshow
36.113281 0 m /o glyphshow
41.674805 0 m /r glyphshow
grestore
gsave
42.35625 154.228995 m
377.15625 154.228995 l
377.15625 250.646386 l
42.35625 250.646386 l
cl
0.918 0.918 0.949 setrgbcolor
fill
grestore
1.000 setlinewidth
1.000 setgray
gsave
334.8 96.417 42.356 154.229 clipbox
57.574432 154.228995 m
57.574432 250.646386 l
stroke
grestore
gsave
334.8 96.417 42.356 154.229 clipbox
105.008514 154.228995 m
105.008514 250.646386 l
stroke
grestore
gsave
334.8 96.417 42.356 154.229 clipbox
152.442597 154.228995 m
152.442597 250.646386 l
stroke
grestore
gsave
334.8 96.417 42.356 154.229 clipbox
199.876679 154.228995 m
199.876679 250.646386 l
stroke
grestore
gsave
334.8 96.417 42.356 154.229 clipbox
247.310762 154.228995 m
247.310762 250.646386 l
stroke
grestore
gsave
334.8 96.417 42.356 154.229 clipbox
294.744844 154.228995 m
294.744844 250.646386 l
stroke
grestore
gsave
334.8 96.417 42.356 154.229 clipbox
342.178927 154.228995 m
342.178927 250.646386 l
stroke
grestore
gsave
334.8 96.417 42.356 154.229 clipbox
42.35625 158.504319 m
377.15625 158.504319 l
stroke
grestore
0.150 setgray
gsave

29.793750 154.879319 translate
0.000000 rotate
0.000000 0 m /zero glyphshow
grestore
1.000 setgray
gsave
334.8 96.417 42.356 154.229 clipbox
42.35625 188.138039 m
377.15625 188.138039 l
stroke
grestore
0.150 setgray
gsave

29.793750 184.513039 translate
0.000000 rotate
0.000000 0 m /one glyphshow
grestore
1.000 setgray
gsave
334.8 96.417 42.356 154.229 clipbox
42.35625 217.771758 m
377.15625 217.771758 l
stroke
grestore
0.150 setgray
gsave

29.793750 214.146758 translate
0.000000 rotate
0.000000 0 m /two glyphshow
grestore
1.000 setgray
gsave
334.8 96.417 42.356 154.229 clipbox
42.35625 247.405478 m
377.15625 247.405478 l
stroke
grestore
0.150 setgray
gsave

29.793750 243.780478 translate
0.000000 rotate
0.000000 0 m /three glyphshow
grestore
/LiberationSans 11.000 selectfont
gsave

23.512500 181.015815 translate
90.000000 rotate
0.000000 0 m /E glyphshow
7.336914 0 m /r glyphshow
11.000000 0 m /r glyphshow
14.663086 0 m /o glyphshow
20.780762 0 m /r glyphshow
24.443848 0 m /space glyphshow
27.500000 0 m /bracketleft glyphshow
30.556152 0 m /m glyphshow
39.719238 0 m /bracketright glyphshow
grestore
1.750 setlinewidth
1.000 0.000 0.000 setrgbcolor
gsave
334.8 96.417 42.356 154.229 clipbox
57.574432 165.032184 m
58.234714 164.146226 l
58.743208 162.787245 l
59.232727 163.456967 l
59.699479 163.142094 l
60.188998 160.086853 l
60.632981 164.498575 l
61.187012 164.224605 l
61.748631 162.619979 l
62.219177 162.533737 l
62.754234 164.263491 l
63.285495 163.398765 l
64.423913 164.882254 l
65.125938 166.320806 l
65.774836 164.898512 l
66.26815 167.039528 l
66.799412 168.422718 l
67.376211 169.441598 l
67.930241 169.184768 l
68.49945 167.400769 l
69.057275 170.173652 l
69.694789 169.773887 l
70.275382 172.032644 l
70.855975 169.797313 l
71.447952 172.261028 l
72.047519 173.78843 l
72.715391 167.796207 l
73.303574 171.229049 l
73.887961 170.548459 l
74.521681 171.257319 l
75.204732 173.434012 l
75.842246 170.168218 l
76.494939 173.010122 l
77.094505 173.736447 l
77.663714 170.706702 l
78.270871 172.819196 l
78.893206 173.928493 l
79.432057 171.900431 l
80.054392 172.677938 l
80.585654 170.258872 l
81.223168 171.041111 l
81.811351 171.291989 l
82.414712 172.482885 l
82.987716 170.976168 l
83.55313 171.325028 l
84.175465 173.001893 l
84.794006 171.957578 l
85.332857 173.344762 l
85.924834 171.734938 l
86.516812 172.293746 l
87.142941 170.881424 l
87.761482 171.350655 l
88.326896 169.534264 l
89.636077 172.390292 l
90.28877 174.011922 l
90.895926 173.950035 l
91.635898 174.055143 l
92.205107 173.716734 l
92.926105 173.869619 l
94.121444 174.310779 l
94.732395 171.145162 l
95.324372 174.162248 l
95.988449 174.513412 l
96.694268 172.914214 l
97.252093 177.260453 l
97.85166 177.819871 l
99.092536 175.127619 l
99.65036 171.138336 l
100.238543 169.890094 l
100.822931 169.713655 l
101.422498 173.678733 l
102.022064 175.876597 l
102.557121 173.41624 l
103.114946 166.745577 l
103.756255 165.514756 l
104.333053 166.493246 l
105.691565 174.003863 l
106.32149 175.561651 l
106.970388 174.811621 l
107.623081 170.949662 l
108.279569 171.033587 l
108.917083 175.443721 l
109.474908 175.701865 l
110.047911 174.737939 l
110.677836 171.555702 l
111.273608 170.35708 l
111.903533 169.799181 l
112.594173 167.540423 l
113.163382 167.530346 l
113.728796 167.967979 l
114.385284 166.32288 l
115.083513 167.747851 l
115.728617 166.173155 l
116.339568 168.775345 l
116.923956 169.024312 l
117.584238 171.610574 l
118.149653 172.66196 l
118.817524 173.582757 l
119.436065 174.062663 l
120.039426 171.758183 l
120.657967 170.422885 l
121.344812 171.641556 l
121.982326 172.155277 l
122.665377 169.851634 l
123.31807 170.274733 l
123.932816 168.207416 l
124.623456 169.320459 l
125.287533 172.202521 l
125.921253 169.480036 l
126.562561 172.144077 l
127.188691 171.295442 l
127.845179 170.63321 l
128.524435 170.188816 l
129.245433 168.86572 l
129.951252 167.835924 l
130.60015 167.867189 l
131.901742 163.980775 l
132.527872 167.23716 l
133.207128 166.617217 l
133.863615 164.7765 l
135.138644 163.424155 l
135.867231 162.987768 l
136.470593 162.202661 l
137.749415 161.900788 l
138.330009 162.373008 l
138.948549 160.896708 l
139.570884 163.817405 l
140.147683 168.387824 l
140.773813 166.018279 l
141.346816 166.462154 l
141.972946 169.996739 l
142.591487 168.067928 l
143.187259 167.413795 l
143.824773 162.987195 l
145.04288 167.28224 l
145.634857 164.438499 l
146.181298 165.727909 l
146.799838 166.664109 l
147.414584 164.687119 l
147.987588 166.751111 l
148.632691 167.651067 l
149.258821 165.630949 l
149.869772 166.939627 l
150.511081 163.075399 l
151.194132 163.002804 l
151.812672 166.026747 l
152.408444 165.391448 l
153.049753 161.966034 l
153.71383 159.403633 l
154.358934 160.494775 l
154.950911 163.446149 l
155.626372 169.353379 l
156.29045 166.753857 l
156.890016 162.847558 l
157.516146 165.40619 l
158.195402 166.185808 l
159.432483 170.344884 l
160.062408 168.102963 l
160.661975 170.992115 l
161.341231 167.794461 l
161.925619 171.953329 l
162.532775 169.625206 l
163.177878 170.798182 l
163.796419 172.638964 l
164.460496 172.400355 l
165.135957 171.954807 l
165.811419 169.789979 l
166.433754 168.524871 l
167.135778 170.209279 l
167.73155 173.196308 l
168.403217 173.668809 l
169.078678 176.896621 l
169.757934 175.162185 l
170.456164 174.01464 l
171.07091 175.51277 l
171.712218 173.462279 l
172.353527 175.167975 l
173.025194 175.953491 l
173.655118 177.372862 l
174.247096 176.349231 l
174.903584 174.923878 l
175.506945 175.401762 l
176.220354 176.199601 l
177.502971 176.758574 l
178.170843 175.120165 l
178.831126 175.741342 l
179.445871 169.355965 l
180.109948 169.265635 l
180.770231 169.02365 l
181.449487 168.127653 l
182.087001 176.687709 l
183.377208 171.221454 l
184.064054 169.953516 l
184.712952 170.171674 l
185.407387 170.042525 l
186.063874 170.146891 l
186.727952 171.534817 l
187.411002 173.527483 l
188.056106 174.109128 l
188.727773 176.025295 l
189.418413 174.104642 l
190.067311 174.198263 l
190.723799 176.257241 l
191.384081 177.642718 l
191.998827 175.337355 l
192.685672 176.717638 l
193.402876 175.616244 l
193.987264 176.622311 l
194.639957 175.725164 l
195.315418 172.95386 l
196.719467 167.996062 l
198.043826 173.395961 l
199.383365 167.718095 l
200.115747 168.6018 l
200.829156 166.447071 l
201.470464 166.482684 l
202.760672 171.106115 l
204.107799 174.0742 l
204.821208 176.224129 l
205.511848 173.620192 l
206.194899 172.4637 l
206.858976 173.87445 l
207.545822 173.330471 l
208.255436 174.120579 l
208.946076 172.870177 l
209.632921 173.186049 l
211.021791 172.829821 l
211.682074 169.106101 l
212.372714 166.232441 l
213.074738 166.356796 l
213.738816 164.738375 l
214.383919 172.085434 l
215.06697 169.966021 l
215.712073 165.469938 l
216.345793 165.650314 l
217.00987 166.924062 l
217.746047 171.513822 l
218.444277 170.869277 l
219.051433 169.081555 l
219.719305 167.648654 l
220.425124 170.780661 l
221.115764 174.825302 l
221.749483 176.311214 l
222.428739 177.544979 l
223.107996 176.02506 l
223.825199 181.290031 l
224.50066 177.464628 l
225.206479 175.802449 l
225.859172 174.718702 l
226.599144 173.23939 l
227.2784 171.410071 l
227.999398 170.10181 l
229.338937 170.531272 l
229.987835 170.161037 l
230.686065 171.398512 l
231.350142 171.712805 l
232.048371 172.461745 l
232.739012 171.051669 l
234.184802 169.352986 l
235.53193 163.082699 l
236.218776 168.965451 l
236.939774 171.844266 l
237.653183 170.58397 l
238.355207 168.231031 l
239.087589 166.755249 l
239.827561 166.845694 l
240.457486 168.079239 l
241.151921 168.540797 l
241.907071 168.481252 l
242.609096 171.449148 l
243.360451 167.363229 l
243.994171 168.305524 l
244.734142 165.0925 l
245.447551 165.72672 l
246.134397 165.436267 l
246.840216 162.624892 l
247.534651 161.712795 l
248.206317 161.478079 l
248.85901 159.901501 l
249.55724 158.853152 l
250.225112 160.832283 l
250.87401 163.309222 l
251.560856 163.433027 l
252.289443 161.684222 l
252.995262 163.788186 l
253.628982 164.888491 l
254.27788 165.161938 l
254.873652 162.520664 l
255.473219 162.991476 l
256.080375 164.042776 l
256.725478 164.647905 l
257.374377 162.149168 l
257.985328 164.194404 l
258.603868 163.603822 l
259.203435 161.150944 l
259.803002 160.604745 l
260.402569 160.344588 l
261.040083 160.793322 l
261.658623 162.016349 l
262.243011 161.745974 l
262.888114 161.070139 l
263.518039 164.628561 l
264.170732 165.788508 l
264.766504 171.243337 l
265.430581 160.226702 l
266.064301 159.632852 l
266.686636 164.060426 l
267.354508 165.291102 l
268.018585 167.60169 l
268.652304 164.598112 l
269.297408 167.266368 l
270.545873 168.37456 l
271.881617 173.153711 l
273.179413 168.365296 l
273.828311 168.313428 l
274.439262 169.622285 l
275.091955 170.452451 l
275.71429 169.420625 l
276.351804 169.358231 l
277.638217 170.484453 l
278.252962 169.421355 l
278.860119 168.822361 l
280.821992 170.876304 l
281.482275 174.023611 l
282.742124 173.735877 l
283.387228 175.977358 l
284.024742 175.083014 l
284.681229 176.126672 l
285.311154 175.148694 l
286.555824 176.68307 l
287.197133 177.009383 l
287.834647 175.592848 l
288.620156 175.564954 l
289.917952 177.191631 l
290.619976 178.731164 l
291.32959 179.942066 l
292.001257 182.059696 l
292.638771 184.52339 l
293.264901 184.848473 l
293.959336 185.564755 l
294.59685 183.832968 l
295.279901 184.938129 l
295.917415 181.44966 l
297.226595 187.13582 l
297.867904 185.034478 l
298.543366 186.229871 l
299.203648 183.324178 l
299.860136 184.171816 l
300.539392 182.86747 l
301.222443 183.632635 l
301.894109 182.917338 l
302.524034 182.417893 l
303.252621 185.205253 l
303.848393 183.215398 l
304.569391 183.87822 l
305.252442 185.399538 l
305.916519 183.13023 l
306.610954 181.201607 l
307.210521 179.935782 l
307.863214 178.928965 l
308.561444 180.038225 l
309.221726 181.81607 l
309.885803 180.566524 l
310.530907 177.430568 l
311.2557 179.540182 l
311.988082 178.640852 l
312.618007 178.794304 l
313.251726 175.891015 l
313.904419 179.270201 l
314.534344 174.967625 l
315.190831 173.663016 l
315.816961 177.510926 l
317.126142 171.211601 l
317.797808 172.980119 l
318.488449 171.899339 l
319.133552 173.533334 l
319.755887 170.809545 l
320.397196 174.691828 l
321.095426 175.541411 l
321.755708 171.527852 l
322.427375 173.877014 l
323.04971 172.288702 l
323.713787 174.762193 l
324.358891 175.541318 l
325.045736 179.716785 l
325.732582 180.210287 l
327.068325 186.53201 l
327.732403 184.372921 l
329.652534 188.610613 l
330.335585 193.051971 l
331.014841 190.649079 l
331.686508 193.281627 l
332.320227 186.911059 l
333.026046 187.13804 l
333.720481 186.892821 l
334.392148 193.552072 l
335.022072 194.911953 l
335.712713 191.242022 l
336.350227 192.128827 l
337.044662 197.09142 l
337.644228 199.306763 l
338.228616 198.639382 l
338.767468 201.440459 l
339.329087 202.684961 l
339.886912 203.527881 l
340.4713 205.193757 l
341.067072 206.246499 l
342.808851 210.988379 l
343.423597 213.494285 l
344.026959 214.87564 l
345.742175 220.088633 l
346.29241 221.375141 l
347.40806 225.58826 l
349.07774 230.159644 l
351.320423 237.54017 l
351.901016 237.927002 l
352.458841 238.797423 l
353.570696 239.833086 l
354.109547 240.1194 l
355.228992 241.126654 l
355.752664 241.879002 l
356.337052 242.241202 l
356.868313 242.703162 l
357.426138 243.391926 l
357.946016 243.798749 l
359.099613 244.276149 l
359.62708 244.663318 l
360.184904 244.725828 l
360.719961 245.020307 l
361.323322 245.535222 l
361.938068 246.263777 l
361.938068 246.263777 l
stroke
grestore
0.502 0.000 0.502 setrgbcolor
gsave
334.8 96.417 42.356 154.229 clipbox
57.574432 160.068426 m
58.234714 159.657819 l
58.743208 159.162562 l
59.232727 159.181885 l
59.699479 158.904484 l
60.188998 159.320522 l
60.632981 159.097152 l
61.187012 159.341675 l
61.748631 159.733424 l
62.754234 159.290416 l
63.285495 158.73173 l
63.858499 158.844407 l
64.423913 158.783621 l
65.774836 159.105921 l
66.799412 158.875375 l
67.376211 159.403727 l
67.930241 159.045143 l
68.49945 158.825559 l
69.057275 159.981422 l
69.694789 158.905503 l
70.275382 159.246771 l
70.855975 160.056546 l
71.447952 159.692432 l
72.715391 159.601074 l
73.303574 159.475046 l
73.887961 159.060619 l
74.521681 159.025402 l
75.204732 159.305795 l
75.842246 159.288383 l
76.494939 159.701442 l
77.094505 159.687028 l
77.663714 159.477583 l
78.270871 159.686637 l
78.893206 158.990131 l
79.432057 159.430378 l
80.054392 159.361932 l
80.585654 159.752257 l
81.223168 159.927567 l
81.811351 160.313716 l
82.414712 160.072765 l
82.987716 160.077365 l
83.55313 159.946275 l
84.175465 160.474975 l
84.794006 159.733867 l
85.332857 159.760619 l
85.924834 160.249348 l
86.516812 160.259923 l
87.142941 159.663134 l
87.761482 160.054971 l
88.326896 160.615691 l
88.994768 160.532719 l
89.636077 159.656255 l
90.28877 160.358679 l
90.895926 160.067598 l
91.635898 160.029564 l
92.205107 160.63496 l
92.926105 160.628876 l
94.121444 161.32581 l
95.988449 160.590603 l
97.252093 161.583429 l
99.092536 162.205121 l
100.238543 163.117015 l
100.822931 163.419187 l
101.422498 163.400031 l
102.557121 162.857836 l
103.114946 163.118596 l
103.756255 162.958241 l
106.32149 161.614227 l
106.970388 162.482459 l
107.623081 161.902969 l
108.279569 161.7004 l
109.474908 162.109529 l
110.047911 162.256858 l
111.903533 163.586179 l
112.594173 163.756271 l
113.163382 163.460088 l
113.728796 162.958508 l
114.385284 162.945728 l
115.083513 162.800615 l
115.728617 163.093511 l
116.339568 162.522337 l
116.923956 162.901315 l
117.584238 162.852988 l
118.149653 162.592193 l
119.436065 162.348222 l
120.039426 161.956654 l
120.657967 162.687965 l
121.344812 162.45554 l
121.982326 162.493165 l
122.665377 162.187015 l
123.31807 162.857136 l
123.932816 162.446935 l
124.623456 162.586926 l
125.287533 162.561944 l
125.921253 161.992348 l
127.188691 162.59932 l
127.845179 162.531335 l
128.524435 163.017556 l
129.245433 163.010481 l
129.951252 163.236302 l
130.60015 162.654178 l
131.279407 162.821893 l
131.901742 162.653551 l
132.527872 162.658057 l
134.497335 162.130204 l
136.470593 162.194874 l
137.089133 161.66327 l
137.749415 161.711338 l
138.948549 161.313555 l
139.570884 161.740323 l
140.147683 161.274534 l
140.773813 161.806493 l
142.591487 160.743088 l
143.187259 160.257445 l
143.824773 160.447695 l
144.466081 160.96519 l
145.04288 161.236467 l
145.634857 160.676981 l
147.414584 159.863666 l
148.632691 160.083091 l
149.258821 159.981418 l
150.511081 159.051384 l
151.194132 159.355091 l
151.812672 159.12352 l
153.049753 159.170467 l
153.71383 159.731059 l
154.358934 160.027684 l
154.950911 160.448456 l
155.626372 159.916639 l
156.29045 160.104779 l
156.890016 160.490901 l
157.516146 160.371685 l
158.825327 159.545086 l
160.661975 158.611603 l
161.925619 159.188234 l
162.532775 159.21905 l
163.177878 159.579682 l
163.796419 159.21127 l
164.460496 159.519102 l
165.135957 159.269312 l
165.811419 159.48179 l
166.433754 159.850729 l
167.135778 159.544205 l
168.403217 159.809827 l
169.078678 160.459702 l
169.757934 160.215869 l
170.456164 160.180088 l
171.07091 159.896637 l
171.712218 159.356993 l
173.025194 159.013896 l
173.655118 159.052488 l
174.247096 159.310426 l
174.903584 159.994067 l
175.506945 160.415079 l
176.220354 159.648152 l
176.876841 160.303854 l
177.502971 160.34155 l
180.109948 161.739806 l
180.770231 161.58393 l
181.449487 161.182358 l
182.743489 160.842991 l
183.377208 161.269712 l
184.064054 161.531814 l
184.712952 161.183047 l
186.063874 160.84715 l
186.727952 160.973379 l
187.411002 161.316737 l
188.056106 160.963688 l
188.727773 160.747357 l
189.418413 161.000615 l
190.067311 160.955327 l
190.723799 160.761443 l
191.998827 159.905238 l
193.402876 159.950289 l
193.987264 159.612944 l
194.639957 160.264157 l
195.315418 161.124518 l
196.006058 161.255428 l
197.334212 162.187398 l
198.043826 162.984484 l
198.726877 163.172099 l
199.383365 163.131511 l
200.115747 163.647112 l
202.08521 163.911875 l
202.760672 163.599551 l
204.107799 162.51739 l
204.821208 162.301313 l
205.511848 162.211013 l
206.858976 162.684091 l
207.545822 162.141036 l
208.255436 162.389286 l
208.946076 161.947833 l
209.632921 161.723059 l
210.28182 162.175727 l
211.021791 161.618334 l
211.682074 161.29736 l
212.372714 161.424139 l
213.074738 161.197482 l
213.738816 160.599503 l
214.383919 161.011068 l
215.06697 161.039864 l
215.712073 160.88127 l
216.345793 160.880976 l
217.00987 161.334261 l
217.746047 161.515758 l
218.444277 161.527925 l
219.051433 161.078921 l
220.425124 160.532047 l
221.749483 161.004889 l
222.428739 161.101511 l
224.50066 160.896651 l
225.206479 161.237711 l
225.859172 160.805573 l
226.599144 161.594613 l
227.2784 161.308915 l
228.625528 160.327726 l
229.987835 160.511754 l
230.686065 160.954874 l
231.350142 160.799136 l
232.048371 161.23316 l
232.739012 162.283651 l
233.448626 162.033617 l
234.886827 162.22262 l
236.218776 161.00934 l
236.939774 160.671168 l
237.653183 160.739532 l
239.087589 161.398376 l
240.457486 160.824996 l
241.151921 160.825135 l
241.907071 161.544774 l
242.609096 160.70754 l
243.360451 161.549707 l
243.994171 161.640442 l
244.734142 160.875156 l
245.447551 161.467245 l
246.134397 160.900921 l
246.840216 160.916616 l
248.206317 160.49325 l
248.85901 160.74368 l
249.55724 160.632515 l
250.225112 161.166885 l
250.87401 161.450217 l
251.560856 161.244721 l
253.628982 161.386573 l
254.27788 161.139901 l
254.873652 161.933413 l
255.473219 162.355668 l
256.725478 162.067308 l
257.374377 161.398092 l
258.603868 161.096964 l
259.203435 160.853761 l
259.803002 160.787345 l
260.402569 160.435388 l
261.040083 160.650958 l
261.658623 160.689362 l
262.243011 160.602199 l
262.888114 160.332178 l
263.518039 160.278877 l
264.170732 160.04955 l
264.766504 159.979042 l
265.430581 159.36699 l
266.064301 159.302204 l
266.686636 158.84433 l
267.354508 159.182797 l
268.652304 159.048809 l
270.545873 158.855729 l
271.247897 159.155929 l
272.500157 159.19704 l
273.179413 159.018905 l
273.828311 159.263755 l
274.439262 158.920286 l
275.091955 159.067989 l
275.71429 159.945622 l
276.351804 159.696484 l
276.97414 159.871861 l
277.638217 159.530513 l
278.252962 159.79215 l
278.860119 160.374498 l
279.490043 160.165777 l
280.146531 160.291181 l
280.821992 160.08128 l
282.127378 160.415343 l
282.742124 160.451613 l
283.387228 159.726455 l
284.024742 160.302508 l
284.681229 160.47232 l
285.311154 160.94597 l
285.933489 160.600157 l
286.555824 160.715451 l
287.197133 161.294842 l
287.834647 160.729475 l
288.620156 160.874487 l
289.291822 160.166977 l
289.917952 160.154887 l
290.619976 160.361044 l
291.32959 159.933144 l
292.001257 160.969685 l
293.264901 160.580492 l
294.59685 161.30194 l
295.279901 162.005344 l
296.581492 162.76088 l
297.867904 161.954888 l
298.543366 162.139961 l
299.203648 162.482114 l
299.860136 162.453521 l
300.539392 162.619084 l
301.894109 163.080047 l
302.524034 163.205539 l
303.252621 162.784614 l
303.848393 162.9601 l
304.569391 162.440527 l
306.610954 162.905257 l
307.210521 162.857584 l
307.863214 163.076864 l
309.221726 163.223298 l
310.530907 162.792522 l
311.2557 163.661293 l
312.618007 162.41814 l
313.251726 162.671567 l
313.904419 163.190748 l
314.534344 162.356516 l
315.190831 162.368517 l
315.816961 162.521297 l
316.462065 162.468507 l
317.797808 161.369722 l
318.488449 161.99634 l
319.133552 161.877542 l
319.755887 162.09892 l
320.397196 161.39449 l
321.755708 160.847134 l
322.427375 160.950479 l
323.04971 161.539048 l
323.713787 161.354245 l
324.358891 160.553165 l
325.045736 160.291754 l
326.408043 160.710283 l
327.068325 160.740636 l
327.732403 160.111241 l
328.377506 160.432022 l
329.652534 160.074698 l
330.335585 160.228131 l
331.014841 160.860644 l
332.320227 159.915497 l
333.026046 159.892486 l
333.720481 160.226026 l
335.022072 160.072581 l
336.350227 160.495698 l
337.044662 161.033391 l
337.644228 161.260414 l
338.228616 162.105633 l
338.767468 161.394606 l
339.329087 161.60549 l
339.886912 161.140918 l
340.4713 161.541316 l
341.067072 161.256002 l
341.632486 160.640394 l
342.213079 160.949625 l
342.808851 160.213183 l
344.026959 160.568875 l
344.588578 160.404928 l
345.172966 160.508287 l
345.742175 160.805619 l
346.29241 160.283618 l
346.899567 161.051428 l
347.40806 161.417642 l
347.96209 161.258765 l
348.508531 160.622488 l
349.07774 161.465403 l
349.639359 161.420765 l
350.208568 160.648042 l
350.777777 160.839238 l
351.320423 161.2055 l
351.901016 160.322439 l
352.458841 161.074913 l
353.001487 160.93322 l
354.109547 160.356711 l
354.682551 160.252541 l
355.228992 160.2667 l
356.337052 159.938635 l
356.868313 159.965004 l
357.426138 159.773356 l
357.946016 159.785398 l
359.62708 159.498826 l
360.719961 159.326738 l
361.323322 159.161191 l
361.938068 158.741646 l
361.938068 158.741646 l
stroke
grestore
gsave
42.35625 154.228995 m
42.35625 250.646386 l
grestore
gsave
377.15625 154.228995 m
377.15625 250.646386 l
grestore
gsave
42.35625 154.228995 m
377.15625 154.228995 l
grestore
gsave
42.35625 250.646386 m
377.15625 250.646386 l
grestore
0.300 setlinewidth
0 setlinejoin
0 setlinecap
0.800 setgray
gsave
49.35625 199.662011 m
141.73125 199.662011 l
143.064583 199.662011 143.73125 200.328678 143.73125 201.662011 c
143.73125 243.646386 l
143.73125 244.979719 143.064583 245.646386 141.73125 245.646386 c
49.35625 245.646386 l
48.022917 245.646386 47.35625 244.979719 47.35625 243.646386 c
47.35625 201.662011 l
47.35625 200.328678 48.022917 199.662011 49.35625 199.662011 c
cl
gsave
1.000 setgray
fill
grestore
stroke
grestore
0.150 setgray
/LiberationSans 10.000 selectfont
gsave

51.356250 234.396386 translate
0.000000 rotate
0.000000 0 m /D glyphshow
7.221680 0 m /r glyphshow
10.551758 0 m /o glyphshow
16.113281 0 m /n glyphshow
21.674805 0 m /e glyphshow
27.236328 0 m /space glyphshow
30.014648 0 m /p glyphshow
35.576172 0 m /o glyphshow
41.137695 0 m /s glyphshow
46.137695 0 m /i glyphshow
48.359375 0 m /t glyphshow
51.137695 0 m /i glyphshow
53.359375 0 m /o glyphshow
58.920898 0 m /n glyphshow
64.482422 0 m /space glyphshow
67.260742 0 m /e glyphshow
72.822266 0 m /r glyphshow
76.152344 0 m /r glyphshow
79.482422 0 m /o glyphshow
85.043945 0 m /r glyphshow
grestore
1.750 setlinewidth
1 setlinejoin
1 setlinecap
1.000 0.000 0.000 setrgbcolor
gsave
62.926563 223.568261 m
82.926563 223.568261 l
stroke
grestore
0.150 setgray
gsave

90.926563 220.068261 translate
0.000000 rotate
0.000000 0 m /S glyphshow
6.669922 0 m /L glyphshow
12.231445 0 m /O glyphshow
20.009766 0 m /A glyphshow
26.679688 0 m /M glyphshow
grestore
0.502 0.000 0.502 setrgbcolor
gsave
62.926563 209.240136 m
82.926563 209.240136 l
stroke
grestore
0.150 setgray
gsave

90.926563 205.740136 translate
0.000000 rotate
0.000000 0 m /P glyphshow
6.669922 0 m /i glyphshow
8.891602 0 m /x glyphshow
13.891602 0 m /h glyphshow
19.453125 0 m /a glyphshow
25.014648 0 m /w glyphshow
32.236328 0 m /k glyphshow
grestore
gsave
42.35625 38.528125 m
377.15625 38.528125 l
377.15625 134.945516 l
42.35625 134.945516 l
cl
0.918 0.918 0.949 setrgbcolor
fill
grestore
1.000 setlinewidth
1.000 setgray
gsave
334.8 96.417 42.356 38.528 clipbox
57.574432 38.528125 m
57.574432 134.945516 l
stroke
grestore
0.150 setgray
gsave

54.793182 24.278125 translate
0.000000 rotate
0.000000 0 m /zero glyphshow
grestore
1.000 setgray
gsave
334.8 96.417 42.356 38.528 clipbox
105.008514 38.528125 m
105.008514 134.945516 l
stroke
grestore
0.150 setgray
gsave

99.446014 24.278125 translate
0.000000 rotate
0.000000 0 m /five glyphshow
5.561523 0 m /zero glyphshow
grestore
1.000 setgray
gsave
334.8 96.417 42.356 38.528 clipbox
152.442597 38.528125 m
152.442597 134.945516 l
stroke
grestore
0.150 setgray
gsave

144.098847 24.278125 translate
0.000000 rotate
0.000000 0 m /one glyphshow
5.561523 0 m /zero glyphshow
11.123047 0 m /zero glyphshow
grestore
1.000 setgray
gsave
334.8 96.417 42.356 38.528 clipbox
199.876679 38.528125 m
199.876679 134.945516 l
stroke
grestore
0.150 setgray
gsave

191.532929 24.278125 translate
0.000000 rotate
0.000000 0 m /one glyphshow
5.561523 0 m /five glyphshow
11.123047 0 m /zero glyphshow
grestore
1.000 setgray
gsave
334.8 96.417 42.356 38.528 clipbox
247.310762 38.528125 m
247.310762 134.945516 l
stroke
grestore
0.150 setgray
gsave

238.967012 24.278125 translate
0.000000 rotate
0.000000 0 m /two glyphshow
5.561523 0 m /zero glyphshow
11.123047 0 m /zero glyphshow
grestore
1.000 setgray
gsave
334.8 96.417 42.356 38.528 clipbox
294.744844 38.528125 m
294.744844 134.945516 l
stroke
grestore
0.150 setgray
gsave

286.401094 24.278125 translate
0.000000 rotate
0.000000 0 m /two glyphshow
5.561523 0 m /five glyphshow
11.123047 0 m /zero glyphshow
grestore
1.000 setgray
gsave
334.8 96.417 42.356 38.528 clipbox
342.178927 38.528125 m
342.178927 134.945516 l
stroke
grestore
0.150 setgray
gsave

333.835177 24.278125 translate
0.000000 rotate
0.000000 0 m /three glyphshow
5.561523 0 m /zero glyphshow
11.123047 0 m /zero glyphshow
grestore
gsave
200.256250 10.200000 translate
0.000000 rotate
/DejaVuSans-Oblique 11.0 selectfont
0.000000 0.031250 moveto
/t glyphshow
/LiberationSans 11.0 selectfont
4.312988 0.031250 moveto
/space glyphshow
7.369141 0.031250 moveto
/bracketleft glyphshow
10.425293 0.031250 moveto
/s glyphshow
15.925293 0.031250 moveto
/bracketright glyphshow
grestore
1.000 setgray
gsave
334.8 96.417 42.356 38.528 clipbox
42.35625 41.726245 m
377.15625 41.726245 l
stroke
grestore
0.150 setgray
gsave

29.793750 38.101245 translate
0.000000 rotate
0.000000 0 m /zero glyphshow
grestore
1.000 setgray
gsave
334.8 96.417 42.356 38.528 clipbox
42.35625 71.338466 m
377.15625 71.338466 l
stroke
grestore
0.150 setgray
gsave

24.231250 67.713466 translate
0.000000 rotate
0.000000 0 m /two glyphshow
5.561523 0 m /five glyphshow
grestore
1.000 setgray
gsave
334.8 96.417 42.356 38.528 clipbox
42.35625 100.950687 m
377.15625 100.950687 l
stroke
grestore
0.150 setgray
gsave

24.231250 97.325687 translate
0.000000 rotate
0.000000 0 m /five glyphshow
5.561523 0 m /zero glyphshow
grestore
1.000 setgray
gsave
334.8 96.417 42.356 38.528 clipbox
42.35625 130.562908 m
377.15625 130.562908 l
stroke
grestore
0.150 setgray
gsave

24.231250 126.937908 translate
0.000000 rotate
0.000000 0 m /seven glyphshow
5.561523 0 m /five glyphshow
grestore
/LiberationSans 11.000 selectfont
gsave

17.950000 64.393071 translate
90.000000 rotate
0.000000 0 m /C glyphshow
7.943848 0 m /o glyphshow
14.061523 0 m /u glyphshow
20.179199 0 m /n glyphshow
26.296875 0 m /t glyphshow
29.353027 0 m /space glyphshow
32.409180 0 m /bracketleft glyphshow
35.465332 0 m /numbersign glyphshow
41.583008 0 m /bracketright glyphshow
grestore
1.750 setlinewidth
0.000 setgray
gsave
334.8 96.417 42.356 38.528 clipbox
57.574432 42.910734 m
58.234714 44.095223 l
60.632981 44.095223 l
61.187012 45.279711 l
62.754234 45.279711 l
63.285495 47.648689 l
63.858499 47.648689 l
64.423913 48.833178 l
65.125938 48.833178 l
65.774836 50.017667 l
68.49945 50.017667 l
69.057275 51.202156 l
70.275382 51.202156 l
70.855975 52.386644 l
72.047519 52.386644 l
72.715391 54.755622 l
73.887961 54.755622 l
74.521681 55.940111 l
77.094505 55.940111 l
77.663714 58.309089 l
78.270871 58.309089 l
78.893206 59.493577 l
82.414712 59.493577 l
82.987716 61.862555 l
85.332857 61.862555 l
85.924834 63.047044 l
90.28877 63.047044 l
90.895926 64.231533 l
91.635898 64.231533 l
92.205107 66.60051 l
94.121444 66.60051 l
94.732395 68.969488 l
95.988449 68.969488 l
96.694268 70.153977 l
99.092536 70.153977 l
99.65036 71.338466 l
100.822931 71.338466 l
101.422498 72.522955 l
103.114946 72.522955 l
103.756255 73.707443 l
111.273608 73.707443 l
111.903533 74.891932 l
120.039426 74.891932 l
120.657967 76.076421 l
121.982326 76.076421 l
122.665377 77.26091 l
126.562561 77.26091 l
127.188691 78.445399 l
127.845179 78.445399 l
128.524435 79.629888 l
131.279407 79.629888 l
131.901742 81.998865 l
132.527872 81.998865 l
133.207128 83.183354 l
134.497335 83.183354 l
135.138644 84.367843 l
148.632691 84.367843 l
149.258821 85.552332 l
163.796419 85.552332 l
164.460496 86.736821 l
167.135778 86.736821 l
167.73155 87.921309 l
171.712218 87.921309 l
172.353527 89.105798 l
173.025194 89.105798 l
173.655118 90.290287 l
176.876841 90.290287 l
177.502971 92.659265 l
182.087001 92.659265 l
182.743489 93.843754 l
204.821208 93.843754 l
205.511848 95.028243 l
211.021791 95.028243 l
211.682074 96.212731 l
217.746047 96.212731 l
218.444277 97.39722 l
223.825199 97.39722 l
224.50066 98.581709 l
225.206479 98.581709 l
225.859172 99.766198 l
226.599144 99.766198 l
227.2784 100.950687 l
232.048371 100.950687 l
232.739012 102.135176 l
234.184802 102.135176 l
234.886827 103.319664 l
242.609096 103.319664 l
243.360451 104.504153 l
243.994171 104.504153 l
244.734142 105.688642 l
246.134397 105.688642 l
246.840216 108.05762 l
252.995262 108.05762 l
253.628982 109.242109 l
256.725478 109.242109 l
257.374377 110.426597 l
284.681229 110.426597 l
285.311154 111.611086 l
289.291822 111.611086 l
289.917952 112.795575 l
290.619976 112.795575 l
291.32959 113.980064 l
299.860136 113.980064 l
300.539392 116.349042 l
301.222443 116.349042 l
301.894109 117.53353 l
307.863214 117.53353 l
308.561444 118.718019 l
312.618007 118.718019 l
313.251726 119.902508 l
315.816961 119.902508 l
316.462065 121.086997 l
317.126142 121.086997 l
317.797808 122.271486 l
321.755708 122.271486 l
322.427375 123.455975 l
323.04971 123.455975 l
323.713787 124.640463 l
325.045736 124.640463 l
325.732582 125.824952 l
327.068325 125.824952 l
327.732403 128.19393 l
330.335585 128.19393 l
331.014841 129.378419 l
335.712713 129.378419 l
336.350227 130.562908 l
361.938068 130.562908 l
361.938068 130.562908 l
stroke
grestore
0 setlinecap
[6.475 2.8] 0 setdash
0.502 setgray
gsave
334.8 96.417 42.356 38.528 clipbox
57.574432 124.640463 m
285.311154 124.640463 l
285.933489 65.416022 l
286.555824 124.640463 l
361.938068 124.640463 l
361.938068 124.640463 l
stroke
grestore
gsave
42.35625 38.528125 m
42.35625 134.945516 l
grestore
gsave
377.15625 38.528125 m
377.15625 134.945516 l
grestore
gsave
42.35625 38.528125 m
377.15625 38.528125 l
grestore
gsave
42.35625 134.945516 m
377.15625 134.945516 l
grestore
0.300 setlinewidth
0 setlinejoin
[] 0 setdash
0.800 setgray
gsave
49.35625 83.961141 m
148.95 83.961141 l
150.283333 83.961141 150.95 84.627808 150.95 85.961141 c
150.95 127.945516 l
150.95 129.27885 150.283333 129.945516 148.95 129.945516 c
49.35625 129.945516 l
48.022917 129.945516 47.35625 129.27885 47.35625 127.945516 c
47.35625 85.961141 l
47.35625 84.627808 48.022917 83.961141 49.35625 83.961141 c
cl
gsave
1.000 setgray
fill
grestore
stroke
grestore
0.150 setgray
/LiberationSans 10.000 selectfont
gsave

51.356250 118.695516 translate
0.000000 rotate
0.000000 0 m /N glyphshow
7.221680 0 m /u glyphshow
12.783203 0 m /m glyphshow
21.113281 0 m /b glyphshow
26.674805 0 m /e glyphshow
32.236328 0 m /r glyphshow
35.566406 0 m /space glyphshow
38.344727 0 m /o glyphshow
43.906250 0 m /f glyphshow
46.684570 0 m /space glyphshow
49.462891 0 m /l glyphshow
51.684570 0 m /a glyphshow
57.246094 0 m /n glyphshow
62.807617 0 m /d glyphshow
68.369141 0 m /m glyphshow
76.699219 0 m /a glyphshow
82.260742 0 m /r glyphshow
85.590820 0 m /k glyphshow
90.590820 0 m /s glyphshow
grestore
1.750 setlinewidth
1 setlinejoin
1 setlinecap
0.000 setgray
gsave
57.075 107.867391 m
77.075 107.867391 l
stroke
grestore
0.150 setgray
gsave

85.075000 104.367391 translate
0.000000 rotate
0.000000 0 m /S glyphshow
6.669922 0 m /L glyphshow
12.231445 0 m /O glyphshow
20.009766 0 m /A glyphshow
26.679688 0 m /M glyphshow
grestore
0 setlinecap
[6.475 2.8] 0 setdash
0.502 setgray
gsave
57.075 93.539266 m
77.075 93.539266 l
stroke
grestore
0.150 setgray
gsave

85.075000 90.039266 translate
0.000000 rotate
0.000000 0 m /G glyphshow
7.778320 0 m /r glyphshow
11.108398 0 m /o glyphshow
16.669922 0 m /u glyphshow
22.231445 0 m /n glyphshow
27.792969 0 m /d glyphshow
33.354492 0 m /space glyphshow
36.132812 0 m /t glyphshow
38.911133 0 m /r glyphshow
42.241211 0 m /u glyphshow
47.802734 0 m /t glyphshow
50.581055 0 m /h glyphshow
grestore

end
showpage
