%!PS-Adobe-3.0 EPSF-3.0
%%Title: sloam_acc.eps
%%Creator: Matplotlib v3.4.3, https://matplotlib.org/
%%CreationDate: Thu May 26 21:10:44 2022
%%Orientation: portrait
%%BoundingBox: 112 151 500 641
%%HiResBoundingBox: 112.431250 151.375938 499.568750 640.624062
%%EndComments
%%BeginProlog
/mpldict 12 dict def
mpldict begin
/_d { bind def } bind def
/m { moveto } _d
/l { lineto } _d
/r { rlineto } _d
/c { curveto } _d
/cl { closepath } _d
/ce { closepath eofill } _d
/box {
      m
      1 index 0 r
      0 exch r
      neg 0 r
      cl
    } _d
/clipbox {
      box
      clip
      newpath
    } _d
/sc { setcachedevice } _d
%!PS-Adobe-3.0 Resource-Font
%%Creator: Converted from TrueType to Type 3 by Matplotlib.
10 dict begin
/FontName /LiberationSans def
/PaintType 0 def
/FontMatrix [0.00048828125 0 0 0.00048828125 0 0] def
/FontBBox [-1114 -621 2666 2007] def
/FontType 3 def
/Encoding [/space /numbersign /period /zero /one /two /three /four /five /six /A /B /C /D /E /G /H /L /M /N /O /P /S /bracketleft /bracketright /a /b /c /d /e /f /h /i /k /l /m /n /o /p /r /s /t /u /w /x] def
/CharStrings 46 dict dup begin
/.notdef 0 def
/space{569 0 0 0 0 0 sc
ce} _d
/numbersign{1139 0 9 0 1129 1401 sc
896 885 m
818 516 l
1078 516 l
1078 408 l
795 408 l
707 0 l
597 0 l
683 408 l
320 408 l
236 0 l
126 0 l
210 408 l
9 408 l
9 516 l
234 516 l
312 885 l
60 885 l
60 993 l
334 993 l
423 1401 l
533 1401 l
445 993 l
808 993 l
896 1401 l
1006 1401 l
918 993 l
1129 993 l
1129 885 l
896 885 l

425 885 m
345 516 l
707 516 l
785 885 l
425 885 l

ce} _d
/period{569 0 187 0 382 219 sc
187 0 m
187 219 l
382 219 l
382 0 l
187 0 l

ce} _d
/zero{1139 0 80 -20 1059 1430 sc
1059 705 m
1059 470 1017 290 934 166 c
851 42 729 -20 567 -20 c
405 -20 283 42 202 165 c
121 288 80 468 80 705 c
80 947 119 1128 198 1249 c
277 1370 402 1430 573 1430 c
739 1430 861 1369 940 1247 c
1019 1125 1059 944 1059 705 c

876 705 m
876 908 852 1056 805 1147 c
758 1238 681 1284 573 1284 c
462 1284 383 1239 334 1149 c
286 1059 262 911 262 705 c
262 505 286 359 335 266 c
384 173 462 127 569 127 c
675 127 753 174 802 269 c
851 364 876 509 876 705 c

ce} _d
/one{1139 0 156 0 1039 1409 sc
156 0 m
156 153 l
515 153 l
515 1237 l
197 1010 l
197 1180 l
530 1409 l
696 1409 l
696 153 l
1039 153 l
1039 0 l
156 0 l

ce} _d
/two{1139 0 103 0 1036 1430 sc
103 0 m
103 127 l
137 205 178 274 227 333 c
276 393 328 447 382 495 c
436 544 489 589 542 630 c
595 671 643 713 686 754 c
729 795 763 839 789 884 c
816 929 829 981 829 1038 c
829 1115 806 1175 761 1218 c
716 1261 653 1282 572 1282 c
495 1282 432 1261 382 1219 c
333 1178 304 1119 295 1044 c
111 1061 l
124 1174 172 1263 254 1330 c
337 1397 443 1430 572 1430 c
714 1430 823 1396 899 1329 c
976 1262 1014 1167 1014 1044 c
1014 989 1001 935 976 881 c
951 827 914 773 865 719 c
816 665 721 581 582 468 c
505 405 444 349 399 298 c
354 248 321 200 301 153 c
1036 153 l
1036 0 l
103 0 l

ce} _d
/three{1139 0 78 -20 1049 1430 sc
1049 389 m
1049 259 1008 158 925 87 c
842 16 724 -20 571 -20 c
428 -20 314 12 229 76 c
144 141 94 236 78 362 c
264 379 l
288 212 390 129 571 129 c
662 129 733 151 784 196 c
836 241 862 307 862 395 c
862 472 832 531 773 574 c
714 617 629 639 518 639 c
416 639 l
416 795 l
514 795 l
613 795 689 816 743 859 c
798 902 825 962 825 1038 c
825 1113 803 1173 758 1216 c
714 1260 648 1282 561 1282 c
482 1282 417 1262 368 1221 c
319 1180 291 1123 283 1049 c
102 1063 l
115 1178 163 1268 245 1333 c
328 1398 434 1430 563 1430 c
704 1430 814 1397 892 1331 c
971 1266 1010 1174 1010 1057 c
1010 967 985 894 934 837 c
884 781 811 743 715 723 c
715 719 l
820 708 902 672 961 613 c
1020 554 1049 479 1049 389 c

ce} _d
/four{1139 0 47 0 1079 1409 sc
881 319 m
881 0 l
711 0 l
711 319 l
47 319 l
47 459 l
692 1409 l
881 1409 l
881 461 l
1079 461 l
1079 319 l
881 319 l

711 1206 m
710 1202 700 1184 683 1153 c
666 1122 653 1100 644 1087 c
283 555 l
229 481 l
213 461 l
711 461 l
711 1206 l

ce} _d
/five{1139 0 82 -20 1053 1409 sc
1053 459 m
1053 310 1009 193 920 108 c
832 23 710 -20 553 -20 c
422 -20 316 9 235 66 c
154 123 103 206 82 315 c
264 336 l
302 197 400 127 557 127 c
654 127 729 156 784 214 c
839 273 866 353 866 455 c
866 544 838 615 783 670 c
728 725 654 752 561 752 c
512 752 467 744 425 729 c
383 714 341 688 299 651 c
123 651 l
170 1409 l
971 1409 l
971 1256 l
334 1256 l
307 809 l
385 869 482 899 598 899 c
737 899 847 858 929 777 c
1012 696 1053 590 1053 459 c

ce} _d
/six{1139 0 104 -20 1049 1430 sc
1049 461 m
1049 312 1009 195 928 109 c
847 23 736 -20 594 -20 c
435 -20 314 39 230 157 c
146 275 104 447 104 672 c
104 916 148 1103 235 1234 c
322 1365 447 1430 608 1430 c
821 1430 955 1334 1010 1143 c
838 1112 l
803 1227 725 1284 606 1284 c
503 1284 424 1236 367 1140 c
311 1045 283 906 283 725 c
316 786 362 832 421 863 c
480 895 548 911 625 911 c
755 911 858 870 934 789 c
1011 708 1049 598 1049 461 c

866 453 m
866 555 841 634 791 689 c
741 744 671 772 582 772 c
498 772 430 747 378 698 c
327 649 301 582 301 496 c
301 387 328 298 381 229 c
435 160 504 125 588 125 c
675 125 743 154 792 212 c
841 271 866 351 866 453 c

ce} _d
/A{1366 0 4 0 1362 1409 sc
1167 0 m
1006 412 l
364 412 l
202 0 l
4 0 l
579 1409 l
796 1409 l
1362 0 l
1167 0 l

685 1265 m
676 1237 l
659 1182 635 1111 602 1024 c
422 561 l
949 561 l
768 1026 l
749 1072 731 1124 712 1182 c
685 1265 l

ce} _d
/B{1366 0 168 0 1258 1409 sc
1258 397 m
1258 272 1212 174 1121 104 c
1030 35 903 0 740 0 c
168 0 l
168 1409 l
680 1409 l
1011 1409 1176 1295 1176 1067 c
1176 984 1153 914 1106 857 c
1059 800 993 762 908 743 c
1020 730 1106 692 1167 630 c
1228 569 1258 491 1258 397 c

984 1044 m
984 1120 958 1174 906 1207 c
854 1240 779 1256 680 1256 c
359 1256 l
359 810 l
680 810 l
782 810 858 829 908 867 c
959 906 984 965 984 1044 c

1065 412 m
1065 578 948 661 715 661 c
359 661 l
359 153 l
730 153 l
847 153 932 175 985 218 c
1038 261 1065 326 1065 412 c

ce} _d
/C{1479 0 104 -20 1401 1430 sc
792 1274 m
636 1274 515 1224 428 1123 c
341 1023 298 886 298 711 c
298 538 343 399 433 294 c
524 189 646 137 800 137 c
997 137 1146 235 1245 430 c
1401 352 l
1343 231 1261 138 1156 75 c
1051 12 930 -20 791 -20 c
649 -20 526 9 422 68 c
319 127 240 212 185 321 c
131 431 104 561 104 711 c
104 936 165 1112 286 1239 c
407 1366 575 1430 790 1430 c
940 1430 1065 1401 1166 1342 c
1267 1283 1341 1196 1388 1081 c
1207 1021 l
1174 1103 1122 1166 1049 1209 c
977 1252 891 1274 792 1274 c

ce} _d
/D{1479 0 168 0 1381 1409 sc
1381 719 m
1381 574 1353 446 1296 337 c
1239 228 1159 145 1055 87 c
951 29 831 0 695 0 c
168 0 l
168 1409 l
634 1409 l
873 1409 1057 1349 1186 1229 c
1316 1110 1381 940 1381 719 c

1189 719 m
1189 894 1141 1027 1045 1118 c
950 1210 811 1256 630 1256 c
359 1256 l
359 153 l
673 153 l
776 153 867 176 945 221 c
1024 266 1084 332 1126 417 c
1168 502 1189 603 1189 719 c

ce} _d
/E{1366 0 168 0 1278 1409 sc
168 0 m
168 1409 l
1237 1409 l
1237 1253 l
359 1253 l
359 801 l
1177 801 l
1177 647 l
359 647 l
359 156 l
1278 156 l
1278 0 l
168 0 l

ce} _d
/G{1593 0 103 -20 1440 1430 sc
103 711 m
103 940 164 1117 287 1242 c
410 1367 582 1430 804 1430 c
960 1430 1087 1404 1184 1351 c
1281 1298 1356 1214 1409 1098 c
1227 1044 l
1187 1124 1132 1182 1061 1219 c
991 1256 904 1274 799 1274 c
636 1274 512 1225 426 1126 c
340 1028 297 890 297 711 c
297 533 343 392 434 289 c
525 186 652 135 813 135 c
905 135 991 149 1070 177 c
1150 205 1215 243 1264 291 c
1264 545 l
843 545 l
843 705 l
1440 705 l
1440 219 l
1365 143 1274 84 1165 42 c
1057 1 940 -20 813 -20 c
666 -20 539 9 432 68 c
325 127 244 211 187 321 c
131 432 103 562 103 711 c

ce} _d
/H{1479 0 168 0 1312 1409 sc
1121 0 m
1121 653 l
359 653 l
359 0 l
168 0 l
168 1409 l
359 1409 l
359 813 l
1121 813 l
1121 1409 l
1312 1409 l
1312 0 l
1121 0 l

ce} _d
/L{1139 0 168 0 1071 1409 sc
168 0 m
168 1409 l
359 1409 l
359 156 l
1071 156 l
1071 0 l
168 0 l

ce} _d
/M{1706 0 168 0 1538 1409 sc
1366 0 m
1366 940 l
1366 1044 1369 1144 1375 1240 c
1342 1121 1313 1027 1287 960 c
923 0 l
789 0 l
420 960 l
364 1130 l
331 1240 l
334 1129 l
338 940 l
338 0 l
168 0 l
168 1409 l
419 1409 l
794 432 l
807 393 820 350 832 305 c
845 260 853 228 857 208 c
862 235 873 275 890 329 c
907 384 919 418 925 432 c
1293 1409 l
1538 1409 l
1538 0 l
1366 0 l

ce} _d
/N{1479 0 168 0 1312 1409 sc
1082 0 m
328 1200 l
333 1103 l
338 936 l
338 0 l
168 0 l
168 1409 l
390 1409 l
1152 201 l
1144 332 1140 426 1140 485 c
1140 1409 l
1312 1409 l
1312 0 l
1082 0 l

ce} _d
/O{1593 0 97 -20 1495 1430 sc
1495 711 m
1495 564 1467 435 1410 324 c
1354 213 1273 128 1168 69 c
1063 10 938 -20 795 -20 c
650 -20 525 9 420 68 c
315 127 235 211 180 322 c
125 433 97 563 97 711 c
97 936 159 1112 282 1239 c
405 1366 577 1430 797 1430 c
940 1430 1065 1401 1170 1344 c
1275 1287 1356 1205 1411 1096 c
1467 987 1495 859 1495 711 c

1300 711 m
1300 886 1256 1024 1168 1124 c
1081 1224 957 1274 797 1274 c
636 1274 511 1225 423 1126 c
335 1027 291 889 291 711 c
291 534 335 394 424 290 c
513 187 637 135 795 135 c
958 135 1082 185 1169 285 c
1256 386 1300 528 1300 711 c

ce} _d
/P{1366 0 168 0 1258 1409 sc
1258 985 m
1258 852 1214 746 1127 667 c
1040 588 922 549 773 549 c
359 549 l
359 0 l
168 0 l
168 1409 l
761 1409 l
919 1409 1041 1372 1128 1298 c
1215 1224 1258 1120 1258 985 c

1066 983 m
1066 1165 957 1256 738 1256 c
359 1256 l
359 700 l
746 700 l
959 700 1066 794 1066 983 c

ce} _d
/S{1366 0 93 -20 1272 1430 sc
1272 389 m
1272 259 1221 158 1119 87 c
1018 16 875 -20 690 -20 c
347 -20 148 99 93 338 c
278 375 l
299 290 345 228 414 188 c
483 149 578 129 697 129 c
820 129 915 150 982 192 c
1049 235 1083 297 1083 379 c
1083 425 1072 462 1051 491 c
1030 520 1001 543 963 562 c
925 581 880 596 827 609 c
774 622 716 635 652 650 c
541 675 456 699 398 724 c
341 749 295 776 262 806 c
229 837 203 872 185 913 c
168 954 159 1000 159 1053 c
159 1174 205 1267 297 1332 c
390 1397 522 1430 694 1430 c
854 1430 976 1405 1061 1356 c
1146 1307 1205 1224 1239 1106 c
1051 1073 l
1030 1148 991 1202 933 1235 c
875 1269 795 1286 692 1286 c
579 1286 493 1267 434 1230 c
375 1193 345 1137 345 1063 c
345 1020 356 984 379 955 c
402 927 436 903 479 883 c
522 864 609 840 738 811 c
781 801 824 791 867 780 c
910 770 952 758 991 743 c
1030 729 1067 712 1101 693 c
1136 674 1166 650 1191 622 c
1216 594 1236 561 1250 523 c
1265 485 1272 440 1272 389 c

ce} _d
/bracketleft{569 0 146 -425 553 1484 sc
146 -425 m
146 1484 l
553 1484 l
553 1355 l
320 1355 l
320 -296 l
553 -296 l
553 -425 l
146 -425 l

ce} _d
/bracketright{569 0 16 -425 423 1484 sc
16 -425 m
16 -296 l
249 -296 l
249 1355 l
16 1355 l
16 1484 l
423 1484 l
423 -425 l
16 -425 l

ce} _d
/a{1139 0 87 -20 1139 1102 sc
414 -20 m
305 -20 224 9 169 66 c
114 123 87 202 87 302 c
87 414 124 500 197 560 c
271 620 390 652 554 656 c
797 660 l
797 719 l
797 807 778 870 741 908 c
704 946 645 965 565 965 c
484 965 426 951 389 924 c
352 897 330 853 323 793 c
135 810 l
166 1005 310 1102 569 1102 c
705 1102 807 1071 876 1008 c
945 946 979 856 979 738 c
979 272 l
979 219 986 178 1000 151 c
1014 124 1041 111 1080 111 c
1097 111 1117 113 1139 118 c
1139 6 l
1094 -5 1047 -10 1000 -10 c
933 -10 885 7 854 42 c
824 77 807 132 803 207 c
797 207 l
751 124 697 66 636 31 c
575 -3 501 -20 414 -20 c

455 115 m
521 115 580 130 631 160 c
682 190 723 231 752 283 c
782 336 797 390 797 445 c
797 534 l
600 530 l
515 529 451 520 407 504 c
364 488 330 463 307 430 c
284 397 272 353 272 299 c
272 240 288 195 319 163 c
351 131 396 115 455 115 c

ce} _d
/b{1139 0 132 -20 1053 1484 sc
1053 546 m
1053 169 920 -20 655 -20 c
573 -20 505 -5 450 24 c
396 54 352 102 318 168 c
316 168 l
316 147 315 116 312 73 c
309 31 307 7 306 0 c
132 0 l
136 36 138 110 138 223 c
138 1484 l
318 1484 l
318 1061 l
318 1018 317 967 314 908 c
318 908 l
351 977 395 1027 450 1057 c
505 1087 574 1102 655 1102 c
792 1102 892 1056 956 964 c
1021 872 1053 733 1053 546 c

864 540 m
864 691 844 800 804 865 c
764 930 699 963 609 963 c
508 963 434 928 387 859 c
341 790 318 680 318 529 c
318 387 341 282 386 214 c
431 147 505 113 607 113 c
698 113 763 146 803 213 c
844 280 864 389 864 540 c

ce} _d
/c{1024 0 87 -20 970 1102 sc
275 546 m
275 402 298 295 343 226 c
388 157 457 122 548 122 c
612 122 665 139 708 174 c
751 209 778 262 788 334 c
970 322 l
956 218 912 135 837 73 c
762 11 668 -20 553 -20 c
402 -20 286 28 206 123 c
127 219 87 359 87 542 c
87 724 127 863 207 958 c
287 1054 402 1102 551 1102 c
662 1102 753 1073 826 1016 c
899 959 945 880 964 779 c
779 765 l
770 825 746 873 708 908 c
670 943 616 961 546 961 c
451 961 382 929 339 866 c
296 803 275 696 275 546 c

ce} _d
/d{1139 0 86 -20 1007 1484 sc
821 174 m
788 105 743 55 688 25 c
633 -5 565 -20 484 -20 c
347 -20 247 26 182 118 c
118 210 86 349 86 536 c
86 913 219 1102 484 1102 c
566 1102 634 1087 689 1057 c
744 1027 788 979 821 914 c
823 914 l
821 1035 l
821 1484 l
1001 1484 l
1001 223 l
1001 110 1003 36 1007 0 c
835 0 l
833 11 831 35 828 74 c
826 113 825 146 825 174 c
821 174 l

275 542 m
275 391 295 282 335 217 c
375 152 440 119 530 119 c
632 119 706 154 752 225 c
798 296 821 405 821 554 c
821 697 798 802 752 869 c
706 936 633 969 532 969 c
441 969 376 935 335 868 c
295 801 275 693 275 542 c

ce} _d
/e{1139 0 87 -20 1048 1102 sc
276 503 m
276 379 302 283 353 216 c
404 149 479 115 578 115 c
656 115 718 131 765 162 c
812 193 844 233 861 281 c
1019 236 l
954 65 807 -20 578 -20 c
418 -20 296 28 212 123 c
129 218 87 360 87 548 c
87 727 129 864 212 959 c
296 1054 416 1102 571 1102 c
889 1102 1048 910 1048 527 c
1048 503 l
276 503 l

862 641 m
852 755 823 838 775 890 c
727 943 658 969 568 969 c
481 969 411 940 360 881 c
309 823 282 743 278 641 c
862 641 l

ce} _d
/f{569 0 29 0 572 1482 sc
361 951 m
361 0 l
181 0 l
181 951 l
29 951 l
29 1082 l
181 1082 l
181 1204 l
181 1303 203 1374 246 1417 c
289 1460 356 1482 445 1482 c
495 1482 537 1478 572 1470 c
572 1333 l
542 1338 515 1341 492 1341 c
446 1341 413 1329 392 1306 c
371 1283 361 1240 361 1179 c
361 1082 l
572 1082 l
572 951 l
361 951 l

ce} _d
/h{1139 0 142 0 1006 1484 sc
317 897 m
356 968 402 1019 456 1052 c
511 1085 580 1102 663 1102 c
780 1102 867 1073 922 1014 c
978 956 1006 858 1006 721 c
1006 0 l
825 0 l
825 686 l
825 762 818 818 804 855 c
790 892 767 920 735 937 c
703 954 659 963 602 963 c
517 963 449 934 398 875 c
347 816 322 737 322 638 c
322 0 l
142 0 l
142 1484 l
322 1484 l
322 1098 l
322 1057 321 1015 318 972 c
316 929 315 904 314 897 c
317 897 l

ce} _d
/i{455 0 137 0 317 1484 sc
137 1312 m
137 1484 l
317 1484 l
317 1312 l
137 1312 l

137 0 m
137 1082 l
317 1082 l
317 0 l
137 0 l

ce} _d
/k{1024 0 138 0 1027 1484 sc
816 0 m
450 494 l
318 385 l
318 0 l
138 0 l
138 1484 l
318 1484 l
318 557 l
793 1082 l
1004 1082 l
565 617 l
1027 0 l
816 0 l

ce} _d
/l{455 0 138 0 318 1484 sc
138 0 m
138 1484 l
318 1484 l
318 0 l
138 0 l

ce} _d
/m{1706 0 136 0 1571 1102 sc
768 0 m
768 686 l
768 791 754 863 725 903 c
696 943 645 963 570 963 c
493 963 433 934 388 875 c
343 816 321 734 321 627 c
321 0 l
142 0 l
142 851 l
142 977 140 1054 136 1082 c
306 1082 l
307 1079 307 1070 308 1055 c
309 1040 309 1023 310 1004 c
311 985 313 950 314 897 c
317 897 l
356 974 400 1027 450 1057 c
500 1087 561 1102 633 1102 c
715 1102 780 1086 827 1053 c
875 1020 908 968 927 897 c
930 897 l
967 970 1012 1022 1065 1054 c
1118 1086 1183 1102 1258 1102 c
1367 1102 1447 1072 1496 1013 c
1546 954 1571 856 1571 721 c
1571 0 l
1393 0 l
1393 686 l
1393 791 1379 863 1350 903 c
1321 943 1270 963 1195 963 c
1116 963 1055 934 1011 875 c
968 817 946 734 946 627 c
946 0 l
768 0 l

ce} _d
/n{1139 0 136 0 1006 1102 sc
825 0 m
825 686 l
825 757 818 813 804 852 c
790 891 768 920 737 937 c
706 954 661 963 602 963 c
515 963 447 933 397 874 c
347 815 322 732 322 627 c
322 0 l
142 0 l
142 851 l
142 977 140 1054 136 1082 c
306 1082 l
307 1079 307 1070 308 1055 c
309 1040 309 1023 310 1004 c
311 985 313 950 314 897 c
317 897 l
358 972 406 1024 460 1055 c
515 1086 582 1102 663 1102 c
782 1102 868 1072 923 1013 c
978 954 1006 857 1006 721 c
1006 0 l
825 0 l

ce} _d
/o{1139 0 86 -20 1053 1102 sc
1053 542 m
1053 353 1011 212 928 119 c
845 26 724 -20 565 -20 c
407 -20 288 28 207 124 c
126 221 86 360 86 542 c
86 915 248 1102 571 1102 c
736 1102 858 1056 936 965 c
1014 874 1053 733 1053 542 c

864 542 m
864 691 842 800 797 867 c
753 935 679 969 574 969 c
469 969 392 934 345 865 c
298 796 275 689 275 542 c
275 399 298 292 344 220 c
391 149 464 113 563 113 c
671 113 748 148 794 217 c
841 286 864 395 864 542 c

ce} _d
/p{1139 0 132 -425 1053 1101 sc
1053 546 m
1053 169 920 -20 655 -20 c
488 -20 376 43 319 168 c
314 168 l
317 163 318 106 318 -2 c
318 -425 l
138 -425 l
138 861 l
138 972 136 1046 132 1082 c
306 1082 l
307 1079 308 1070 309 1053 c
310 1037 312 1012 313 978 c
315 944 316 921 316 908 c
320 908 l
352 975 394 1023 447 1054 c
500 1085 569 1101 655 1101 c
788 1101 888 1056 954 967 c
1020 878 1053 737 1053 546 c

864 542 m
864 693 844 800 803 865 c
762 930 698 962 609 962 c
538 962 482 947 441 917 c
401 887 370 840 349 776 c
328 713 318 630 318 528 c
318 386 341 281 386 214 c
431 147 505 113 607 113 c
696 113 761 146 802 211 c
843 277 864 387 864 542 c

ce} _d
/r{682 0 136 0 648 1102 sc
142 0 m
142 830 l
142 906 140 990 136 1082 c
306 1082 l
311 959 314 886 314 861 c
318 861 l
347 954 380 1017 417 1051 c
454 1085 507 1102 575 1102 c
599 1102 623 1099 648 1092 c
648 927 l
624 934 592 937 552 937 c
477 937 420 905 381 840 c
342 776 322 684 322 564 c
322 0 l
142 0 l

ce} _d
/s{1024 0 57 -20 950 1099 sc
950 299 m
950 197 911 118 834 63 c
757 8 650 -20 511 -20 c
376 -20 272 2 199 46 c
126 91 79 160 57 254 c
216 285 l
231 227 263 184 311 157 c
359 130 426 117 511 117 c
602 117 669 131 711 159 c
754 187 775 229 775 285 c
775 328 760 362 731 389 c
702 416 654 438 589 455 c
460 489 l
357 516 283 542 239 567 c
196 593 162 624 137 661 c
112 698 100 743 100 796 c
100 895 135 970 205 1021 c
276 1073 378 1099 513 1099 c
632 1099 727 1078 797 1036 c
868 994 912 927 931 834 c
769 814 l
759 862 732 899 688 924 c
645 950 586 963 513 963 c
432 963 372 951 333 926 c
294 901 275 864 275 814 c
275 783 283 758 299 738 c
315 718 339 701 370 687 c
401 673 467 654 568 629 c
663 605 732 583 774 562 c
816 542 849 520 873 495 c
898 470 917 442 930 409 c
943 377 950 340 950 299 c

ce} _d
/t{569 0 31 -16 554 1324 sc
554 8 m
495 -8 434 -16 372 -16 c
228 -16 156 66 156 229 c
156 951 l
31 951 l
31 1082 l
163 1082 l
216 1324 l
336 1324 l
336 1082 l
536 1082 l
536 951 l
336 951 l
336 268 l
336 216 344 179 361 158 c
378 137 408 127 450 127 c
474 127 509 132 554 141 c
554 8 l

ce} _d
/u{1139 0 133 -20 1003 1082 sc
314 1082 m
314 396 l
314 325 321 269 335 230 c
349 191 371 162 402 145 c
433 128 478 119 537 119 c
624 119 692 149 742 208 c
792 267 817 350 817 455 c
817 1082 l
997 1082 l
997 231 l
997 105 999 28 1003 0 c
833 0 l
832 3 832 12 831 27 c
830 42 829 58 828 77 c
827 96 826 132 825 185 c
822 185 l
781 110 733 57 678 26 c
624 -5 557 -20 476 -20 c
357 -20 270 9 215 68 c
160 127 133 225 133 361 c
133 1082 l
314 1082 l

ce} _d
/w{1479 0 -3 0 1484 1082 sc
1174 0 m
965 0 l
776 765 l
740 934 l
734 904 725 861 712 804 c
699 748 631 480 508 0 c
300 0 l
-3 1082 l
175 1082 l
358 347 l
363 331 377 265 401 149 c
418 223 l
644 1082 l
837 1082 l
1026 339 l
1072 149 l
1103 288 l
1308 1082 l
1484 1082 l
1174 0 l

ce} _d
/x{1024 0 23 0 1002 1082 sc
801 0 m
510 444 l
217 0 l
23 0 l
408 556 l
41 1082 l
240 1082 l
510 661 l
778 1082 l
979 1082 l
612 558 l
1002 0 l
801 0 l

ce} _d
end readonly def

/BuildGlyph {
 exch begin
 CharStrings exch
 2 copy known not {pop /.notdef} if
 true 3 1 roll get exec
 end
} _d

/BuildChar {
 1 index /Encoding get exch get
 1 index /BuildGlyph get exec
} _d

FontName currentdict end definefont pop
%!PS-Adobe-3.0 Resource-Font
%%Creator: Converted from TrueType to Type 3 by Matplotlib.
10 dict begin
/FontName /DejaVuSans-Oblique def
/PaintType 0 def
/FontMatrix [0.00048828125 0 0 0.00048828125 0 0] def
/FontBBox [-2080 -717 3398 2187] def
/FontType 3 def
/Encoding [/t] def
/CharStrings 2 dict dup begin
/.notdef 0 def
/t{803 0 131 0 866 1438 sc
866 1120 m
838 977 l
471 977 l
352 369 l
348 346 345 327 343 312 c
341 297 340 285 340 276 c
340 233 353 202 378 183 c
404 164 445 154 502 154 c
688 154 l
657 0 l
481 0 l
372 0 290 21 236 64 c
183 107 156 171 156 258 c
156 273 157 290 159 308 c
161 327 164 347 168 369 c
287 977 l
131 977 l
160 1120 l
313 1120 l
375 1438 l
559 1438 l
498 1120 l
866 1120 l

ce} _d
end readonly def

/BuildGlyph {
 exch begin
 CharStrings exch
 2 copy known not {pop /.notdef} if
 true 3 1 roll get exec
 end
} _d

/BuildChar {
 1 index /Encoding get exch get
 1 index /BuildGlyph get exec
} _d

FontName currentdict end definefont pop
end
%%EndProlog
mpldict begin
112.431 151.376 translate
387.137 489.248 0 0 clipbox
gsave
0 0 m
387.1375 0 l
387.1375 489.248125 l
0 489.248125 l
cl
1.000 setgray
fill
grestore
gsave
45.1375 385.630734 m
379.9375 385.630734 l
379.9375 482.048125 l
45.1375 482.048125 l
cl
0.918 0.918 0.949 setrgbcolor
fill
grestore
1.000 setlinewidth
1 setlinejoin
1 setlinecap
[] 0 setdash
1.000 setgray
gsave
334.8 96.417 45.138 385.631 clipbox
60.355682 385.630734 m
60.355682 482.048125 l
stroke
grestore
gsave
334.8 96.417 45.138 385.631 clipbox
109.345451 385.630734 m
109.345451 482.048125 l
stroke
grestore
gsave
334.8 96.417 45.138 385.631 clipbox
158.33522 385.630734 m
158.33522 482.048125 l
stroke
grestore
gsave
334.8 96.417 45.138 385.631 clipbox
207.324989 385.630734 m
207.324989 482.048125 l
stroke
grestore
gsave
334.8 96.417 45.138 385.631 clipbox
256.314758 385.630734 m
256.314758 482.048125 l
stroke
grestore
gsave
334.8 96.417 45.138 385.631 clipbox
305.304526 385.630734 m
305.304526 482.048125 l
stroke
grestore
gsave
334.8 96.417 45.138 385.631 clipbox
354.294295 385.630734 m
354.294295 482.048125 l
stroke
grestore
gsave
334.8 96.417 45.138 385.631 clipbox
45.1375 389.913057 m
379.9375 389.913057 l
stroke
grestore
0.150 setgray
/LiberationSans 10.000 selectfont
gsave

32.575000 386.288057 translate
0.000000 rotate
0.000000 0 m /zero glyphshow
grestore
1.000 setgray
gsave
334.8 96.417 45.138 385.631 clipbox
45.1375 430.973685 m
379.9375 430.973685 l
stroke
grestore
0.150 setgray
gsave

27.012500 427.348685 translate
0.000000 rotate
0.000000 0 m /five glyphshow
5.561523 0 m /zero glyphshow
grestore
1.000 setgray
gsave
334.8 96.417 45.138 385.631 clipbox
45.1375 472.034313 m
379.9375 472.034313 l
stroke
grestore
0.150 setgray
gsave

21.450000 468.409313 translate
0.000000 rotate
0.000000 0 m /one glyphshow
5.561523 0 m /zero glyphshow
11.123047 0 m /zero glyphshow
grestore
/LiberationSans 11.000 selectfont
gsave

15.168750 412.417554 translate
90.000000 rotate
0.000000 0 m /E glyphshow
7.336914 0 m /r glyphshow
11.000000 0 m /r glyphshow
14.663086 0 m /o glyphshow
20.780762 0 m /r glyphshow
24.443848 0 m /space glyphshow
27.500000 0 m /bracketleft glyphshow
30.556152 0 m /m glyphshow
39.719238 0 m /bracketright glyphshow
grestore
1.750 setlinewidth
0.298 0.447 0.690 setrgbcolor
gsave
334.8 96.417 45.138 385.631 clipbox
60.355682 390.430061 m
61.535355 390.390529 l
62.017415 390.868359 l
64.106339 390.869842 l
64.651105 391.497686 l
65.795506 391.482742 l
66.900715 393.031055 l
67.480754 392.961607 l
68.597721 394.499889 l
70.655291 394.51595 l
71.752662 394.552294 l
72.426761 395.754405 l
73.618192 395.673826 l
74.260938 396.64148 l
74.852734 397.802931 l
76.087276 397.802509 l
77.325738 400.090582 l
79.242218 400.290892 l
79.857529 401.770439 l
80.519871 403.067497 l
82.236472 403.028397 l
82.792996 404.692345 l
83.400469 404.703518 l
83.953074 406.233681 l
85.653998 406.308305 l
86.896379 409.958014 l
88.687445 410.053842 l
89.275322 411.355303 l
94.162542 411.332955 l
94.773934 412.599585 l
97.983744 412.642872 l
98.630408 414.354764 l
99.931577 414.288723 l
101.142604 418.417557 l
103.462759 418.397758 l
104.015364 420.058014 l
104.638514 420.052096 l
105.242068 421.47802 l
105.90049 422.051607 l
106.519721 422.010018 l
107.072325 422.850117 l
107.715071 422.854843 l
108.306868 425.300847 l
110.654457 425.26801 l
111.230577 426.715058 l
111.83805 426.494405 l
113.613439 426.514484 l
114.209155 428.499775 l
118.434033 428.472335 l
127.099343 428.46397 l
127.714654 428.25918 l
128.326047 428.25309 l
128.984469 429.478152 l
131.606402 429.516884 l
132.221713 430.241236 l
133.381791 430.166073 l
134.00886 431.425322 l
135.846956 431.433511 l
136.489702 432.499738 l
139.719107 432.449445 l
146.695251 432.44132 l
149.650313 432.43752 l
150.222514 433.879879 l
150.759442 433.578344 l
152.644568 433.524289 l
157.014455 433.521466 l
157.629767 434.759541 l
170.519955 434.783716 l
171.781931 434.786289 l
172.330617 435.568464 l
172.942009 437.160645 l
173.635704 438.117902 l
174.266693 438.206646 l
176.814161 438.19036 l
177.413795 440.163777 l
178.01343 440.064603 l
178.664014 440.150179 l
179.941667 440.108995 l
181.211482 440.243401 l
187.34892 440.258514 l
187.979909 440.906541 l
188.638331 441.205574 l
190.594003 441.212466 l
191.27594 444.213862 l
193.313915 444.139345 l
194.019367 444.718048 l
196.037746 444.839187 l
196.704007 444.841782 l
197.425136 444.692903 l
203.335262 444.67928 l
203.954492 446.456178 l
218.718049 446.447471 l
219.403906 450.688023 l
220.038813 452.824257 l
220.661963 452.824185 l
221.324305 452.574177 l
225.670677 452.582233 l
226.325181 454.337868 l
226.971846 454.315033 l
227.630268 455.893277 l
232.21571 455.87473 l
235.601883 455.918672 l
236.248548 457.15366 l
236.922647 457.149609 l
237.604585 458.622462 l
239.003733 458.642166 l
239.666074 458.843938 l
240.316659 459.980391 l
242.213542 459.940745 l
243.56566 459.955046 l
244.278951 460.590851 l
244.968727 461.446424 l
246.332602 461.420415 l
263.236032 461.411365 l
277.99567 461.649747 l
278.736395 463.445451 l
280.096351 463.427523 l
280.891945 465.334199 l
282.334204 465.17978 l
283.031818 465.182224 l
283.658887 467.910686 l
284.854237 467.862805 l
285.391165 470.808832 l
290.305819 470.806617 l
293.586174 470.798057 l
294.189728 472.889712 l
298.563534 472.877951 l
299.120058 473.962917 l
300.985588 473.956133 l
301.659688 474.191689 l
302.882472 474.044889 l
306.033494 473.998504 l
307.87551 474.04461 l
311.085319 474.06319 l
311.731984 475.627536 l
312.990041 475.625166 l
313.577919 476.784909 l
314.185392 476.753396 l
314.800703 476.920306 l
315.380742 477.636826 l
334.839478 477.665516 l
364.719318 477.665516 l
364.719318 477.665516 l
stroke
grestore
0.333 0.659 0.408 setrgbcolor
gsave
334.8 96.417 45.138 385.631 clipbox
60.355682 390.132618 m
61.535355 390.032872 l
62.554343 390.049095 l
64.106339 390.023763 l
64.651105 390.172735 l
65.795506 390.090465 l
66.900715 390.436384 l
67.480754 390.203281 l
68.029439 390.314633 l
68.597721 390.798132 l
69.115053 390.551428 l
71.752662 390.260945 l
72.426761 390.649832 l
73.049911 390.272525 l
73.618192 390.257566 l
74.260938 390.385039 l
76.087276 390.315948 l
76.702588 390.621969 l
77.325738 391.240872 l
79.242218 390.776378 l
79.857529 390.932379 l
81.064637 390.538939 l
83.400469 390.532229 l
83.953074 390.940573 l
85.07004 391.088864 l
86.292825 391.186007 l
86.896379 391.47668 l
89.275322 391.33131 l
94.162542 391.316043 l
95.436276 391.404492 l
96.098617 391.415856 l
97.356674 391.286498 l
97.983744 391.281699 l
98.630408 391.45529 l
99.931577 391.3529 l
101.142604 391.452711 l
103.462759 391.445277 l
104.015364 391.522578 l
104.638514 391.490769 l
105.90049 391.669283 l
106.519721 391.567124 l
107.072325 391.691825 l
107.715071 391.689742 l
108.306868 391.945055 l
109.49438 391.851297 l
110.654457 391.849157 l
111.230577 392.56395 l
111.83805 391.921575 l
113.613439 391.958299 l
114.209155 392.7796 l
116.027655 392.835834 l
127.099343 392.832961 l
127.714654 392.426014 l
128.326047 392.404057 l
128.984469 392.548133 l
130.324829 392.408377 l
131.606402 392.460814 l
132.221713 392.799716 l
134.588899 392.904218 l
135.846956 392.90452 l
137.136367 392.726962 l
143.548148 392.761753 l
147.267451 392.694976 l
149.650313 392.623973 l
150.222514 393.253771 l
150.759442 392.86051 l
151.417864 392.715345 l
157.014455 392.701698 l
158.221563 392.875937 l
166.781056 392.822267 l
171.781931 392.760965 l
172.330617 393.18018 l
173.635704 393.712883 l
174.266693 393.530401 l
176.814161 393.523755 l
177.413795 394.174802 l
178.01343 393.65127 l
179.302841 393.376011 l
179.941667 393.353837 l
180.639282 393.035164 l
187.34892 393.017751 l
187.979909 393.676847 l
188.638331 393.061229 l
190.594003 393.01945 l
191.27594 393.69603 l
192.679007 393.496345 l
193.313915 393.527853 l
194.019367 393.745848 l
194.713062 393.528068 l
196.704007 393.43126 l
197.425136 393.094864 l
202.653324 393.108935 l
203.335262 393.104439 l
203.954492 393.556304 l
211.287281 393.576908 l
219.403906 393.661633 l
220.038813 394.19581 l
220.661963 394.19867 l
221.324305 393.690973 l
225.670677 393.677516 l
226.325181 393.796876 l
228.29261 393.766717 l
235.601883 393.785639 l
236.248548 393.918959 l
236.922647 393.842769 l
237.604585 394.046514 l
239.003733 394.097064 l
239.666074 394.403983 l
243.56566 394.28675 l
244.278951 394.888774 l
244.968727 395.148562 l
247.049812 394.795554 l
265.73647 394.801622 l
269.577268 394.823911 l
275.420767 394.822985 l
276.071352 394.475309 l
277.99567 394.404243 l
278.736395 394.619933 l
279.410494 394.465024 l
280.096351 394.436834 l
280.891945 394.791583 l
282.334204 394.480235 l
283.031818 394.483911 l
283.658887 394.69461 l
284.282037 394.53966 l
297.967819 394.589529 l
300.985588 394.588032 l
301.659688 395.145059 l
302.286757 394.907275 l
306.033494 394.812423 l
306.648806 394.565173 l
312.990041 394.545442 l
313.577919 394.717419 l
314.185392 394.605982 l
314.800703 394.116518 l
315.976458 394.10799 l
322.784076 394.046596 l
364.719318 394.11877 l
364.719318 394.11877 l
stroke
grestore
gsave
45.1375 385.630734 m
45.1375 482.048125 l
grestore
gsave
379.9375 385.630734 m
379.9375 482.048125 l
grestore
gsave
45.1375 385.630734 m
379.9375 385.630734 l
grestore
gsave
45.1375 482.048125 m
379.9375 482.048125 l
grestore
0.300 setlinewidth
0 setlinejoin
0 setlinecap
0.800 setgray
gsave
52.1375 431.06375 m
181.746875 431.06375 l
183.080208 431.06375 183.746875 431.730417 183.746875 433.06375 c
183.746875 475.048125 l
183.746875 476.381458 183.080208 477.048125 181.746875 477.048125 c
52.1375 477.048125 l
50.804167 477.048125 50.1375 476.381458 50.1375 475.048125 c
50.1375 433.06375 l
50.1375 431.730417 50.804167 431.06375 52.1375 431.06375 c
cl
gsave
1.000 setgray
fill
grestore
stroke
grestore
0.150 setgray
/LiberationSans 10.000 selectfont
gsave

54.137500 465.798125 translate
0.000000 rotate
0.000000 0 m /A glyphshow
6.669922 0 m /c glyphshow
11.669922 0 m /c glyphshow
16.669922 0 m /u glyphshow
22.231445 0 m /m glyphshow
30.561523 0 m /u glyphshow
36.123047 0 m /l glyphshow
38.344727 0 m /a glyphshow
43.906250 0 m /t glyphshow
46.684570 0 m /e glyphshow
52.246094 0 m /d glyphshow
57.807617 0 m /space glyphshow
60.585938 0 m /l glyphshow
62.807617 0 m /a glyphshow
68.369141 0 m /n glyphshow
73.930664 0 m /d glyphshow
79.492188 0 m /m glyphshow
87.822266 0 m /a glyphshow
93.383789 0 m /r glyphshow
96.713867 0 m /k glyphshow
101.713867 0 m /space glyphshow
104.492188 0 m /e glyphshow
110.053711 0 m /r glyphshow
113.383789 0 m /r glyphshow
116.713867 0 m /o glyphshow
122.275391 0 m /r glyphshow
grestore
1.750 setlinewidth
1 setlinejoin
1 setlinecap
0.298 0.447 0.690 setrgbcolor
gsave
73.207813 454.97 m
93.207813 454.97 l
stroke
grestore
0.150 setgray
gsave

101.207813 451.470000 translate
0.000000 rotate
0.000000 0 m /P glyphshow
6.669922 0 m /o glyphshow
12.231445 0 m /s glyphshow
17.231445 0 m /i glyphshow
19.453125 0 m /t glyphshow
22.231445 0 m /i glyphshow
24.453125 0 m /o glyphshow
30.014648 0 m /n glyphshow
35.576172 0 m /space glyphshow
38.354492 0 m /e glyphshow
43.916016 0 m /r glyphshow
47.246094 0 m /r glyphshow
50.576172 0 m /o glyphshow
56.137695 0 m /r glyphshow
grestore
0.333 0.659 0.408 setrgbcolor
gsave
73.207813 440.641875 m
93.207813 440.641875 l
stroke
grestore
0.150 setgray
gsave

101.207813 437.141875 translate
0.000000 rotate
0.000000 0 m /D glyphshow
7.221680 0 m /B glyphshow
13.891602 0 m /H glyphshow
21.113281 0 m /space glyphshow
23.891602 0 m /e glyphshow
29.453125 0 m /r glyphshow
32.783203 0 m /r glyphshow
36.113281 0 m /o glyphshow
41.674805 0 m /r glyphshow
grestore
gsave
45.1375 269.929864 m
379.9375 269.929864 l
379.9375 366.347255 l
45.1375 366.347255 l
cl
0.918 0.918 0.949 setrgbcolor
fill
grestore
1.000 setlinewidth
1.000 setgray
gsave
334.8 96.417 45.138 269.93 clipbox
60.355682 269.929864 m
60.355682 366.347255 l
stroke
grestore
gsave
334.8 96.417 45.138 269.93 clipbox
109.345451 269.929864 m
109.345451 366.347255 l
stroke
grestore
gsave
334.8 96.417 45.138 269.93 clipbox
158.33522 269.929864 m
158.33522 366.347255 l
stroke
grestore
gsave
334.8 96.417 45.138 269.93 clipbox
207.324989 269.929864 m
207.324989 366.347255 l
stroke
grestore
gsave
334.8 96.417 45.138 269.93 clipbox
256.314758 269.929864 m
256.314758 366.347255 l
stroke
grestore
gsave
334.8 96.417 45.138 269.93 clipbox
305.304526 269.929864 m
305.304526 366.347255 l
stroke
grestore
gsave
334.8 96.417 45.138 269.93 clipbox
354.294295 269.929864 m
354.294295 366.347255 l
stroke
grestore
gsave
334.8 96.417 45.138 269.93 clipbox
45.1375 271.598703 m
379.9375 271.598703 l
stroke
grestore
0.150 setgray
gsave

24.231250 267.973703 translate
0.000000 rotate
0.000000 0 m /zero glyphshow
5.561523 0 m /period glyphshow
8.339844 0 m /zero glyphshow
grestore
1.000 setgray
gsave
334.8 96.417 45.138 269.93 clipbox
45.1375 299.318779 m
379.9375 299.318779 l
stroke
grestore
0.150 setgray
gsave

24.231250 295.693779 translate
0.000000 rotate
0.000000 0 m /zero glyphshow
5.561523 0 m /period glyphshow
8.339844 0 m /five glyphshow
grestore
1.000 setgray
gsave
334.8 96.417 45.138 269.93 clipbox
45.1375 327.038854 m
379.9375 327.038854 l
stroke
grestore
0.150 setgray
gsave

24.231250 323.413854 translate
0.000000 rotate
0.000000 0 m /one glyphshow
5.561523 0 m /period glyphshow
8.339844 0 m /zero glyphshow
grestore
1.000 setgray
gsave
334.8 96.417 45.138 269.93 clipbox
45.1375 354.75893 m
379.9375 354.75893 l
stroke
grestore
0.150 setgray
gsave

24.231250 351.133930 translate
0.000000 rotate
0.000000 0 m /one glyphshow
5.561523 0 m /period glyphshow
8.339844 0 m /five glyphshow
grestore
/LiberationSans 11.000 selectfont
gsave

17.950000 296.716685 translate
90.000000 rotate
0.000000 0 m /E glyphshow
7.336914 0 m /r glyphshow
11.000000 0 m /r glyphshow
14.663086 0 m /o glyphshow
20.780762 0 m /r glyphshow
24.443848 0 m /space glyphshow
27.500000 0 m /bracketleft glyphshow
30.556152 0 m /m glyphshow
39.719238 0 m /bracketright glyphshow
grestore
1.750 setlinewidth
0.298 0.447 0.690 setrgbcolor
gsave
334.8 96.417 45.138 269.93 clipbox
60.355682 306.50174 m
61.025862 304.578712 l
61.535355 303.832902 l
64.106339 303.895055 l
64.651105 307.258196 l
65.795506 306.921918 l
66.355949 310.923066 l
66.900715 313.697984 l
67.480754 312.760301 l
68.029439 314.048118 l
68.597721 315.835497 l
69.115053 315.696895 l
70.655291 315.990397 l
71.223572 316.304133 l
71.752662 316.340909 l
72.426761 320.892459 l
73.049911 320.206095 l
73.618192 320.212475 l
74.260938 322.069435 l
74.852734 324.863333 l
76.087276 324.860485 l
77.325738 328.855861 l
78.599472 329.795056 l
79.242218 329.982769 l
79.857529 333.175103 l
80.519871 335.0314 l
81.064637 334.841334 l
82.236472 334.842853 l
82.792996 338.115461 l
83.400469 338.165747 l
83.953074 340.461649 l
85.07004 340.778558 l
85.653998 340.776516 l
86.292825 344.362124 l
86.896379 346.778551 l
88.095649 347.024364 l
88.687445 347.137962 l
89.275322 347.786516 l
93.006383 347.707438 l
94.162542 347.70711 l
94.773934 348.177204 l
96.098617 348.180122 l
96.749201 348.326747 l
97.983744 348.323321 l
98.630408 350.173101 l
99.328023 349.955496 l
99.931577 349.960795 l
101.142604 355.265745 l
103.462759 355.207632 l
104.015364 356.394095 l
104.638514 356.377447 l
105.242068 356.83687 l
105.90049 355.047822 l
106.519721 354.939835 l
107.072325 353.953688 l
107.715071 353.965505 l
108.306868 356.921334 l
110.654457 356.842161 l
111.230577 357.271365 l
111.83805 356.757699 l
113.613439 356.804441 l
114.209155 355.630757 l
116.635128 355.574084 l
127.099343 355.552782 l
127.714654 355.1068 l
130.959737 355.126336 l
131.606402 355.150541 l
132.221713 354.100516 l
132.801752 353.958194 l
134.00886 354.025103 l
135.846956 354.041364 l
136.489702 353.742462 l
138.417939 353.646669 l
149.650313 353.622451 l
150.222514 354.048844 l
150.759442 353.48338 l
152.064529 353.381469 l
171.781931 353.474294 l
172.330617 352.709271 l
172.942009 353.385624 l
173.635704 352.956564 l
174.266693 353.106341 l
176.814161 353.078855 l
177.413795 354.340939 l
178.01343 354.17764 l
178.664014 354.318549 l
179.941667 354.250737 l
180.639282 354.470091 l
187.34892 354.496933 l
187.979909 353.564792 l
188.638331 354.045454 l
190.594003 354.056532 l
191.27594 354.913552 l
192.679007 354.774648 l
193.313915 354.799219 l
194.019367 353.818504 l
195.410677 353.940249 l
196.704007 354.004132 l
197.425136 353.780781 l
203.335262 353.760344 l
203.954492 354.582016 l
217.334578 354.575392 l
218.718049 354.569236 l
219.403906 357.076301 l
220.038813 358.275072 l
220.661963 358.274973 l
221.324305 357.930523 l
225.670677 357.941622 l
226.325181 358.585226 l
226.971846 358.554393 l
227.630268 358.938546 l
230.961572 358.914048 l
236.922647 358.889993 l
237.604585 359.119072 l
239.003733 359.144171 l
239.666074 357.775211 l
240.947647 357.548051 l
243.56566 357.572202 l
244.278951 356.803448 l
244.968727 356.321958 l
246.332602 356.291153 l
262.675589 356.274492 l
275.420767 356.351554 l
276.071352 356.540624 l
277.99567 356.562771 l
278.736395 357.188014 l
280.096351 357.167147 l
280.891945 357.898528 l
282.334204 357.721835 l
283.031818 357.724632 l
283.658887 359.359179 l
284.854237 359.305305 l
285.391165 361.127929 l
289.710103 361.124208 l
293.586174 361.116003 l
294.189728 361.949722 l
298.563534 361.936916 l
299.120058 361.665614 l
300.985588 361.658344 l
301.659688 360.499637 l
302.882472 360.344786 l
306.033494 360.295857 l
307.87551 360.344492 l
311.085319 360.36409 l
311.731984 360.623226 l
312.990041 360.620764 l
313.577919 360.458224 l
314.185392 360.42599 l
314.800703 360.596719 l
315.380742 359.990365 l
334.839478 360.019274 l
364.719318 360.019274 l
364.719318 360.019274 l
stroke
grestore
0.333 0.659 0.408 setrgbcolor
gsave
334.8 96.417 45.138 269.93 clipbox
60.355682 286.421322 m
61.025862 278.369013 l
61.535355 279.687438 l
62.017415 276.919641 l
63.052079 275.625932 l
63.592926 275.326262 l
64.106339 275.335593 l
64.651105 277.442349 l
65.795506 275.591002 l
66.355949 277.409297 l
66.900715 278.664681 l
67.480754 275.517317 l
68.029439 276.11712 l
68.597721 280.134641 l
69.115053 277.755354 l
69.628465 277.270401 l
70.149716 276.951456 l
70.655291 276.360022 l
71.223572 275.082816 l
71.752662 274.953841 l
72.426761 277.816177 l
73.049911 274.632176 l
73.618192 274.505936 l
74.260938 275.139101 l
74.852734 274.531685 l
75.483722 274.312473 l
76.087276 274.318627 l
76.702588 275.9495 l
77.325738 279.068782 l
77.976322 278.134122 l
78.599472 277.033821 l
79.242218 276.455614 l
79.857529 276.892131 l
80.519871 275.279514 l
81.064637 274.616802 l
83.400469 274.385395 l
83.953074 275.934186 l
84.501759 276.366999 l
85.07004 276.559882 l
86.292825 276.653822 l
86.896379 277.463168 l
87.492095 277.254805 l
88.687445 276.522278 l
89.275322 276.637991 l
89.886715 276.584148 l
90.451077 276.667485 l
93.006383 276.584762 l
95.436276 276.633052 l
96.098617 276.67141 l
96.749201 276.312416 l
97.983744 276.218563 l
98.630408 276.556625 l
99.328023 276.24159 l
99.931577 276.227464 l
100.566484 276.343673 l
101.142604 276.11793 l
102.831771 276.093601 l
105.90049 276.15882 l
106.519721 275.89356 l
107.072325 276.046291 l
107.715071 276.041082 l
108.306868 276.498005 l
108.894745 276.328443 l
110.654457 276.266786 l
111.230577 277.769811 l
111.83805 276.274404 l
113.613439 276.359895 l
114.209155 277.841306 l
115.404505 277.958701 l
127.099343 277.957513 l
127.714654 277.071284 l
128.326047 277.023469 l
128.984469 277.1579 l
129.670326 276.904278 l
130.324829 276.863057 l
131.606402 276.973684 l
132.221713 277.504118 l
133.381791 277.63427 l
134.00886 277.52347 l
135.846956 277.538528 l
136.489702 277.106942 l
138.417939 276.972587 l
141.082983 276.962839 l
146.115212 277.053843 l
148.458882 276.850314 l
149.650313 276.827682 l
150.222514 277.863481 l
150.759442 277.126005 l
151.417864 276.853781 l
155.148925 276.818922 l
157.629767 276.914168 l
158.848632 277.011617 l
167.349337 276.886829 l
171.781931 276.794989 l
172.330617 277.403015 l
172.942009 277.754376 l
173.635704 278.011871 l
174.266693 277.703886 l
176.814161 277.69267 l
177.413795 278.616043 l
178.01343 277.754001 l
179.302841 277.300763 l
179.941667 277.26425 l
180.639282 276.739528 l
187.34892 276.710855 l
187.979909 277.648558 l
188.638331 276.659023 l
190.594003 276.59187 l
191.27594 277.402997 l
192.679007 277.096616 l
193.313915 277.14496 l
194.019367 277.348751 l
194.713062 277.022032 l
195.410677 277.011591 l
196.037746 276.882842 l
196.704007 276.876799 l
197.425136 276.372128 l
201.367833 276.396033 l
203.335262 276.386494 l
203.954492 276.945573 l
208.512501 276.961768 l
216.691832 276.952293 l
219.403906 276.870928 l
220.038813 277.499298 l
220.661963 277.503239 l
221.324305 276.803755 l
235.601883 276.724947 l
236.248548 276.799451 l
236.922647 276.700536 l
238.286523 276.914044 l
239.003733 276.92819 l
239.666074 277.213202 l
241.55512 276.939019 l
243.56566 276.967222 l
244.278951 277.597118 l
244.968727 277.799572 l
246.332602 277.351377 l
248.327466 277.353827 l
258.090147 277.347069 l
275.420767 277.413963 l
276.071352 277.00218 l
277.99567 276.91801 l
278.736395 277.077354 l
279.410494 276.897044 l
280.096351 276.864233 l
280.891945 277.180903 l
282.334204 276.824648 l
283.031818 276.828854 l
283.658887 276.978756 l
284.282037 276.804411 l
291.614825 276.793576 l
299.120058 276.669113 l
300.985588 276.608355 l
301.659688 277.117657 l
302.286757 276.866831 l
306.033494 276.766777 l
306.648806 276.505967 l
314.185392 276.399005 l
314.800703 275.898342 l
318.539602 275.787009 l
325.660755 275.784916 l
327.945638 275.836437 l
364.719318 275.836437 l
364.719318 275.836437 l
stroke
grestore
gsave
45.1375 269.929864 m
45.1375 366.347255 l
grestore
gsave
379.9375 269.929864 m
379.9375 366.347255 l
grestore
gsave
45.1375 269.929864 m
379.9375 269.929864 l
grestore
gsave
45.1375 366.347255 m
379.9375 366.347255 l
grestore
0.300 setlinewidth
0 setlinejoin
0 setlinecap
0.800 setgray
gsave
52.1375 315.36288 m
148.95 315.36288 l
150.283333 315.36288 150.95 316.029547 150.95 317.36288 c
150.95 359.347255 l
150.95 360.680589 150.283333 361.347255 148.95 361.347255 c
52.1375 361.347255 l
50.804167 361.347255 50.1375 360.680589 50.1375 359.347255 c
50.1375 317.36288 l
50.1375 316.029547 50.804167 315.36288 52.1375 315.36288 c
cl
gsave
1.000 setgray
fill
grestore
stroke
grestore
0.150 setgray
/LiberationSans 10.000 selectfont
gsave

54.137500 350.097255 translate
0.000000 rotate
0.000000 0 m /M glyphshow
8.330078 0 m /e glyphshow
13.891602 0 m /a glyphshow
19.453125 0 m /n glyphshow
25.014648 0 m /space glyphshow
27.792969 0 m /l glyphshow
30.014648 0 m /a glyphshow
35.576172 0 m /n glyphshow
41.137695 0 m /d glyphshow
46.699219 0 m /m glyphshow
55.029297 0 m /a glyphshow
60.590820 0 m /r glyphshow
63.920898 0 m /k glyphshow
68.920898 0 m /space glyphshow
71.699219 0 m /e glyphshow
77.260742 0 m /r glyphshow
80.590820 0 m /r glyphshow
83.920898 0 m /o glyphshow
89.482422 0 m /r glyphshow
grestore
1.750 setlinewidth
1 setlinejoin
1 setlinecap
0.298 0.447 0.690 setrgbcolor
gsave
56.809375 339.26913 m
76.809375 339.26913 l
stroke
grestore
0.150 setgray
gsave

84.809375 335.769130 translate
0.000000 rotate
0.000000 0 m /P glyphshow
6.669922 0 m /o glyphshow
12.231445 0 m /s glyphshow
17.231445 0 m /i glyphshow
19.453125 0 m /t glyphshow
22.231445 0 m /i glyphshow
24.453125 0 m /o glyphshow
30.014648 0 m /n glyphshow
35.576172 0 m /space glyphshow
38.354492 0 m /e glyphshow
43.916016 0 m /r glyphshow
47.246094 0 m /r glyphshow
50.576172 0 m /o glyphshow
56.137695 0 m /r glyphshow
grestore
0.333 0.659 0.408 setrgbcolor
gsave
56.809375 324.941005 m
76.809375 324.941005 l
stroke
grestore
0.150 setgray
gsave

84.809375 321.441005 translate
0.000000 rotate
0.000000 0 m /D glyphshow
7.221680 0 m /B glyphshow
13.891602 0 m /H glyphshow
21.113281 0 m /space glyphshow
23.891602 0 m /e glyphshow
29.453125 0 m /r glyphshow
32.783203 0 m /r glyphshow
36.113281 0 m /o glyphshow
41.674805 0 m /r glyphshow
grestore
gsave
45.1375 154.228995 m
379.9375 154.228995 l
379.9375 250.646386 l
45.1375 250.646386 l
cl
0.918 0.918 0.949 setrgbcolor
fill
grestore
1.000 setlinewidth
1.000 setgray
gsave
334.8 96.417 45.138 154.229 clipbox
60.355682 154.228995 m
60.355682 250.646386 l
stroke
grestore
gsave
334.8 96.417 45.138 154.229 clipbox
109.345451 154.228995 m
109.345451 250.646386 l
stroke
grestore
gsave
334.8 96.417 45.138 154.229 clipbox
158.33522 154.228995 m
158.33522 250.646386 l
stroke
grestore
gsave
334.8 96.417 45.138 154.229 clipbox
207.324989 154.228995 m
207.324989 250.646386 l
stroke
grestore
gsave
334.8 96.417 45.138 154.229 clipbox
256.314758 154.228995 m
256.314758 250.646386 l
stroke
grestore
gsave
334.8 96.417 45.138 154.229 clipbox
305.304526 154.228995 m
305.304526 250.646386 l
stroke
grestore
gsave
334.8 96.417 45.138 154.229 clipbox
354.294295 154.228995 m
354.294295 250.646386 l
stroke
grestore
gsave
334.8 96.417 45.138 154.229 clipbox
45.1375 158.476399 m
379.9375 158.476399 l
stroke
grestore
0.150 setgray
gsave

32.575000 154.851399 translate
0.000000 rotate
0.000000 0 m /zero glyphshow
grestore
1.000 setgray
gsave
334.8 96.417 45.138 154.229 clipbox
45.1375 186.095478 m
379.9375 186.095478 l
stroke
grestore
0.150 setgray
gsave

32.575000 182.470478 translate
0.000000 rotate
0.000000 0 m /one glyphshow
grestore
1.000 setgray
gsave
334.8 96.417 45.138 154.229 clipbox
45.1375 213.714558 m
379.9375 213.714558 l
stroke
grestore
0.150 setgray
gsave

32.575000 210.089558 translate
0.000000 rotate
0.000000 0 m /two glyphshow
grestore
1.000 setgray
gsave
334.8 96.417 45.138 154.229 clipbox
45.1375 241.333638 m
379.9375 241.333638 l
stroke
grestore
0.150 setgray
gsave

32.575000 237.708638 translate
0.000000 rotate
0.000000 0 m /three glyphshow
grestore
/LiberationSans 11.000 selectfont
gsave

26.293750 181.015815 translate
90.000000 rotate
0.000000 0 m /E glyphshow
7.336914 0 m /r glyphshow
11.000000 0 m /r glyphshow
14.663086 0 m /o glyphshow
20.780762 0 m /r glyphshow
24.443848 0 m /space glyphshow
27.500000 0 m /bracketleft glyphshow
30.556152 0 m /m glyphshow
39.719238 0 m /bracketright glyphshow
grestore
1.750 setlinewidth
1.000 0.000 0.000 setrgbcolor
gsave
334.8 96.417 45.138 154.229 clipbox
60.355682 163.80881 m
61.025862 163.414981 l
61.535355 161.720733 l
62.017415 161.89407 l
62.554343 165.007721 l
63.052079 163.364379 l
63.592926 165.285259 l
64.106339 165.369 l
64.651105 166.187806 l
65.795506 168.479331 l
66.355949 169.390488 l
67.480754 171.984553 l
68.597721 175.14519 l
69.115053 175.83439 l
69.628465 178.144887 l
70.149716 178.022604 l
70.655291 180.917357 l
71.223572 182.563597 l
71.752662 181.964483 l
72.426761 183.945048 l
73.049911 184.722404 l
73.618192 183.889207 l
74.260938 185.65319 l
74.852734 189.624227 l
75.483722 190.252226 l
76.087276 189.236515 l
76.702588 189.283344 l
77.325738 190.955379 l
77.976322 193.094362 l
78.599472 194.281295 l
79.242218 195.928405 l
79.857529 196.447785 l
80.519871 197.326744 l
81.064637 198.685539 l
81.632918 199.509208 l
82.236472 200.996431 l
82.792996 203.575337 l
83.400469 203.931807 l
83.953074 203.449456 l
84.501759 204.595259 l
85.07004 205.261649 l
85.653998 206.886863 l
86.292825 209.15205 l
86.896379 210.750228 l
87.492095 210.79906 l
88.095649 209.804008 l
88.687445 211.102434 l
89.275322 208.368479 l
89.886715 210.149703 l
90.451077 213.344642 l
91.744407 216.927354 l
92.340122 219.291809 l
93.006383 220.41423 l
93.566826 219.511543 l
94.162542 222.598326 l
95.436276 220.574253 l
96.098617 221.909816 l
96.749201 222.182675 l
97.356674 223.358581 l
97.983744 225.571535 l
98.630408 225.29995 l
100.566484 227.422224 l
101.142604 227.597499 l
102.279166 226.54869 l
102.831771 226.360703 l
103.462759 224.401798 l
104.015364 225.298696 l
104.638514 225.886917 l
105.90049 229.490957 l
106.519721 228.969474 l
107.715071 233.169132 l
108.306868 236.317473 l
108.894745 236.671661 l
109.49438 236.383299 l
110.027388 239.875473 l
110.654457 238.922833 l
111.230577 239.833829 l
111.83805 238.391111 l
112.465119 237.518528 l
113.033401 236.373679 l
114.209155 232.779128 l
114.769598 232.970522 l
115.404505 231.029059 l
116.027655 230.83967 l
116.635128 231.774091 l
117.195571 229.979227 l
117.791287 230.821828 l
118.434033 230.734321 l
119.014072 231.430588 l
119.641141 232.504472 l
120.26429 230.827728 l
120.930551 228.524532 l
121.573297 227.917867 l
122.129821 226.648979 l
122.737294 226.636037 l
123.376121 224.339317 l
123.979675 222.856806 l
124.626339 221.620378 l
125.249489 220.131534 l
125.841286 219.83124 l
126.503627 219.022834 l
127.099343 218.996393 l
127.714654 217.672233 l
128.326047 217.027566 l
128.984469 214.388123 l
129.670326 213.521165 l
130.324829 212.046139 l
130.959737 211.28278 l
131.606402 209.196503 l
132.221713 208.395768 l
132.801752 205.625129 l
133.381791 204.767302 l
134.588899 202.16756 l
135.243402 200.577683 l
135.846956 198.659189 l
136.489702 197.613663 l
137.136367 194.788604 l
137.779113 192.971588 l
138.417939 192.259463 l
139.107715 189.794449 l
139.719107 189.195607 l
140.393207 187.602961 l
141.082983 189.633739 l
141.663022 190.498038 l
142.317525 189.623085 l
142.968109 188.992117 l
144.186974 190.014168 l
144.88067 188.234258 l
145.445032 190.094679 l
147.267451 187.619135 l
147.863167 188.706163 l
148.458882 185.281118 l
149.054598 186.435002 l
149.650313 188.538933 l
150.222514 188.66021 l
150.759442 189.950903 l
151.417864 189.266196 l
152.064529 189.335362 l
152.644568 191.223839 l
153.302991 191.532068 l
154.498341 187.846881 l
155.148925 188.804003 l
155.725045 191.631906 l
156.375629 195.392092 l
157.014455 196.039857 l
157.629767 191.556101 l
158.221563 190.24675 l
158.848632 190.628613 l
159.467863 191.807122 l
160.149801 190.000119 l
161.384343 190.761198 l
161.964382 193.442492 l
162.591451 194.683221 l
163.861266 198.638153 l
164.421709 201.780704 l
164.98999 202.12657 l
165.577867 205.400776 l
166.165744 203.882877 l
167.349337 199.759254 l
167.968568 202.888447 l
168.568203 206.78335 l
169.234463 203.912561 l
169.916401 205.563626 l
170.519955 202.794835 l
171.174458 205.649784 l
171.781931 207.078994 l
172.330617 204.684671 l
172.942009 206.777514 l
173.635704 207.390027 l
174.266693 204.624791 l
175.011337 205.017558 l
175.61881 203.064219 l
176.183172 202.147339 l
176.814161 204.728794 l
177.413795 208.481393 l
178.01343 208.242793 l
178.664014 203.930542 l
179.302841 203.42794 l
179.941667 205.120393 l
180.639282 208.779445 l
181.211482 208.095551 l
181.862066 206.8266 l
182.5636 206.128681 l
183.90396 212.234331 l
184.550625 213.109543 l
185.19729 214.642234 l
185.96153 213.199884 l
186.643468 215.728529 l
187.34892 215.96781 l
187.979909 217.292386 l
188.638331 217.089277 l
189.253643 217.266586 l
189.880712 216.894741 l
190.594003 218.597586 l
191.27594 222.519276 l
192.679007 226.351257 l
193.313915 227.652311 l
194.019367 227.20124 l
194.713062 230.010127 l
195.410677 227.450935 l
196.037746 226.005062 l
196.704007 226.5157 l
197.425136 230.070285 l
198.107074 231.103041 l
198.722385 230.497982 l
199.980442 237.171773 l
200.666299 238.778104 l
201.367833 238.363149 l
201.975306 238.253233 l
202.653324 235.906724 l
203.335262 235.166437 l
203.954492 232.812359 l
204.605077 232.172037 l
205.302691 237.165115 l
205.968952 237.58085 l
206.662647 233.491218 l
207.857997 229.484533 l
208.512501 231.325698 l
209.210115 230.361021 l
209.90381 230.810989 l
210.62102 230.010633 l
211.287281 229.613353 l
211.969219 230.91695 l
212.651156 229.167382 l
213.337013 232.688988 l
214.046385 228.25613 l
214.720484 228.245369 l
215.378907 232.473506 l
216.005976 229.212365 l
216.691832 228.198651 l
217.334578 232.879636 l
217.989081 231.130568 l
218.718049 230.248181 l
219.403906 232.126212 l
220.038813 229.134829 l
220.661963 230.452103 l
221.324305 229.348463 l
221.908263 231.36326 l
222.527494 229.984244 l
223.178078 226.859807 l
223.828662 229.207642 l
225.106315 223.910642 l
225.670677 224.500428 l
226.325181 221.904248 l
226.971846 223.184305 l
227.630268 219.82322 l
228.29261 218.203463 l
229.644727 216.344429 l
230.287473 212.940393 l
230.961572 210.780352 l
231.600399 211.030794 l
232.21571 207.740982 l
232.807507 208.662835 l
233.41498 204.802574 l
234.167463 207.844162 l
234.896431 208.349401 l
235.601883 209.640036 l
236.248548 209.657896 l
236.922647 208.313775 l
237.604585 203.494362 l
238.286523 205.024975 l
239.003733 206.95999 l
239.666074 203.424541 l
240.316659 203.364263 l
240.947647 204.005943 l
241.55512 201.969256 l
242.213542 202.89882 l
242.946429 202.716999 l
243.56566 201.699662 l
245.646745 195.137025 l
246.332602 197.354083 l
247.049812 200.320593 l
247.653366 198.405313 l
248.327466 194.910186 l
249.02508 195.99556 l
249.726613 192.665771 l
251.114004 194.285194 l
251.79986 192.144905 l
252.47396 190.642336 l
253.195089 195.030728 l
253.912299 197.963535 l
254.617752 197.727915 l
255.323205 193.85181 l
256.036496 193.89044 l
256.741948 195.674089 l
257.435643 198.375255 l
258.090147 199.849003 l
258.826953 197.075309 l
259.540244 196.546054 l
260.198666 199.796737 l
260.85317 201.773688 l
261.464562 202.405351 l
262.075954 203.800655 l
262.675589 206.354425 l
263.236032 206.27931 l
263.847424 207.952904 l
264.439221 208.049617 l
265.105482 207.790584 l
265.73647 208.434667 l
266.351781 209.390753 l
266.994527 209.718613 l
267.609839 211.253935 l
268.27218 212.025494 l
269.577268 214.399395 l
270.204337 215.307422 l
270.85884 216.007403 l
271.470232 215.39634 l
272.132574 216.100244 l
272.814512 217.304056 l
273.461177 218.691575 l
274.135276 219.622781 l
274.813294 221.282608 l
275.420767 222.06989 l
276.071352 224.725166 l
276.74937 226.21221 l
277.352924 226.625732 l
278.736395 229.954924 l
280.096351 234.727224 l
281.554286 237.065585 l
282.334204 240.48404 l
283.031818 240.307743 l
283.658887 240.355709 l
284.282037 241.025786 l
284.854237 244.830087 l
285.391165 244.367223 l
285.979042 246.263777 l
286.586516 244.789727 l
287.201827 244.581851 l
287.852411 242.612633 l
288.43245 242.119781 l
289.039923 242.03483 l
289.710103 240.921372 l
290.305819 240.201823 l
290.983837 240.918432 l
291.614825 240.152385 l
292.951266 236.40851 l
293.586174 240.057835 l
294.189728 237.756328 l
294.805039 239.315868 l
295.447785 234.222156 l
296.074854 235.312614 l
296.745034 232.697522 l
297.317235 232.941677 l
297.967819 232.881046 l
298.563534 230.090402 l
299.120058 228.789443 l
299.739289 227.043667 l
300.299732 228.337534 l
300.985588 226.33558 l
301.659688 225.376588 l
302.286757 227.048011 l
302.882472 225.420947 l
303.556571 224.563179 l
304.175802 222.772792 l
304.826386 221.582001 l
305.441698 218.266816 l
306.033494 216.408302 l
306.648806 217.019103 l
307.256279 217.96242 l
307.87551 217.234192 l
308.490821 218.158051 l
309.697929 214.815122 l
310.391624 215.724266 l
311.085319 213.520695 l
311.731984 213.819424 l
312.308104 214.804092 l
312.990041 211.926375 l
313.577919 210.630166 l
314.185392 209.923738 l
314.800703 210.942475 l
315.380742 208.458565 l
315.976458 209.195205 l
316.650557 206.949877 l
317.273707 209.104075 l
317.885099 207.972667 l
318.539602 203.797695 l
319.143156 208.461431 l
319.79766 205.388654 l
320.401214 204.742409 l
321.04004 202.08617 l
321.620079 202.109775 l
322.227552 200.409228 l
322.784076 198.415846 l
323.356276 198.575909 l
323.924558 195.889034 l
324.512435 195.179033 l
325.084636 193.789887 l
325.660755 193.75734 l
328.521758 188.449528 l
329.082201 188.325564 l
329.638724 187.390184 l
330.222682 186.675663 l
330.779206 185.125487 l
331.947122 183.061539 l
332.546757 182.472124 l
333.118958 181.155617 l
333.671562 181.065502 l
334.263359 180.401839 l
334.839478 179.3489 l
335.478305 177.723054 l
336.093616 175.665093 l
336.712847 175.504552 l
337.908197 175.402332 l
338.460802 174.921419 l
338.99773 174.297125 l
339.491547 174.041691 l
340.020636 174.092676 l
341.078815 173.358166 l
341.639258 173.593765 l
343.285314 179.855676 l
343.845757 179.660514 l
364.719318 179.65626 l
364.719318 179.65626 l
stroke
grestore
0.502 0.000 0.502 setrgbcolor
gsave
334.8 96.417 45.138 154.229 clipbox
60.355682 160.399407 m
61.025862 160.174215 l
61.535355 159.767348 l
62.017415 160.140594 l
62.554343 159.55361 l
63.052079 159.872056 l
63.592926 159.137153 l
64.106339 159.551084 l
64.651105 158.988617 l
65.207629 158.766823 l
65.795506 158.734197 l
66.355949 158.949992 l
66.900715 158.616945 l
67.480754 159.189813 l
68.029439 159.228029 l
68.597721 159.047361 l
69.115053 159.290505 l
70.149716 159.337869 l
71.752662 158.925143 l
73.049911 159.480696 l
73.618192 159.751716 l
74.260938 159.708761 l
74.852734 159.924919 l
75.483722 159.834436 l
76.087276 160.317516 l
76.702588 159.958605 l
77.325738 159.398421 l
77.976322 159.29364 l
79.242218 159.902581 l
79.857529 160.149994 l
80.519871 160.263535 l
81.064637 160.523224 l
81.632918 160.606127 l
84.501759 158.723637 l
85.07004 158.857103 l
85.653998 159.146995 l
86.896379 159.42005 l
87.492095 159.685826 l
88.687445 160.993548 l
89.275322 161.028129 l
89.886715 160.950404 l
90.451077 160.450489 l
91.042873 160.238292 l
93.006383 160.083888 l
94.162542 160.781743 l
94.773934 161.516199 l
95.436276 161.447576 l
96.098617 161.774195 l
96.749201 161.357029 l
97.356674 161.471771 l
97.983744 162.010702 l
98.630408 161.858763 l
99.328023 161.325123 l
101.142604 160.699132 l
101.730481 160.271135 l
102.279166 160.59328 l
102.831771 160.612215 l
103.462759 160.179151 l
104.015364 160.356761 l
105.242068 159.986778 l
105.90049 160.262392 l
107.072325 160.370159 l
107.715071 160.670641 l
108.306868 160.430929 l
109.49438 160.443759 l
110.027388 160.230522 l
110.654457 160.528575 l
111.230577 160.014724 l
111.83805 160.678729 l
113.613439 161.54337 l
114.209155 161.621051 l
114.769598 161.839558 l
115.404505 162.561145 l
116.635128 162.902839 l
117.195571 162.245874 l
117.791287 162.543187 l
118.434033 161.834576 l
119.014072 161.693909 l
119.641141 161.419806 l
120.26429 161.666955 l
120.930551 162.297888 l
121.573297 161.64651 l
122.129821 161.247739 l
123.376121 161.193687 l
124.626339 162.073114 l
125.249489 161.73938 l
125.841286 161.833201 l
127.099343 161.424764 l
128.326047 161.814825 l
128.984469 161.995906 l
129.670326 161.310364 l
130.959737 162.064674 l
131.606402 161.847237 l
132.221713 161.936309 l
132.801752 161.306364 l
133.381791 161.319286 l
134.00886 161.828248 l
134.588899 161.590544 l
135.243402 161.577178 l
137.779113 162.082544 l
138.417939 161.620517 l
139.107715 161.278744 l
140.393207 161.178211 l
141.082983 161.063056 l
142.317525 161.736297 l
143.548148 161.41198 l
144.186974 161.859921 l
144.88067 161.550228 l
146.115212 161.738479 l
146.695251 161.666371 l
147.863167 160.505994 l
148.458882 160.01956 l
149.054598 159.923475 l
150.222514 159.595646 l
150.759442 158.938716 l
152.064529 158.653858 l
152.644568 158.995275 l
153.302991 159.222649 l
154.498341 159.953743 l
155.725045 160.033969 l
156.375629 159.745938 l
157.014455 159.65697 l
157.629767 160.14565 l
158.221563 160.319863 l
158.848632 159.592585 l
160.149801 159.503712 l
161.384343 160.130824 l
161.964382 159.982949 l
162.591451 159.996746 l
163.861266 159.588391 l
164.421709 159.454267 l
164.98999 159.662524 l
165.577867 159.689626 l
166.165744 159.597015 l
167.349337 159.785443 l
167.968568 159.766354 l
168.568203 159.576083 l
169.234463 159.590549 l
170.519955 159.986429 l
171.781931 159.716824 l
172.330617 159.311834 l
172.942009 159.09928 l
173.635704 159.043894 l
174.266693 158.793338 l
175.011337 158.769854 l
175.61881 159.044607 l
176.183172 159.11802 l
176.814161 158.669114 l
177.413795 159.175568 l
179.302841 160.102206 l
179.941667 159.657315 l
180.639282 159.535006 l
181.211482 159.674452 l
181.862066 159.981346 l
182.5636 160.089442 l
183.198507 160.068578 l
183.90396 159.902243 l
184.550625 160.6108 l
185.19729 160.788619 l
186.643468 160.460173 l
187.34892 160.814596 l
187.979909 160.181988 l
188.638331 160.32371 l
189.253643 159.986929 l
189.880712 159.956962 l
190.594003 159.807722 l
191.27594 160.007685 l
191.977474 160.458618 l
192.679007 160.302308 l
193.313915 160.929995 l
194.019367 160.609738 l
194.713062 161.051124 l
195.410677 160.958935 l
196.037746 161.273304 l
196.704007 161.195334 l
197.425136 160.46184 l
198.107074 160.097763 l
198.722385 159.951799 l
199.980442 160.210069 l
200.666299 160.573372 l
201.367833 160.173858 l
201.975306 160.532878 l
203.335262 160.084313 l
203.954492 159.334064 l
204.605077 159.620656 l
205.968952 161.028525 l
206.662647 160.74998 l
207.857997 161.752326 l
208.512501 162.638345 l
210.62102 163.775569 l
211.287281 163.291706 l
211.969219 163.554025 l
212.651156 162.967265 l
213.337013 162.553101 l
214.046385 162.579092 l
214.720484 162.800226 l
215.378907 162.279364 l
216.005976 161.594944 l
216.691832 161.61595 l
217.989081 161.283153 l
218.718049 160.750461 l
219.403906 160.574099 l
220.038813 160.216873 l
221.324305 160.122822 l
221.908263 160.501738 l
222.527494 160.324615 l
223.828662 160.2226 l
224.471408 160.434045 l
225.106315 161.304381 l
225.670677 161.052772 l
226.325181 161.205683 l
226.971846 161.045825 l
227.630268 161.081342 l
228.29261 161.512195 l
228.966709 161.593011 l
229.644727 161.313047 l
230.287473 160.815148 l
230.961572 161.229587 l
231.600399 161.166757 l
232.807507 160.831589 l
233.41498 160.872263 l
234.167463 160.620706 l
235.601883 160.567634 l
236.248548 160.179889 l
236.922647 160.014921 l
237.604585 160.100525 l
238.286523 160.613604 l
239.003733 160.310132 l
239.666074 161.081736 l
240.316659 160.7262 l
240.947647 160.822809 l
241.55512 160.349667 l
242.213542 160.361726 l
242.946429 160.703913 l
243.56566 160.799488 l
244.278951 161.200672 l
244.968727 160.973298 l
245.646745 161.05224 l
248.327466 161.878188 l
249.02508 161.335122 l
250.416389 160.764681 l
251.114004 160.774288 l
251.79986 160.901775 l
253.195089 160.28493 l
255.323205 159.57931 l
256.741948 159.251184 l
257.435643 159.255197 l
258.090147 158.955979 l
258.826953 159.109993 l
259.540244 158.987762 l
260.198666 159.069544 l
260.85317 159.511198 l
261.464562 158.980836 l
262.075954 159.123853 l
262.675589 158.996801 l
263.236032 159.597506 l
264.439221 158.877822 l
265.105482 159.840114 l
265.73647 159.481086 l
266.351781 159.873244 l
266.994527 159.879572 l
267.609839 159.700719 l
268.27218 159.924397 l
268.899249 159.566215 l
269.577268 159.800243 l
270.85884 160.827708 l
271.470232 160.649199 l
272.814512 160.882218 l
273.461177 160.686102 l
274.135276 159.947515 l
276.071352 160.217964 l
276.74937 159.933533 l
277.352924 160.192097 l
277.99567 159.675931 l
279.410494 159.821244 l
280.096351 160.158196 l
280.891945 159.926749 l
281.554286 159.854454 l
283.031818 160.555209 l
283.658887 160.489289 l
284.282037 160.586338 l
284.854237 160.233076 l
285.979042 161.057804 l
286.586516 161.479244 l
287.852411 161.909237 l
289.039923 162.001616 l
289.710103 162.234865 l
290.305819 162.615305 l
290.983837 162.561345 l
291.614825 162.694169 l
292.308521 162.448118 l
292.951266 162.89836 l
293.586174 162.071041 l
294.189728 162.271669 l
295.447785 161.588748 l
296.074854 161.885922 l
296.745034 161.368507 l
297.317235 161.590753 l
297.967819 161.70365 l
298.563534 162.118899 l
299.120058 161.622501 l
300.299732 161.037562 l
300.985588 161.576582 l
301.659688 161.035278 l
302.286757 160.811057 l
302.882472 161.469925 l
303.556571 161.502644 l
304.175802 160.787126 l
304.826386 160.761922 l
305.441698 160.880426 l
306.033494 161.142548 l
306.648806 160.964897 l
307.256279 161.515493 l
307.87551 161.668442 l
308.490821 161.181616 l
309.697929 162.151656 l
310.391624 161.436239 l
311.085319 161.782014 l
311.731984 161.944429 l
312.308104 161.495053 l
313.577919 161.563988 l
314.185392 160.922588 l
314.800703 161.437141 l
315.380742 161.324217 l
315.976458 161.379977 l
317.273707 160.824115 l
317.885099 160.882307 l
318.539602 160.668023 l
319.143156 161.446687 l
319.79766 161.643629 l
320.401214 161.457878 l
321.620079 162.108965 l
322.227552 161.872313 l
323.356276 162.383021 l
323.924558 161.596811 l
324.512435 161.654773 l
325.084636 161.585468 l
326.236875 160.996107 l
326.793399 161.26263 l
328.521758 161.272408 l
329.082201 161.03905 l
329.638724 161.504586 l
330.222682 161.81649 l
330.779206 160.869468 l
331.374922 160.601976 l
331.947122 160.859112 l
332.546757 160.570981 l
333.118958 160.906578 l
333.671562 160.340312 l
334.263359 160.514382 l
334.839478 159.938191 l
336.093616 159.111544 l
336.712847 159.170767 l
337.308563 158.998755 l
337.908197 159.204275 l
340.522292 159.011466 l
341.078815 158.89471 l
341.639258 159.187158 l
342.187944 159.301775 l
343.285314 158.754071 l
344.986239 158.656321 l
346.118883 158.985089 l
346.702841 159.243774 l
347.80805 158.876742 l
349.53249 158.611603 l
350.089014 158.939309 l
350.688648 158.983381 l
351.268687 158.746403 l
353.063672 159.019554 l
354.180639 159.089973 l
354.772435 159.091669 l
355.360313 159.228469 l
356.512552 159.239352 l
357.088672 158.906381 l
357.67263 158.786072 l
358.86798 158.897682 l
360.043735 159.389238 l
360.63945 159.516807 l
361.854396 159.429552 l
363.085019 159.476097 l
364.194148 159.524641 l
364.719318 159.451295 l
364.719318 159.451295 l
stroke
grestore
gsave
45.1375 154.228995 m
45.1375 250.646386 l
grestore
gsave
379.9375 154.228995 m
379.9375 250.646386 l
grestore
gsave
45.1375 154.228995 m
379.9375 154.228995 l
grestore
gsave
45.1375 250.646386 m
379.9375 250.646386 l
grestore
0.300 setlinewidth
0 setlinejoin
0 setlinecap
0.800 setgray
gsave
52.1375 199.662011 m
144.5125 199.662011 l
145.845833 199.662011 146.5125 200.328678 146.5125 201.662011 c
146.5125 243.646386 l
146.5125 244.979719 145.845833 245.646386 144.5125 245.646386 c
52.1375 245.646386 l
50.804167 245.646386 50.1375 244.979719 50.1375 243.646386 c
50.1375 201.662011 l
50.1375 200.328678 50.804167 199.662011 52.1375 199.662011 c
cl
gsave
1.000 setgray
fill
grestore
stroke
grestore
0.150 setgray
/LiberationSans 10.000 selectfont
gsave

54.137500 234.396386 translate
0.000000 rotate
0.000000 0 m /D glyphshow
7.221680 0 m /r glyphshow
10.551758 0 m /o glyphshow
16.113281 0 m /n glyphshow
21.674805 0 m /e glyphshow
27.236328 0 m /space glyphshow
30.014648 0 m /p glyphshow
35.576172 0 m /o glyphshow
41.137695 0 m /s glyphshow
46.137695 0 m /i glyphshow
48.359375 0 m /t glyphshow
51.137695 0 m /i glyphshow
53.359375 0 m /o glyphshow
58.920898 0 m /n glyphshow
64.482422 0 m /space glyphshow
67.260742 0 m /e glyphshow
72.822266 0 m /r glyphshow
76.152344 0 m /r glyphshow
79.482422 0 m /o glyphshow
85.043945 0 m /r glyphshow
grestore
1.750 setlinewidth
1 setlinejoin
1 setlinecap
1.000 0.000 0.000 setrgbcolor
gsave
65.707813 223.568261 m
85.707813 223.568261 l
stroke
grestore
0.150 setgray
gsave

93.707813 220.068261 translate
0.000000 rotate
0.000000 0 m /S glyphshow
6.669922 0 m /L glyphshow
12.231445 0 m /O glyphshow
20.009766 0 m /A glyphshow
26.679688 0 m /M glyphshow
grestore
0.502 0.000 0.502 setrgbcolor
gsave
65.707813 209.240136 m
85.707813 209.240136 l
stroke
grestore
0.150 setgray
gsave

93.707813 205.740136 translate
0.000000 rotate
0.000000 0 m /P glyphshow
6.669922 0 m /i glyphshow
8.891602 0 m /x glyphshow
13.891602 0 m /h glyphshow
19.453125 0 m /a glyphshow
25.014648 0 m /w glyphshow
32.236328 0 m /k glyphshow
grestore
gsave
45.1375 38.528125 m
379.9375 38.528125 l
379.9375 134.945516 l
45.1375 134.945516 l
cl
0.918 0.918 0.949 setrgbcolor
fill
grestore
1.000 setlinewidth
1.000 setgray
gsave
334.8 96.417 45.138 38.528 clipbox
60.355682 38.528125 m
60.355682 134.945516 l
stroke
grestore
0.150 setgray
gsave

57.574432 24.278125 translate
0.000000 rotate
0.000000 0 m /zero glyphshow
grestore
1.000 setgray
gsave
334.8 96.417 45.138 38.528 clipbox
109.345451 38.528125 m
109.345451 134.945516 l
stroke
grestore
0.150 setgray
gsave

103.782951 24.278125 translate
0.000000 rotate
0.000000 0 m /five glyphshow
5.561523 0 m /zero glyphshow
grestore
1.000 setgray
gsave
334.8 96.417 45.138 38.528 clipbox
158.33522 38.528125 m
158.33522 134.945516 l
stroke
grestore
0.150 setgray
gsave

149.991470 24.278125 translate
0.000000 rotate
0.000000 0 m /one glyphshow
5.561523 0 m /zero glyphshow
11.123047 0 m /zero glyphshow
grestore
1.000 setgray
gsave
334.8 96.417 45.138 38.528 clipbox
207.324989 38.528125 m
207.324989 134.945516 l
stroke
grestore
0.150 setgray
gsave

198.981239 24.278125 translate
0.000000 rotate
0.000000 0 m /one glyphshow
5.561523 0 m /five glyphshow
11.123047 0 m /zero glyphshow
grestore
1.000 setgray
gsave
334.8 96.417 45.138 38.528 clipbox
256.314758 38.528125 m
256.314758 134.945516 l
stroke
grestore
0.150 setgray
gsave

247.971008 24.278125 translate
0.000000 rotate
0.000000 0 m /two glyphshow
5.561523 0 m /zero glyphshow
11.123047 0 m /zero glyphshow
grestore
1.000 setgray
gsave
334.8 96.417 45.138 38.528 clipbox
305.304526 38.528125 m
305.304526 134.945516 l
stroke
grestore
0.150 setgray
gsave

296.960776 24.278125 translate
0.000000 rotate
0.000000 0 m /two glyphshow
5.561523 0 m /five glyphshow
11.123047 0 m /zero glyphshow
grestore
1.000 setgray
gsave
334.8 96.417 45.138 38.528 clipbox
354.294295 38.528125 m
354.294295 134.945516 l
stroke
grestore
0.150 setgray
gsave

345.950545 24.278125 translate
0.000000 rotate
0.000000 0 m /three glyphshow
5.561523 0 m /zero glyphshow
11.123047 0 m /zero glyphshow
grestore
gsave
203.037500 10.200000 translate
0.000000 rotate
/DejaVuSans-Oblique 11.0 selectfont
0.000000 0.031250 moveto
/t glyphshow
/LiberationSans 11.0 selectfont
4.312988 0.031250 moveto
/space glyphshow
7.369141 0.031250 moveto
/bracketleft glyphshow
10.425293 0.031250 moveto
/s glyphshow
15.925293 0.031250 moveto
/bracketright glyphshow
grestore
1.000 setgray
gsave
334.8 96.417 45.138 38.528 clipbox
45.1375 41.640412 m
379.9375 41.640412 l
stroke
grestore
0.150 setgray
gsave

32.575000 38.015412 translate
0.000000 rotate
0.000000 0 m /zero glyphshow
grestore
1.000 setgray
gsave
334.8 96.417 45.138 38.528 clipbox
45.1375 67.04684 m
379.9375 67.04684 l
stroke
grestore
0.150 setgray
gsave

27.012500 63.421840 translate
0.000000 rotate
0.000000 0 m /two glyphshow
5.561523 0 m /zero glyphshow
grestore
1.000 setgray
gsave
334.8 96.417 45.138 38.528 clipbox
45.1375 92.453267 m
379.9375 92.453267 l
stroke
grestore
0.150 setgray
gsave

27.012500 88.828267 translate
0.000000 rotate
0.000000 0 m /four glyphshow
5.561523 0 m /zero glyphshow
grestore
1.000 setgray
gsave
334.8 96.417 45.138 38.528 clipbox
45.1375 117.859694 m
379.9375 117.859694 l
stroke
grestore
0.150 setgray
gsave

27.012500 114.234694 translate
0.000000 rotate
0.000000 0 m /six glyphshow
5.561523 0 m /zero glyphshow
grestore
/LiberationSans 11.000 selectfont
gsave

20.731250 64.393071 translate
90.000000 rotate
0.000000 0 m /C glyphshow
7.943848 0 m /o glyphshow
14.061523 0 m /u glyphshow
20.179199 0 m /n glyphshow
26.296875 0 m /t glyphshow
29.353027 0 m /space glyphshow
32.409180 0 m /bracketleft glyphshow
35.465332 0 m /numbersign glyphshow
41.583008 0 m /bracketright glyphshow
grestore
1.750 setlinewidth
0.000 setgray
gsave
334.8 96.417 45.138 38.528 clipbox
60.355682 42.910734 m
61.535355 42.910734 l
62.017415 44.181055 l
64.106339 44.181055 l
64.651105 45.451376 l
65.795506 45.451376 l
66.900715 47.992019 l
67.480754 47.992019 l
68.597721 50.532662 l
71.752662 50.532662 l
72.426761 51.802983 l
73.618192 51.802983 l
74.852734 54.343626 l
76.087276 54.343626 l
77.325738 56.884269 l
79.242218 56.884269 l
80.519871 59.424911 l
82.236472 59.424911 l
82.792996 60.695233 l
83.400469 60.695233 l
83.953074 61.965554 l
85.653998 61.965554 l
86.896379 64.506197 l
88.687445 64.506197 l
89.275322 65.776518 l
94.162542 65.776518 l
94.773934 67.04684 l
97.983744 67.04684 l
98.630408 68.317161 l
99.931577 68.317161 l
101.142604 70.857804 l
103.462759 70.857804 l
104.015364 72.128125 l
104.638514 72.128125 l
105.90049 74.668768 l
106.519721 74.668768 l
107.072325 75.939089 l
107.715071 75.939089 l
108.306868 77.20941 l
110.654457 77.20941 l
111.230577 78.479732 l
113.613439 78.479732 l
114.209155 81.020375 l
128.326047 81.020375 l
128.984469 82.290696 l
131.606402 82.290696 l
132.221713 83.561017 l
133.381791 83.561017 l
134.00886 84.831339 l
135.846956 84.831339 l
136.489702 86.10166 l
149.650313 86.10166 l
150.222514 87.371981 l
157.014455 87.371981 l
157.629767 88.642303 l
171.781931 88.642303 l
172.942009 91.182945 l
173.635704 92.453267 l
176.814161 92.453267 l
177.413795 93.723588 l
187.34892 93.723588 l
187.979909 94.993909 l
190.594003 94.993909 l
191.27594 97.534552 l
193.313915 97.534552 l
194.019367 98.804874 l
203.335262 98.804874 l
203.954492 100.075195 l
218.718049 100.075195 l
219.403906 102.615838 l
220.038813 103.886159 l
225.670677 103.886159 l
226.325181 105.15648 l
226.971846 105.15648 l
227.630268 106.426802 l
235.601883 106.426802 l
236.248548 107.697123 l
236.922647 107.697123 l
237.604585 108.967444 l
239.003733 108.967444 l
240.316659 111.508087 l
243.56566 111.508087 l
244.968727 114.04873 l
277.99567 114.04873 l
278.736395 115.319051 l
280.096351 115.319051 l
280.891945 116.589373 l
283.031818 116.589373 l
283.658887 117.859694 l
284.854237 117.859694 l
285.391165 119.130015 l
293.586174 119.130015 l
294.189728 120.400337 l
298.563534 120.400337 l
299.120058 121.670658 l
300.985588 121.670658 l
301.659688 122.940979 l
311.085319 122.940979 l
311.731984 124.211301 l
312.990041 124.211301 l
313.577919 125.481622 l
314.800703 125.481622 l
315.380742 126.751944 l
364.719318 126.751944 l
364.719318 126.751944 l
stroke
grestore
0 setlinecap
[6.475 2.8] 0 setdash
0.502 setgray
gsave
334.8 96.417 45.138 38.528 clipbox
60.355682 130.562908 m
364.719318 130.562908 l
364.719318 130.562908 l
stroke
grestore
gsave
45.1375 38.528125 m
45.1375 134.945516 l
grestore
gsave
379.9375 38.528125 m
379.9375 134.945516 l
grestore
gsave
45.1375 38.528125 m
379.9375 38.528125 l
grestore
gsave
45.1375 134.945516 m
379.9375 134.945516 l
grestore
0.300 setlinewidth
0 setlinejoin
[] 0 setdash
0.800 setgray
gsave
52.1375 83.961141 m
151.73125 83.961141 l
153.064583 83.961141 153.73125 84.627808 153.73125 85.961141 c
153.73125 127.945516 l
153.73125 129.27885 153.064583 129.945516 151.73125 129.945516 c
52.1375 129.945516 l
50.804167 129.945516 50.1375 129.27885 50.1375 127.945516 c
50.1375 85.961141 l
50.1375 84.627808 50.804167 83.961141 52.1375 83.961141 c
cl
gsave
1.000 setgray
fill
grestore
stroke
grestore
0.150 setgray
/LiberationSans 10.000 selectfont
gsave

54.137500 118.695516 translate
0.000000 rotate
0.000000 0 m /N glyphshow
7.221680 0 m /u glyphshow
12.783203 0 m /m glyphshow
21.113281 0 m /b glyphshow
26.674805 0 m /e glyphshow
32.236328 0 m /r glyphshow
35.566406 0 m /space glyphshow
38.344727 0 m /o glyphshow
43.906250 0 m /f glyphshow
46.684570 0 m /space glyphshow
49.462891 0 m /l glyphshow
51.684570 0 m /a glyphshow
57.246094 0 m /n glyphshow
62.807617 0 m /d glyphshow
68.369141 0 m /m glyphshow
76.699219 0 m /a glyphshow
82.260742 0 m /r glyphshow
85.590820 0 m /k glyphshow
90.590820 0 m /s glyphshow
grestore
1.750 setlinewidth
1 setlinejoin
1 setlinecap
0.000 setgray
gsave
59.85625 107.867391 m
79.85625 107.867391 l
stroke
grestore
0.150 setgray
gsave

87.856250 104.367391 translate
0.000000 rotate
0.000000 0 m /S glyphshow
6.669922 0 m /L glyphshow
12.231445 0 m /O glyphshow
20.009766 0 m /A glyphshow
26.679688 0 m /M glyphshow
grestore
0 setlinecap
[6.475 2.8] 0 setdash
0.502 setgray
gsave
59.85625 93.539266 m
79.85625 93.539266 l
stroke
grestore
0.150 setgray
gsave

87.856250 90.039266 translate
0.000000 rotate
0.000000 0 m /G glyphshow
7.778320 0 m /r glyphshow
11.108398 0 m /o glyphshow
16.669922 0 m /u glyphshow
22.231445 0 m /n glyphshow
27.792969 0 m /d glyphshow
33.354492 0 m /space glyphshow
36.132812 0 m /t glyphshow
38.911133 0 m /r glyphshow
42.241211 0 m /u glyphshow
47.802734 0 m /t glyphshow
50.581055 0 m /h glyphshow
grestore

end
showpage
