%!PS-Adobe-3.0 EPSF-3.0
%%Title: sloam_acc.eps
%%Creator: Matplotlib v3.4.3, https://matplotlib.org/
%%CreationDate: Thu May 26 21:25:23 2022
%%Orientation: portrait
%%BoundingBox: 113 151 499 641
%%HiResBoundingBox: 113.821875 151.375938 498.178125 640.624062
%%EndComments
%%BeginProlog
/mpldict 12 dict def
mpldict begin
/_d { bind def } bind def
/m { moveto } _d
/l { lineto } _d
/r { rlineto } _d
/c { curveto } _d
/cl { closepath } _d
/ce { closepath eofill } _d
/box {
      m
      1 index 0 r
      0 exch r
      neg 0 r
      cl
    } _d
/clipbox {
      box
      clip
      newpath
    } _d
/sc { setcachedevice } _d
%!PS-Adobe-3.0 Resource-Font
%%Creator: Converted from TrueType to Type 3 by Matplotlib.
10 dict begin
/FontName /LiberationSans def
/PaintType 0 def
/FontMatrix [0.00048828125 0 0 0.00048828125 0 0] def
/FontBBox [-1114 -621 2666 2007] def
/FontType 3 def
/Encoding [/space /numbersign /period /zero /one /two /three /four /five /six /A /B /C /D /E /G /H /L /M /N /O /P /S /bracketleft /bracketright /a /b /c /d /e /f /h /i /k /l /m /n /o /p /r /s /t /u /w /x] def
/CharStrings 46 dict dup begin
/.notdef 0 def
/space{569 0 0 0 0 0 sc
ce} _d
/numbersign{1139 0 9 0 1129 1401 sc
896 885 m
818 516 l
1078 516 l
1078 408 l
795 408 l
707 0 l
597 0 l
683 408 l
320 408 l
236 0 l
126 0 l
210 408 l
9 408 l
9 516 l
234 516 l
312 885 l
60 885 l
60 993 l
334 993 l
423 1401 l
533 1401 l
445 993 l
808 993 l
896 1401 l
1006 1401 l
918 993 l
1129 993 l
1129 885 l
896 885 l

425 885 m
345 516 l
707 516 l
785 885 l
425 885 l

ce} _d
/period{569 0 187 0 382 219 sc
187 0 m
187 219 l
382 219 l
382 0 l
187 0 l

ce} _d
/zero{1139 0 80 -20 1059 1430 sc
1059 705 m
1059 470 1017 290 934 166 c
851 42 729 -20 567 -20 c
405 -20 283 42 202 165 c
121 288 80 468 80 705 c
80 947 119 1128 198 1249 c
277 1370 402 1430 573 1430 c
739 1430 861 1369 940 1247 c
1019 1125 1059 944 1059 705 c

876 705 m
876 908 852 1056 805 1147 c
758 1238 681 1284 573 1284 c
462 1284 383 1239 334 1149 c
286 1059 262 911 262 705 c
262 505 286 359 335 266 c
384 173 462 127 569 127 c
675 127 753 174 802 269 c
851 364 876 509 876 705 c

ce} _d
/one{1139 0 156 0 1039 1409 sc
156 0 m
156 153 l
515 153 l
515 1237 l
197 1010 l
197 1180 l
530 1409 l
696 1409 l
696 153 l
1039 153 l
1039 0 l
156 0 l

ce} _d
/two{1139 0 103 0 1036 1430 sc
103 0 m
103 127 l
137 205 178 274 227 333 c
276 393 328 447 382 495 c
436 544 489 589 542 630 c
595 671 643 713 686 754 c
729 795 763 839 789 884 c
816 929 829 981 829 1038 c
829 1115 806 1175 761 1218 c
716 1261 653 1282 572 1282 c
495 1282 432 1261 382 1219 c
333 1178 304 1119 295 1044 c
111 1061 l
124 1174 172 1263 254 1330 c
337 1397 443 1430 572 1430 c
714 1430 823 1396 899 1329 c
976 1262 1014 1167 1014 1044 c
1014 989 1001 935 976 881 c
951 827 914 773 865 719 c
816 665 721 581 582 468 c
505 405 444 349 399 298 c
354 248 321 200 301 153 c
1036 153 l
1036 0 l
103 0 l

ce} _d
/three{1139 0 78 -20 1049 1430 sc
1049 389 m
1049 259 1008 158 925 87 c
842 16 724 -20 571 -20 c
428 -20 314 12 229 76 c
144 141 94 236 78 362 c
264 379 l
288 212 390 129 571 129 c
662 129 733 151 784 196 c
836 241 862 307 862 395 c
862 472 832 531 773 574 c
714 617 629 639 518 639 c
416 639 l
416 795 l
514 795 l
613 795 689 816 743 859 c
798 902 825 962 825 1038 c
825 1113 803 1173 758 1216 c
714 1260 648 1282 561 1282 c
482 1282 417 1262 368 1221 c
319 1180 291 1123 283 1049 c
102 1063 l
115 1178 163 1268 245 1333 c
328 1398 434 1430 563 1430 c
704 1430 814 1397 892 1331 c
971 1266 1010 1174 1010 1057 c
1010 967 985 894 934 837 c
884 781 811 743 715 723 c
715 719 l
820 708 902 672 961 613 c
1020 554 1049 479 1049 389 c

ce} _d
/four{1139 0 47 0 1079 1409 sc
881 319 m
881 0 l
711 0 l
711 319 l
47 319 l
47 459 l
692 1409 l
881 1409 l
881 461 l
1079 461 l
1079 319 l
881 319 l

711 1206 m
710 1202 700 1184 683 1153 c
666 1122 653 1100 644 1087 c
283 555 l
229 481 l
213 461 l
711 461 l
711 1206 l

ce} _d
/five{1139 0 82 -20 1053 1409 sc
1053 459 m
1053 310 1009 193 920 108 c
832 23 710 -20 553 -20 c
422 -20 316 9 235 66 c
154 123 103 206 82 315 c
264 336 l
302 197 400 127 557 127 c
654 127 729 156 784 214 c
839 273 866 353 866 455 c
866 544 838 615 783 670 c
728 725 654 752 561 752 c
512 752 467 744 425 729 c
383 714 341 688 299 651 c
123 651 l
170 1409 l
971 1409 l
971 1256 l
334 1256 l
307 809 l
385 869 482 899 598 899 c
737 899 847 858 929 777 c
1012 696 1053 590 1053 459 c

ce} _d
/six{1139 0 104 -20 1049 1430 sc
1049 461 m
1049 312 1009 195 928 109 c
847 23 736 -20 594 -20 c
435 -20 314 39 230 157 c
146 275 104 447 104 672 c
104 916 148 1103 235 1234 c
322 1365 447 1430 608 1430 c
821 1430 955 1334 1010 1143 c
838 1112 l
803 1227 725 1284 606 1284 c
503 1284 424 1236 367 1140 c
311 1045 283 906 283 725 c
316 786 362 832 421 863 c
480 895 548 911 625 911 c
755 911 858 870 934 789 c
1011 708 1049 598 1049 461 c

866 453 m
866 555 841 634 791 689 c
741 744 671 772 582 772 c
498 772 430 747 378 698 c
327 649 301 582 301 496 c
301 387 328 298 381 229 c
435 160 504 125 588 125 c
675 125 743 154 792 212 c
841 271 866 351 866 453 c

ce} _d
/A{1366 0 4 0 1362 1409 sc
1167 0 m
1006 412 l
364 412 l
202 0 l
4 0 l
579 1409 l
796 1409 l
1362 0 l
1167 0 l

685 1265 m
676 1237 l
659 1182 635 1111 602 1024 c
422 561 l
949 561 l
768 1026 l
749 1072 731 1124 712 1182 c
685 1265 l

ce} _d
/B{1366 0 168 0 1258 1409 sc
1258 397 m
1258 272 1212 174 1121 104 c
1030 35 903 0 740 0 c
168 0 l
168 1409 l
680 1409 l
1011 1409 1176 1295 1176 1067 c
1176 984 1153 914 1106 857 c
1059 800 993 762 908 743 c
1020 730 1106 692 1167 630 c
1228 569 1258 491 1258 397 c

984 1044 m
984 1120 958 1174 906 1207 c
854 1240 779 1256 680 1256 c
359 1256 l
359 810 l
680 810 l
782 810 858 829 908 867 c
959 906 984 965 984 1044 c

1065 412 m
1065 578 948 661 715 661 c
359 661 l
359 153 l
730 153 l
847 153 932 175 985 218 c
1038 261 1065 326 1065 412 c

ce} _d
/C{1479 0 104 -20 1401 1430 sc
792 1274 m
636 1274 515 1224 428 1123 c
341 1023 298 886 298 711 c
298 538 343 399 433 294 c
524 189 646 137 800 137 c
997 137 1146 235 1245 430 c
1401 352 l
1343 231 1261 138 1156 75 c
1051 12 930 -20 791 -20 c
649 -20 526 9 422 68 c
319 127 240 212 185 321 c
131 431 104 561 104 711 c
104 936 165 1112 286 1239 c
407 1366 575 1430 790 1430 c
940 1430 1065 1401 1166 1342 c
1267 1283 1341 1196 1388 1081 c
1207 1021 l
1174 1103 1122 1166 1049 1209 c
977 1252 891 1274 792 1274 c

ce} _d
/D{1479 0 168 0 1381 1409 sc
1381 719 m
1381 574 1353 446 1296 337 c
1239 228 1159 145 1055 87 c
951 29 831 0 695 0 c
168 0 l
168 1409 l
634 1409 l
873 1409 1057 1349 1186 1229 c
1316 1110 1381 940 1381 719 c

1189 719 m
1189 894 1141 1027 1045 1118 c
950 1210 811 1256 630 1256 c
359 1256 l
359 153 l
673 153 l
776 153 867 176 945 221 c
1024 266 1084 332 1126 417 c
1168 502 1189 603 1189 719 c

ce} _d
/E{1366 0 168 0 1278 1409 sc
168 0 m
168 1409 l
1237 1409 l
1237 1253 l
359 1253 l
359 801 l
1177 801 l
1177 647 l
359 647 l
359 156 l
1278 156 l
1278 0 l
168 0 l

ce} _d
/G{1593 0 103 -20 1440 1430 sc
103 711 m
103 940 164 1117 287 1242 c
410 1367 582 1430 804 1430 c
960 1430 1087 1404 1184 1351 c
1281 1298 1356 1214 1409 1098 c
1227 1044 l
1187 1124 1132 1182 1061 1219 c
991 1256 904 1274 799 1274 c
636 1274 512 1225 426 1126 c
340 1028 297 890 297 711 c
297 533 343 392 434 289 c
525 186 652 135 813 135 c
905 135 991 149 1070 177 c
1150 205 1215 243 1264 291 c
1264 545 l
843 545 l
843 705 l
1440 705 l
1440 219 l
1365 143 1274 84 1165 42 c
1057 1 940 -20 813 -20 c
666 -20 539 9 432 68 c
325 127 244 211 187 321 c
131 432 103 562 103 711 c

ce} _d
/H{1479 0 168 0 1312 1409 sc
1121 0 m
1121 653 l
359 653 l
359 0 l
168 0 l
168 1409 l
359 1409 l
359 813 l
1121 813 l
1121 1409 l
1312 1409 l
1312 0 l
1121 0 l

ce} _d
/L{1139 0 168 0 1071 1409 sc
168 0 m
168 1409 l
359 1409 l
359 156 l
1071 156 l
1071 0 l
168 0 l

ce} _d
/M{1706 0 168 0 1538 1409 sc
1366 0 m
1366 940 l
1366 1044 1369 1144 1375 1240 c
1342 1121 1313 1027 1287 960 c
923 0 l
789 0 l
420 960 l
364 1130 l
331 1240 l
334 1129 l
338 940 l
338 0 l
168 0 l
168 1409 l
419 1409 l
794 432 l
807 393 820 350 832 305 c
845 260 853 228 857 208 c
862 235 873 275 890 329 c
907 384 919 418 925 432 c
1293 1409 l
1538 1409 l
1538 0 l
1366 0 l

ce} _d
/N{1479 0 168 0 1312 1409 sc
1082 0 m
328 1200 l
333 1103 l
338 936 l
338 0 l
168 0 l
168 1409 l
390 1409 l
1152 201 l
1144 332 1140 426 1140 485 c
1140 1409 l
1312 1409 l
1312 0 l
1082 0 l

ce} _d
/O{1593 0 97 -20 1495 1430 sc
1495 711 m
1495 564 1467 435 1410 324 c
1354 213 1273 128 1168 69 c
1063 10 938 -20 795 -20 c
650 -20 525 9 420 68 c
315 127 235 211 180 322 c
125 433 97 563 97 711 c
97 936 159 1112 282 1239 c
405 1366 577 1430 797 1430 c
940 1430 1065 1401 1170 1344 c
1275 1287 1356 1205 1411 1096 c
1467 987 1495 859 1495 711 c

1300 711 m
1300 886 1256 1024 1168 1124 c
1081 1224 957 1274 797 1274 c
636 1274 511 1225 423 1126 c
335 1027 291 889 291 711 c
291 534 335 394 424 290 c
513 187 637 135 795 135 c
958 135 1082 185 1169 285 c
1256 386 1300 528 1300 711 c

ce} _d
/P{1366 0 168 0 1258 1409 sc
1258 985 m
1258 852 1214 746 1127 667 c
1040 588 922 549 773 549 c
359 549 l
359 0 l
168 0 l
168 1409 l
761 1409 l
919 1409 1041 1372 1128 1298 c
1215 1224 1258 1120 1258 985 c

1066 983 m
1066 1165 957 1256 738 1256 c
359 1256 l
359 700 l
746 700 l
959 700 1066 794 1066 983 c

ce} _d
/S{1366 0 93 -20 1272 1430 sc
1272 389 m
1272 259 1221 158 1119 87 c
1018 16 875 -20 690 -20 c
347 -20 148 99 93 338 c
278 375 l
299 290 345 228 414 188 c
483 149 578 129 697 129 c
820 129 915 150 982 192 c
1049 235 1083 297 1083 379 c
1083 425 1072 462 1051 491 c
1030 520 1001 543 963 562 c
925 581 880 596 827 609 c
774 622 716 635 652 650 c
541 675 456 699 398 724 c
341 749 295 776 262 806 c
229 837 203 872 185 913 c
168 954 159 1000 159 1053 c
159 1174 205 1267 297 1332 c
390 1397 522 1430 694 1430 c
854 1430 976 1405 1061 1356 c
1146 1307 1205 1224 1239 1106 c
1051 1073 l
1030 1148 991 1202 933 1235 c
875 1269 795 1286 692 1286 c
579 1286 493 1267 434 1230 c
375 1193 345 1137 345 1063 c
345 1020 356 984 379 955 c
402 927 436 903 479 883 c
522 864 609 840 738 811 c
781 801 824 791 867 780 c
910 770 952 758 991 743 c
1030 729 1067 712 1101 693 c
1136 674 1166 650 1191 622 c
1216 594 1236 561 1250 523 c
1265 485 1272 440 1272 389 c

ce} _d
/bracketleft{569 0 146 -425 553 1484 sc
146 -425 m
146 1484 l
553 1484 l
553 1355 l
320 1355 l
320 -296 l
553 -296 l
553 -425 l
146 -425 l

ce} _d
/bracketright{569 0 16 -425 423 1484 sc
16 -425 m
16 -296 l
249 -296 l
249 1355 l
16 1355 l
16 1484 l
423 1484 l
423 -425 l
16 -425 l

ce} _d
/a{1139 0 87 -20 1139 1102 sc
414 -20 m
305 -20 224 9 169 66 c
114 123 87 202 87 302 c
87 414 124 500 197 560 c
271 620 390 652 554 656 c
797 660 l
797 719 l
797 807 778 870 741 908 c
704 946 645 965 565 965 c
484 965 426 951 389 924 c
352 897 330 853 323 793 c
135 810 l
166 1005 310 1102 569 1102 c
705 1102 807 1071 876 1008 c
945 946 979 856 979 738 c
979 272 l
979 219 986 178 1000 151 c
1014 124 1041 111 1080 111 c
1097 111 1117 113 1139 118 c
1139 6 l
1094 -5 1047 -10 1000 -10 c
933 -10 885 7 854 42 c
824 77 807 132 803 207 c
797 207 l
751 124 697 66 636 31 c
575 -3 501 -20 414 -20 c

455 115 m
521 115 580 130 631 160 c
682 190 723 231 752 283 c
782 336 797 390 797 445 c
797 534 l
600 530 l
515 529 451 520 407 504 c
364 488 330 463 307 430 c
284 397 272 353 272 299 c
272 240 288 195 319 163 c
351 131 396 115 455 115 c

ce} _d
/b{1139 0 132 -20 1053 1484 sc
1053 546 m
1053 169 920 -20 655 -20 c
573 -20 505 -5 450 24 c
396 54 352 102 318 168 c
316 168 l
316 147 315 116 312 73 c
309 31 307 7 306 0 c
132 0 l
136 36 138 110 138 223 c
138 1484 l
318 1484 l
318 1061 l
318 1018 317 967 314 908 c
318 908 l
351 977 395 1027 450 1057 c
505 1087 574 1102 655 1102 c
792 1102 892 1056 956 964 c
1021 872 1053 733 1053 546 c

864 540 m
864 691 844 800 804 865 c
764 930 699 963 609 963 c
508 963 434 928 387 859 c
341 790 318 680 318 529 c
318 387 341 282 386 214 c
431 147 505 113 607 113 c
698 113 763 146 803 213 c
844 280 864 389 864 540 c

ce} _d
/c{1024 0 87 -20 970 1102 sc
275 546 m
275 402 298 295 343 226 c
388 157 457 122 548 122 c
612 122 665 139 708 174 c
751 209 778 262 788 334 c
970 322 l
956 218 912 135 837 73 c
762 11 668 -20 553 -20 c
402 -20 286 28 206 123 c
127 219 87 359 87 542 c
87 724 127 863 207 958 c
287 1054 402 1102 551 1102 c
662 1102 753 1073 826 1016 c
899 959 945 880 964 779 c
779 765 l
770 825 746 873 708 908 c
670 943 616 961 546 961 c
451 961 382 929 339 866 c
296 803 275 696 275 546 c

ce} _d
/d{1139 0 86 -20 1007 1484 sc
821 174 m
788 105 743 55 688 25 c
633 -5 565 -20 484 -20 c
347 -20 247 26 182 118 c
118 210 86 349 86 536 c
86 913 219 1102 484 1102 c
566 1102 634 1087 689 1057 c
744 1027 788 979 821 914 c
823 914 l
821 1035 l
821 1484 l
1001 1484 l
1001 223 l
1001 110 1003 36 1007 0 c
835 0 l
833 11 831 35 828 74 c
826 113 825 146 825 174 c
821 174 l

275 542 m
275 391 295 282 335 217 c
375 152 440 119 530 119 c
632 119 706 154 752 225 c
798 296 821 405 821 554 c
821 697 798 802 752 869 c
706 936 633 969 532 969 c
441 969 376 935 335 868 c
295 801 275 693 275 542 c

ce} _d
/e{1139 0 87 -20 1048 1102 sc
276 503 m
276 379 302 283 353 216 c
404 149 479 115 578 115 c
656 115 718 131 765 162 c
812 193 844 233 861 281 c
1019 236 l
954 65 807 -20 578 -20 c
418 -20 296 28 212 123 c
129 218 87 360 87 548 c
87 727 129 864 212 959 c
296 1054 416 1102 571 1102 c
889 1102 1048 910 1048 527 c
1048 503 l
276 503 l

862 641 m
852 755 823 838 775 890 c
727 943 658 969 568 969 c
481 969 411 940 360 881 c
309 823 282 743 278 641 c
862 641 l

ce} _d
/f{569 0 29 0 572 1482 sc
361 951 m
361 0 l
181 0 l
181 951 l
29 951 l
29 1082 l
181 1082 l
181 1204 l
181 1303 203 1374 246 1417 c
289 1460 356 1482 445 1482 c
495 1482 537 1478 572 1470 c
572 1333 l
542 1338 515 1341 492 1341 c
446 1341 413 1329 392 1306 c
371 1283 361 1240 361 1179 c
361 1082 l
572 1082 l
572 951 l
361 951 l

ce} _d
/h{1139 0 142 0 1006 1484 sc
317 897 m
356 968 402 1019 456 1052 c
511 1085 580 1102 663 1102 c
780 1102 867 1073 922 1014 c
978 956 1006 858 1006 721 c
1006 0 l
825 0 l
825 686 l
825 762 818 818 804 855 c
790 892 767 920 735 937 c
703 954 659 963 602 963 c
517 963 449 934 398 875 c
347 816 322 737 322 638 c
322 0 l
142 0 l
142 1484 l
322 1484 l
322 1098 l
322 1057 321 1015 318 972 c
316 929 315 904 314 897 c
317 897 l

ce} _d
/i{455 0 137 0 317 1484 sc
137 1312 m
137 1484 l
317 1484 l
317 1312 l
137 1312 l

137 0 m
137 1082 l
317 1082 l
317 0 l
137 0 l

ce} _d
/k{1024 0 138 0 1027 1484 sc
816 0 m
450 494 l
318 385 l
318 0 l
138 0 l
138 1484 l
318 1484 l
318 557 l
793 1082 l
1004 1082 l
565 617 l
1027 0 l
816 0 l

ce} _d
/l{455 0 138 0 318 1484 sc
138 0 m
138 1484 l
318 1484 l
318 0 l
138 0 l

ce} _d
/m{1706 0 136 0 1571 1102 sc
768 0 m
768 686 l
768 791 754 863 725 903 c
696 943 645 963 570 963 c
493 963 433 934 388 875 c
343 816 321 734 321 627 c
321 0 l
142 0 l
142 851 l
142 977 140 1054 136 1082 c
306 1082 l
307 1079 307 1070 308 1055 c
309 1040 309 1023 310 1004 c
311 985 313 950 314 897 c
317 897 l
356 974 400 1027 450 1057 c
500 1087 561 1102 633 1102 c
715 1102 780 1086 827 1053 c
875 1020 908 968 927 897 c
930 897 l
967 970 1012 1022 1065 1054 c
1118 1086 1183 1102 1258 1102 c
1367 1102 1447 1072 1496 1013 c
1546 954 1571 856 1571 721 c
1571 0 l
1393 0 l
1393 686 l
1393 791 1379 863 1350 903 c
1321 943 1270 963 1195 963 c
1116 963 1055 934 1011 875 c
968 817 946 734 946 627 c
946 0 l
768 0 l

ce} _d
/n{1139 0 136 0 1006 1102 sc
825 0 m
825 686 l
825 757 818 813 804 852 c
790 891 768 920 737 937 c
706 954 661 963 602 963 c
515 963 447 933 397 874 c
347 815 322 732 322 627 c
322 0 l
142 0 l
142 851 l
142 977 140 1054 136 1082 c
306 1082 l
307 1079 307 1070 308 1055 c
309 1040 309 1023 310 1004 c
311 985 313 950 314 897 c
317 897 l
358 972 406 1024 460 1055 c
515 1086 582 1102 663 1102 c
782 1102 868 1072 923 1013 c
978 954 1006 857 1006 721 c
1006 0 l
825 0 l

ce} _d
/o{1139 0 86 -20 1053 1102 sc
1053 542 m
1053 353 1011 212 928 119 c
845 26 724 -20 565 -20 c
407 -20 288 28 207 124 c
126 221 86 360 86 542 c
86 915 248 1102 571 1102 c
736 1102 858 1056 936 965 c
1014 874 1053 733 1053 542 c

864 542 m
864 691 842 800 797 867 c
753 935 679 969 574 969 c
469 969 392 934 345 865 c
298 796 275 689 275 542 c
275 399 298 292 344 220 c
391 149 464 113 563 113 c
671 113 748 148 794 217 c
841 286 864 395 864 542 c

ce} _d
/p{1139 0 132 -425 1053 1101 sc
1053 546 m
1053 169 920 -20 655 -20 c
488 -20 376 43 319 168 c
314 168 l
317 163 318 106 318 -2 c
318 -425 l
138 -425 l
138 861 l
138 972 136 1046 132 1082 c
306 1082 l
307 1079 308 1070 309 1053 c
310 1037 312 1012 313 978 c
315 944 316 921 316 908 c
320 908 l
352 975 394 1023 447 1054 c
500 1085 569 1101 655 1101 c
788 1101 888 1056 954 967 c
1020 878 1053 737 1053 546 c

864 542 m
864 693 844 800 803 865 c
762 930 698 962 609 962 c
538 962 482 947 441 917 c
401 887 370 840 349 776 c
328 713 318 630 318 528 c
318 386 341 281 386 214 c
431 147 505 113 607 113 c
696 113 761 146 802 211 c
843 277 864 387 864 542 c

ce} _d
/r{682 0 136 0 648 1102 sc
142 0 m
142 830 l
142 906 140 990 136 1082 c
306 1082 l
311 959 314 886 314 861 c
318 861 l
347 954 380 1017 417 1051 c
454 1085 507 1102 575 1102 c
599 1102 623 1099 648 1092 c
648 927 l
624 934 592 937 552 937 c
477 937 420 905 381 840 c
342 776 322 684 322 564 c
322 0 l
142 0 l

ce} _d
/s{1024 0 57 -20 950 1099 sc
950 299 m
950 197 911 118 834 63 c
757 8 650 -20 511 -20 c
376 -20 272 2 199 46 c
126 91 79 160 57 254 c
216 285 l
231 227 263 184 311 157 c
359 130 426 117 511 117 c
602 117 669 131 711 159 c
754 187 775 229 775 285 c
775 328 760 362 731 389 c
702 416 654 438 589 455 c
460 489 l
357 516 283 542 239 567 c
196 593 162 624 137 661 c
112 698 100 743 100 796 c
100 895 135 970 205 1021 c
276 1073 378 1099 513 1099 c
632 1099 727 1078 797 1036 c
868 994 912 927 931 834 c
769 814 l
759 862 732 899 688 924 c
645 950 586 963 513 963 c
432 963 372 951 333 926 c
294 901 275 864 275 814 c
275 783 283 758 299 738 c
315 718 339 701 370 687 c
401 673 467 654 568 629 c
663 605 732 583 774 562 c
816 542 849 520 873 495 c
898 470 917 442 930 409 c
943 377 950 340 950 299 c

ce} _d
/t{569 0 31 -16 554 1324 sc
554 8 m
495 -8 434 -16 372 -16 c
228 -16 156 66 156 229 c
156 951 l
31 951 l
31 1082 l
163 1082 l
216 1324 l
336 1324 l
336 1082 l
536 1082 l
536 951 l
336 951 l
336 268 l
336 216 344 179 361 158 c
378 137 408 127 450 127 c
474 127 509 132 554 141 c
554 8 l

ce} _d
/u{1139 0 133 -20 1003 1082 sc
314 1082 m
314 396 l
314 325 321 269 335 230 c
349 191 371 162 402 145 c
433 128 478 119 537 119 c
624 119 692 149 742 208 c
792 267 817 350 817 455 c
817 1082 l
997 1082 l
997 231 l
997 105 999 28 1003 0 c
833 0 l
832 3 832 12 831 27 c
830 42 829 58 828 77 c
827 96 826 132 825 185 c
822 185 l
781 110 733 57 678 26 c
624 -5 557 -20 476 -20 c
357 -20 270 9 215 68 c
160 127 133 225 133 361 c
133 1082 l
314 1082 l

ce} _d
/w{1479 0 -3 0 1484 1082 sc
1174 0 m
965 0 l
776 765 l
740 934 l
734 904 725 861 712 804 c
699 748 631 480 508 0 c
300 0 l
-3 1082 l
175 1082 l
358 347 l
363 331 377 265 401 149 c
418 223 l
644 1082 l
837 1082 l
1026 339 l
1072 149 l
1103 288 l
1308 1082 l
1484 1082 l
1174 0 l

ce} _d
/x{1024 0 23 0 1002 1082 sc
801 0 m
510 444 l
217 0 l
23 0 l
408 556 l
41 1082 l
240 1082 l
510 661 l
778 1082 l
979 1082 l
612 558 l
1002 0 l
801 0 l

ce} _d
end readonly def

/BuildGlyph {
 exch begin
 CharStrings exch
 2 copy known not {pop /.notdef} if
 true 3 1 roll get exec
 end
} _d

/BuildChar {
 1 index /Encoding get exch get
 1 index /BuildGlyph get exec
} _d

FontName currentdict end definefont pop
%!PS-Adobe-3.0 Resource-Font
%%Creator: Converted from TrueType to Type 3 by Matplotlib.
10 dict begin
/FontName /DejaVuSans-Oblique def
/PaintType 0 def
/FontMatrix [0.00048828125 0 0 0.00048828125 0 0] def
/FontBBox [-2080 -717 3398 2187] def
/FontType 3 def
/Encoding [/t] def
/CharStrings 2 dict dup begin
/.notdef 0 def
/t{803 0 131 0 866 1438 sc
866 1120 m
838 977 l
471 977 l
352 369 l
348 346 345 327 343 312 c
341 297 340 285 340 276 c
340 233 353 202 378 183 c
404 164 445 154 502 154 c
688 154 l
657 0 l
481 0 l
372 0 290 21 236 64 c
183 107 156 171 156 258 c
156 273 157 290 159 308 c
161 327 164 347 168 369 c
287 977 l
131 977 l
160 1120 l
313 1120 l
375 1438 l
559 1438 l
498 1120 l
866 1120 l

ce} _d
end readonly def

/BuildGlyph {
 exch begin
 CharStrings exch
 2 copy known not {pop /.notdef} if
 true 3 1 roll get exec
 end
} _d

/BuildChar {
 1 index /Encoding get exch get
 1 index /BuildGlyph get exec
} _d

FontName currentdict end definefont pop
end
%%EndProlog
mpldict begin
113.822 151.376 translate
384.356 489.248 0 0 clipbox
gsave
0 0 m
384.35625 0 l
384.35625 489.248125 l
0 489.248125 l
cl
1.000 setgray
fill
grestore
gsave
42.35625 385.630734 m
377.15625 385.630734 l
377.15625 482.048125 l
42.35625 482.048125 l
cl
0.918 0.918 0.949 setrgbcolor
fill
grestore
1.000 setlinewidth
1 setlinejoin
1 setlinecap
[] 0 setdash
1.000 setgray
gsave
334.8 96.417 42.356 385.631 clipbox
57.574432 385.630734 m
57.574432 482.048125 l
stroke
grestore
gsave
334.8 96.417 42.356 385.631 clipbox
108.796165 385.630734 m
108.796165 482.048125 l
stroke
grestore
gsave
334.8 96.417 42.356 385.631 clipbox
160.017898 385.630734 m
160.017898 482.048125 l
stroke
grestore
gsave
334.8 96.417 42.356 385.631 clipbox
211.239631 385.630734 m
211.239631 482.048125 l
stroke
grestore
gsave
334.8 96.417 42.356 385.631 clipbox
262.461365 385.630734 m
262.461365 482.048125 l
stroke
grestore
gsave
334.8 96.417 42.356 385.631 clipbox
313.683098 385.630734 m
313.683098 482.048125 l
stroke
grestore
gsave
334.8 96.417 42.356 385.631 clipbox
364.904831 385.630734 m
364.904831 482.048125 l
stroke
grestore
gsave
334.8 96.417 42.356 385.631 clipbox
42.35625 389.893179 m
377.15625 389.893179 l
stroke
grestore
0.150 setgray
/LiberationSans 10.000 selectfont
gsave

29.793750 386.268179 translate
0.000000 rotate
0.000000 0 m /zero glyphshow
grestore
1.000 setgray
gsave
334.8 96.417 42.356 385.631 clipbox
42.35625 437.359331 m
377.15625 437.359331 l
stroke
grestore
0.150 setgray
gsave

24.231250 433.734331 translate
0.000000 rotate
0.000000 0 m /five glyphshow
5.561523 0 m /zero glyphshow
grestore
/LiberationSans 11.000 selectfont
gsave

17.950000 412.417554 translate
90.000000 rotate
0.000000 0 m /E glyphshow
7.336914 0 m /r glyphshow
11.000000 0 m /r glyphshow
14.663086 0 m /o glyphshow
20.780762 0 m /r glyphshow
24.443848 0 m /space glyphshow
27.500000 0 m /bracketleft glyphshow
30.556152 0 m /m glyphshow
39.719238 0 m /bracketright glyphshow
grestore
1.750 setlinewidth
0.298 0.447 0.690 setrgbcolor
gsave
334.8 96.417 42.356 385.631 clipbox
57.574432 390.340308 m
58.275145 390.317974 l
58.807851 390.777916 l
60.36909 390.726349 l
61.434502 390.726367 l
62.024576 391.313767 l
63.700551 391.246286 l
64.901189 392.533819 l
65.450286 392.505419 l
66.605848 393.881456 l
69.757009 393.92762 l
70.412647 394.847196 l
71.641969 394.825079 l
72.285314 395.702066 l
72.94505 395.569007 l
73.576101 395.565711 l
74.215348 396.593069 l
74.887378 397.339176 l
75.538918 398.61242 l
78.100005 398.794073 l
79.407183 401.117662 l
79.99316 401.117787 l
80.624212 402.721181 l
81.882218 402.619655 l
84.246613 402.621801 l
85.44725 405.952124 l
87.283037 405.965907 l
87.938675 407.006884 l
91.700399 407.005943 l
92.417504 408.601285 l
93.732878 408.6392 l
95.785845 408.772492 l
96.498851 410.359827 l
97.174978 410.229412 l
97.871594 410.234618 l
98.551818 412.357386 l
99.281216 414.261608 l
101.817716 414.244194 l
102.395497 415.837518 l
103.612526 415.812332 l
104.296848 417.629457 l
104.923802 418.359071 l
105.575342 419.737642 l
106.874326 419.794865 l
107.529964 422.110053 l
109.480487 422.100642 l
110.136126 423.226817 l
110.81635 423.065623 l
112.242363 423.084225 l
112.91849 424.021259 l
113.561835 426.172633 l
116.954763 426.168266 l
117.729235 427.510768 l
119.778105 427.576439 l
121.113967 427.534604 l
121.781899 429.440218 l
122.441635 429.222421 l
125.74851 429.177994 l
126.404148 430.375014 l
127.821966 430.327919 l
128.526777 431.765412 l
129.161926 431.648244 l
131.247675 431.618143 l
131.931997 432.029563 l
132.550756 432.05578 l
133.181808 432.266066 l
133.792371 433.412267 l
135.828947 433.362321 l
136.587029 434.272131 l
142.495968 434.234862 l
149.962048 434.132503 l
150.55622 435.184108 l
152.334638 435.210654 l
157.018354 435.200591 l
157.69448 436.525968 l
162.324925 436.527741 l
168.393676 436.457255 l
171.725138 436.412729 l
172.475024 437.752117 l
173.052805 439.841663 l
173.737127 440.11049 l
180.940952 440.158861 l
187.837446 440.212974 l
188.435716 441.510812 l
189.701917 441.499973 l
192.545748 441.473014 l
193.271047 442.795275 l
193.975858 442.840725 l
194.656083 443.041489 l
200.540436 443.048322 l
201.187878 445.404016 l
208.772793 445.40275 l
216.488835 445.400557 l
217.279698 449.324649 l
217.931239 451.081215 l
219.398229 451.010686 l
223.049314 450.895072 l
224.61465 453.89242 l
226.704497 453.822542 l
230.798138 453.763907 l
231.457874 455.078052 l
232.121708 455.077523 l
232.867496 454.818403 l
233.617382 454.791922 l
234.367268 460.756754 l
235.186816 456.170856 l
237.280761 456.145246 l
237.977376 457.908576 l
241.599777 457.977519 l
242.304588 458.979648 l
243.013497 459.787347 l
247.570182 459.62874 l
248.340557 460.612909 l
259.556068 460.585309 l
262.55971 460.533539 l
277.40172 460.378061 l
280.024272 460.360918 l
280.647129 462.572503 l
283.212313 462.593914 l
283.855658 465.008447 l
285.793888 465.014855 l
286.490504 467.531986 l
287.121556 467.523238 l
287.789487 470.345746 l
289.08847 470.237899 l
295.374401 470.247376 l
296.038235 472.320513 l
297.435564 472.238544 l
300.902251 472.228772 l
301.566085 473.961308 l
304.278788 473.915004 l
304.881155 474.221207 l
306.262093 474.317391 l
314.051894 474.267108 l
314.756705 475.863928 l
316.108959 475.850037 l
316.793281 476.966347 l
317.395649 476.986821 l
318.055385 477.60859 l
335.347842 477.661311 l
361.938068 477.652389 l
361.938068 477.652389 l
stroke
grestore
0.333 0.659 0.408 setrgbcolor
gsave
334.8 96.417 42.356 385.631 clipbox
57.574432 390.073674 m
58.275145 390.013911 l
58.807851 390.408897 l
59.328264 390.094785 l
60.877209 390.015764 l
61.434502 390.013342 l
62.024576 390.376562 l
63.151454 390.119248 l
64.290625 390.18512 l
64.901189 390.33459 l
65.450286 390.224883 l
66.019871 390.317068 l
66.605848 390.546143 l
71.641969 390.305307 l
72.285314 390.54718 l
72.94505 390.339356 l
74.215348 390.417329 l
74.887378 391.240294 l
75.538918 391.791784 l
76.16997 390.960761 l
76.76824 390.895066 l
77.407487 390.652088 l
78.100005 390.618473 l
78.751545 390.838531 l
79.99316 390.682224 l
80.624212 391.411182 l
81.271654 390.653025 l
84.246613 390.662199 l
84.844883 390.865051 l
87.283037 390.76721 l
87.938675 391.157008 l
91.700399 391.147483 l
92.417504 391.300889 l
93.732878 391.222977 l
95.085131 390.941657 l
95.785845 390.919124 l
96.498851 391.238058 l
97.174978 391.007772 l
97.871594 391.020355 l
98.551818 391.332356 l
99.281216 391.154515 l
101.817716 391.115456 l
102.395497 391.250023 l
103.612526 391.173332 l
104.923802 391.292687 l
105.575342 391.454519 l
106.874326 391.377057 l
107.529964 391.593576 l
109.480487 391.558512 l
110.136126 392.038257 l
110.81635 391.653995 l
116.954763 391.855525 l
117.729235 392.168912 l
118.44634 391.939119 l
121.113967 391.859999 l
121.781899 392.383011 l
122.441635 391.962366 l
125.088774 391.873841 l
125.74851 391.871435 l
126.404148 392.093527 l
127.084373 391.935062 l
127.821966 391.917852 l
128.526777 392.202514 l
129.161926 391.951566 l
131.247675 391.871269 l
131.931997 392.679303 l
132.550756 392.594859 l
133.181808 392.272467 l
133.792371 392.411127 l
135.15282 392.311627 l
135.828947 392.310276 l
136.587029 392.026246 l
144.999686 392.012523 l
149.962048 392.118568 l
151.146294 392.282371 l
157.018354 392.287493 l
158.36651 392.437592 l
163.582931 392.467669 l
169.692659 392.357829 l
171.725138 392.320162 l
172.475024 392.695704 l
173.052805 393.790392 l
173.737127 393.163476 l
175.695846 393.210706 l
179.043699 393.245584 l
179.728021 392.872418 l
182.350574 392.894778 l
183.739707 392.773805 l
187.837446 392.794668 l
188.435716 393.644666 l
189.091354 393.160762 l
191.066464 393.21736 l
193.975858 393.190529 l
194.656083 392.783757 l
197.692507 392.671099 l
200.540436 392.655831 l
201.187878 392.961874 l
210.153731 392.935965 l
217.279698 393.143006 l
217.931239 393.235273 l
218.648343 393.11735 l
222.254353 393.11303 l
223.049314 392.841495 l
224.61465 392.905196 l
225.991491 392.771911 l
228.052653 392.664507 l
230.093327 392.580665 l
230.798138 392.580616 l
231.457874 393.212923 l
232.121708 393.208342 l
232.867496 392.681246 l
233.617382 392.626686 l
234.367268 392.992315 l
235.186816 392.846435 l
237.280761 392.732021 l
237.977376 393.0659 l
241.599777 393.055755 l
242.304588 393.6016 l
243.013497 393.951748 l
243.763383 393.874811 l
244.517367 393.488726 l
246.824394 393.414981 l
247.570182 393.414283 l
248.340557 394.210066 l
249.160105 393.800455 l
252.995588 393.788383 l
261.748358 393.813377 l
276.741984 393.794622 l
277.40172 393.525095 l
280.024272 393.465763 l
280.647129 393.762391 l
282.560773 393.52673 l
285.793888 393.560887 l
287.121556 393.635529 l
287.789487 394.401916 l
288.453321 393.705606 l
293.977073 393.71852 l
295.374401 393.713036 l
296.038235 393.919884 l
296.730753 393.767949 l
300.902251 393.735522 l
301.566085 393.895508 l
302.901947 393.780681 l
304.278788 393.772658 l
304.881155 394.420797 l
305.532696 394.00948 l
307.016077 394.074442 l
309.13051 394.002629 l
309.864005 393.777938 l
316.108959 393.680084 l
316.793281 393.73167 l
317.395649 393.428466 l
320.817261 393.199025 l
330.389578 393.279329 l
361.938068 393.248378 l
361.938068 393.248378 l
stroke
grestore
gsave
42.35625 385.630734 m
42.35625 482.048125 l
grestore
gsave
377.15625 385.630734 m
377.15625 482.048125 l
grestore
gsave
42.35625 385.630734 m
377.15625 385.630734 l
grestore
gsave
42.35625 482.048125 m
377.15625 482.048125 l
grestore
0.300 setlinewidth
0 setlinejoin
0 setlinecap
0.800 setgray
gsave
49.35625 431.06375 m
178.965625 431.06375 l
180.298958 431.06375 180.965625 431.730417 180.965625 433.06375 c
180.965625 475.048125 l
180.965625 476.381458 180.298958 477.048125 178.965625 477.048125 c
49.35625 477.048125 l
48.022917 477.048125 47.35625 476.381458 47.35625 475.048125 c
47.35625 433.06375 l
47.35625 431.730417 48.022917 431.06375 49.35625 431.06375 c
cl
gsave
1.000 setgray
fill
grestore
stroke
grestore
0.150 setgray
/LiberationSans 10.000 selectfont
gsave

51.356250 465.798125 translate
0.000000 rotate
0.000000 0 m /A glyphshow
6.669922 0 m /c glyphshow
11.669922 0 m /c glyphshow
16.669922 0 m /u glyphshow
22.231445 0 m /m glyphshow
30.561523 0 m /u glyphshow
36.123047 0 m /l glyphshow
38.344727 0 m /a glyphshow
43.906250 0 m /t glyphshow
46.684570 0 m /e glyphshow
52.246094 0 m /d glyphshow
57.807617 0 m /space glyphshow
60.585938 0 m /l glyphshow
62.807617 0 m /a glyphshow
68.369141 0 m /n glyphshow
73.930664 0 m /d glyphshow
79.492188 0 m /m glyphshow
87.822266 0 m /a glyphshow
93.383789 0 m /r glyphshow
96.713867 0 m /k glyphshow
101.713867 0 m /space glyphshow
104.492188 0 m /e glyphshow
110.053711 0 m /r glyphshow
113.383789 0 m /r glyphshow
116.713867 0 m /o glyphshow
122.275391 0 m /r glyphshow
grestore
1.750 setlinewidth
1 setlinejoin
1 setlinecap
0.298 0.447 0.690 setrgbcolor
gsave
70.426563 454.97 m
90.426563 454.97 l
stroke
grestore
0.150 setgray
gsave

98.426563 451.470000 translate
0.000000 rotate
0.000000 0 m /P glyphshow
6.669922 0 m /o glyphshow
12.231445 0 m /s glyphshow
17.231445 0 m /i glyphshow
19.453125 0 m /t glyphshow
22.231445 0 m /i glyphshow
24.453125 0 m /o glyphshow
30.014648 0 m /n glyphshow
35.576172 0 m /space glyphshow
38.354492 0 m /e glyphshow
43.916016 0 m /r glyphshow
47.246094 0 m /r glyphshow
50.576172 0 m /o glyphshow
56.137695 0 m /r glyphshow
grestore
0.333 0.659 0.408 setrgbcolor
gsave
70.426563 440.641875 m
90.426563 440.641875 l
stroke
grestore
0.150 setgray
gsave

98.426563 437.141875 translate
0.000000 rotate
0.000000 0 m /D glyphshow
7.221680 0 m /B glyphshow
13.891602 0 m /H glyphshow
21.113281 0 m /space glyphshow
23.891602 0 m /e glyphshow
29.453125 0 m /r glyphshow
32.783203 0 m /r glyphshow
36.113281 0 m /o glyphshow
41.674805 0 m /r glyphshow
grestore
gsave
42.35625 269.929864 m
377.15625 269.929864 l
377.15625 366.347255 l
42.35625 366.347255 l
cl
0.918 0.918 0.949 setrgbcolor
fill
grestore
1.000 setlinewidth
1.000 setgray
gsave
334.8 96.417 42.356 269.93 clipbox
57.574432 269.929864 m
57.574432 366.347255 l
stroke
grestore
gsave
334.8 96.417 42.356 269.93 clipbox
108.796165 269.929864 m
108.796165 366.347255 l
stroke
grestore
gsave
334.8 96.417 42.356 269.93 clipbox
160.017898 269.929864 m
160.017898 366.347255 l
stroke
grestore
gsave
334.8 96.417 42.356 269.93 clipbox
211.239631 269.929864 m
211.239631 366.347255 l
stroke
grestore
gsave
334.8 96.417 42.356 269.93 clipbox
262.461365 269.929864 m
262.461365 366.347255 l
stroke
grestore
gsave
334.8 96.417 42.356 269.93 clipbox
313.683098 269.929864 m
313.683098 366.347255 l
stroke
grestore
gsave
334.8 96.417 42.356 269.93 clipbox
364.904831 269.929864 m
364.904831 366.347255 l
stroke
grestore
gsave
334.8 96.417 42.356 269.93 clipbox
42.35625 271.034137 m
377.15625 271.034137 l
stroke
grestore
0.150 setgray
gsave

21.450000 267.409137 translate
0.000000 rotate
0.000000 0 m /zero glyphshow
5.561523 0 m /period glyphshow
8.339844 0 m /zero glyphshow
grestore
1.000 setgray
gsave
334.8 96.417 42.356 269.93 clipbox
42.35625 302.706023 m
377.15625 302.706023 l
stroke
grestore
0.150 setgray
gsave

21.450000 299.081023 translate
0.000000 rotate
0.000000 0 m /zero glyphshow
5.561523 0 m /period glyphshow
8.339844 0 m /five glyphshow
grestore
1.000 setgray
gsave
334.8 96.417 42.356 269.93 clipbox
42.35625 334.37791 m
377.15625 334.37791 l
stroke
grestore
0.150 setgray
gsave

21.450000 330.752910 translate
0.000000 rotate
0.000000 0 m /one glyphshow
5.561523 0 m /period glyphshow
8.339844 0 m /zero glyphshow
grestore
1.000 setgray
gsave
334.8 96.417 42.356 269.93 clipbox
42.35625 366.049797 m
377.15625 366.049797 l
stroke
grestore
0.150 setgray
gsave

21.450000 362.424797 translate
0.000000 rotate
0.000000 0 m /one glyphshow
5.561523 0 m /period glyphshow
8.339844 0 m /five glyphshow
grestore
/LiberationSans 11.000 selectfont
gsave

15.168750 296.716685 translate
90.000000 rotate
0.000000 0 m /E glyphshow
7.336914 0 m /r glyphshow
11.000000 0 m /r glyphshow
14.663086 0 m /o glyphshow
20.780762 0 m /r glyphshow
24.443848 0 m /space glyphshow
27.500000 0 m /bracketleft glyphshow
30.556152 0 m /m glyphshow
39.719238 0 m /bracketright glyphshow
grestore
1.750 setlinewidth
0.298 0.447 0.690 setrgbcolor
gsave
334.8 96.417 42.356 269.93 clipbox
57.574432 300.868937 m
58.275145 299.378665 l
58.807851 300.551263 l
59.328264 298.881905 l
61.434502 298.831451 l
62.024576 302.630474 l
62.610553 301.676621 l
63.151454 301.233464 l
63.700551 301.129584 l
64.290625 304.169865 l
64.901189 306.273592 l
65.450286 305.894586 l
66.019871 308.014789 l
66.605848 309.051083 l
68.453928 309.332038 l
69.080882 309.485902 l
69.757009 309.491125 l
70.412647 312.353863 l
71.641969 312.169396 l
72.285314 314.100709 l
72.94505 313.114227 l
73.576101 313.089789 l
74.215348 315.739291 l
74.887378 316.201019 l
75.538918 319.516902 l
76.16997 319.861292 l
76.76824 319.999737 l
77.407487 320.468274 l
78.100005 320.526969 l
78.751545 322.242654 l
79.407183 324.530991 l
79.99316 324.531585 l
80.624212 328.097539 l
81.271654 327.627688 l
84.246613 327.655466 l
84.844883 331.356268 l
85.44725 334.065691 l
86.582324 334.125925 l
87.283037 334.119787 l
87.938675 334.473887 l
91.700399 334.470398 l
92.417504 336.734253 l
93.09363 336.733992 l
93.732878 336.867406 l
95.085131 337.312255 l
95.785845 337.335507 l
96.498851 339.316202 l
97.174978 338.881102 l
97.871594 338.898471 l
98.551818 342.411699 l
99.281216 344.942702 l
101.817716 344.889886 l
102.395497 346.30115 l
103.612526 346.228083 l
104.296848 348.147004 l
104.923802 347.009836 l
105.575342 347.625595 l
106.239176 347.767648 l
106.874326 347.772449 l
107.529964 350.651822 l
109.480487 350.628565 l
110.136126 350.469629 l
110.81635 350.085497 l
112.242363 350.129827 l
112.91849 349.558382 l
113.561835 351.725936 l
116.954763 351.716224 l
117.729235 352.003212 l
119.106075 352.135435 l
121.113967 352.054516 l
121.781899 353.496146 l
122.441635 353.042003 l
124.420843 352.948839 l
126.404148 352.88743 l
127.821966 352.792207 l
128.526777 353.208645 l
129.161926 352.978703 l
131.247675 352.91963 l
131.931997 351.364389 l
132.550756 351.41437 l
133.181808 351.815267 l
134.448009 351.617543 l
135.828947 351.603231 l
136.587029 351.066424 l
139.865219 351.01894 l
149.962048 350.814622 l
150.55622 350.561676 l
151.744564 350.619316 l
157.018354 350.590618 l
157.69448 350.818301 l
160.989062 350.802519 l
167.004543 350.81094 l
168.393676 350.700738 l
171.725138 350.624559 l
172.475024 350.869073 l
173.052805 350.38706 l
173.737127 350.814146 l
179.043699 350.670251 l
179.728021 350.867308 l
184.448616 350.935966 l
187.837446 350.976961 l
188.435716 351.131744 l
189.091354 351.182265 l
191.066464 351.075245 l
192.545748 351.073091 l
194.656083 351.632588 l
200.540436 351.64295 l
201.187878 353.344624 l
206.764901 353.329943 l
216.488835 353.339496 l
217.279698 355.408116 l
217.931239 356.092141 l
219.398229 355.994098 l
222.254353 355.998434 l
223.049314 355.833382 l
223.823787 356.282337 l
224.61465 356.441385 l
225.991491 356.354126 l
232.121708 356.317248 l
232.867496 355.978232 l
233.617382 355.943586 l
234.367268 361.964647 l
235.186816 356.080128 l
237.280761 356.047266 l
237.977376 355.077494 l
241.599777 355.162683 l
242.304588 354.848842 l
243.013497 354.314541 l
247.570182 354.125558 l
248.340557 353.819899 l
258.802084 353.791177 l
276.741984 353.712478 l
277.40172 353.544981 l
280.024272 353.524914 l
280.647129 354.646943 l
283.212313 354.671575 l
283.855658 355.984672 l
285.793888 355.991919 l
286.490504 357.375224 l
287.121556 357.365496 l
287.789487 359.037644 l
288.453321 358.918969 l
295.374401 358.930042 l
296.038235 359.743503 l
297.435564 359.655286 l
300.902251 359.64477 l
301.566085 360.073234 l
304.278788 360.024192 l
304.881155 358.952963 l
306.262093 359.053243 l
314.051894 359.000819 l
314.756705 359.286687 l
316.108959 359.272428 l
316.793281 359.06406 l
317.395649 359.084759 l
318.055385 358.38979 l
335.987089 358.440286 l
361.938068 358.433409 l
361.938068 358.433409 l
stroke
grestore
0.333 0.659 0.408 setrgbcolor
gsave
334.8 96.417 42.356 269.93 clipbox
57.574432 283.077745 m
58.275145 279.090008 l
58.807851 288.239831 l
59.328264 277.760245 l
59.869165 275.874666 l
60.36909 275.258527 l
61.434502 275.043106 l
62.024576 281.785418 l
62.610553 278.159484 l
63.151454 276.062311 l
63.700551 275.686011 l
64.290625 275.90409 l
64.901189 276.92478 l
65.450286 275.460746 l
66.019871 275.748151 l
66.605848 277.258302 l
67.85156 276.787391 l
68.453928 276.132174 l
69.080882 275.204585 l
69.757009 274.846735 l
70.412647 275.597872 l
71.080578 274.716542 l
71.641969 274.471554 l
72.285314 275.882842 l
72.94505 274.342058 l
74.215348 274.531538 l
74.887378 279.205639 l
75.538918 281.591204 l
76.16997 276.970359 l
76.76824 276.605063 l
77.407487 275.254002 l
78.100005 275.067087 l
78.751545 275.886352 l
79.407183 274.892581 l
79.99316 274.794792 l
80.624212 277.786741 l
81.271654 274.414197 l
83.09105 274.421562 l
84.246613 274.455004 l
84.844883 275.087161 l
86.033227 274.598724 l
87.283037 274.464719 l
87.938675 275.719096 l
89.794951 275.683621 l
91.700399 275.683788 l
92.417504 275.977808 l
93.09363 275.960378 l
93.732878 275.704193 l
95.085131 274.716239 l
95.785845 274.637106 l
96.498851 275.521003 l
97.174978 274.752708 l
97.871594 274.794689 l
98.551818 275.606965 l
99.281216 274.859723 l
100.588394 274.694991 l
101.817716 274.741259 l
102.395497 274.970471 l
103.612526 274.747984 l
104.923802 274.769435 l
105.575342 275.041088 l
106.239176 274.878202 l
106.874326 274.842293 l
107.529964 275.236335 l
109.480487 275.149682 l
110.136126 276.14595 l
110.81635 275.230237 l
112.91849 275.463209 l
113.561835 275.358175 l
116.954763 275.398735 l
117.729235 275.932484 l
118.44634 275.437871 l
121.113967 275.26757 l
121.781899 276.225842 l
122.441635 275.348728 l
123.720129 275.201799 l
125.74851 275.159123 l
126.404148 275.483188 l
127.084373 275.162775 l
127.821966 275.127978 l
128.526777 275.56622 l
129.161926 275.073734 l
131.247675 274.91615 l
131.931997 276.3457 l
132.550756 276.184712 l
133.181808 275.570093 l
133.792371 275.701097 l
134.448009 275.555055 l
135.828947 275.514172 l
136.587029 274.880876 l
140.561835 274.86273 l
143.172095 274.883759 l
144.426003 274.839061 l
145.66352 274.85895 l
146.892841 274.786281 l
149.343289 275.028157 l
150.55622 275.166228 l
151.744564 275.227056 l
157.018354 275.238376 l
158.36651 275.38738 l
161.636505 275.417666 l
167.004543 275.477023 l
168.393676 275.290319 l
171.725138 275.186469 l
172.475024 275.709114 l
173.052805 277.225621 l
173.737127 276.229643 l
175.032013 276.297893 l
179.043699 276.360087 l
179.728021 275.767241 l
181.637567 275.809159 l
182.350574 275.802763 l
182.998017 275.659781 l
184.448616 275.632634 l
187.837446 275.643719 l
188.435716 276.855503 l
189.091354 276.104606 l
190.373946 276.210049 l
193.975858 276.034509 l
194.656083 275.417645 l
196.868862 275.227155 l
200.540436 275.223649 l
201.187878 275.584344 l
208.772793 275.546391 l
216.488835 275.581672 l
217.931239 275.68001 l
218.648343 275.516084 l
222.254353 275.510079 l
223.049314 275.132616 l
224.61465 275.053685 l
225.298973 274.901701 l
228.052653 274.732486 l
229.363929 274.637205 l
230.798138 274.620532 l
231.457874 275.377482 l
232.121708 275.371488 l
232.867496 274.681869 l
233.617382 274.610486 l
234.367268 275.010877 l
235.186816 274.823687 l
236.633318 274.852882 l
237.280761 274.676873 l
237.977376 274.954515 l
241.599777 274.94198 l
242.304588 275.53314 l
243.013497 275.870009 l
243.763383 275.778337 l
244.517367 275.318308 l
246.013042 275.231592 l
247.570182 275.229609 l
248.340557 276.08756 l
249.160105 275.608064 l
252.995588 275.593931 l
261.047645 275.627043 l
276.741984 275.601235 l
277.40172 275.285722 l
280.024272 275.216266 l
280.647129 275.485412 l
282.560773 275.214299 l
287.121556 275.195955 l
287.789487 275.966045 l
288.453321 275.204382 l
293.223089 275.216993 l
295.374401 275.212509 l
296.038235 275.367729 l
296.730753 275.204215 l
300.902251 275.169316 l
301.566085 275.273124 l
302.901947 275.151507 l
304.278788 275.14301 l
304.881155 275.754547 l
305.532696 275.325715 l
307.016077 275.393444 l
309.13051 275.318573 l
309.864005 275.084314 l
316.793281 274.914805 l
317.395649 274.608269 l
319.4773 274.359312 l
323.370152 274.312473 l
361.938068 274.375575 l
361.938068 274.375575 l
stroke
grestore
gsave
42.35625 269.929864 m
42.35625 366.347255 l
grestore
gsave
377.15625 269.929864 m
377.15625 366.347255 l
grestore
gsave
42.35625 269.929864 m
377.15625 269.929864 l
grestore
gsave
42.35625 366.347255 m
377.15625 366.347255 l
grestore
0.300 setlinewidth
0 setlinejoin
0 setlinecap
0.800 setgray
gsave
49.35625 315.36288 m
146.16875 315.36288 l
147.502083 315.36288 148.16875 316.029547 148.16875 317.36288 c
148.16875 359.347255 l
148.16875 360.680589 147.502083 361.347255 146.16875 361.347255 c
49.35625 361.347255 l
48.022917 361.347255 47.35625 360.680589 47.35625 359.347255 c
47.35625 317.36288 l
47.35625 316.029547 48.022917 315.36288 49.35625 315.36288 c
cl
gsave
1.000 setgray
fill
grestore
stroke
grestore
0.150 setgray
/LiberationSans 10.000 selectfont
gsave

51.356250 350.097255 translate
0.000000 rotate
0.000000 0 m /M glyphshow
8.330078 0 m /e glyphshow
13.891602 0 m /a glyphshow
19.453125 0 m /n glyphshow
25.014648 0 m /space glyphshow
27.792969 0 m /l glyphshow
30.014648 0 m /a glyphshow
35.576172 0 m /n glyphshow
41.137695 0 m /d glyphshow
46.699219 0 m /m glyphshow
55.029297 0 m /a glyphshow
60.590820 0 m /r glyphshow
63.920898 0 m /k glyphshow
68.920898 0 m /space glyphshow
71.699219 0 m /e glyphshow
77.260742 0 m /r glyphshow
80.590820 0 m /r glyphshow
83.920898 0 m /o glyphshow
89.482422 0 m /r glyphshow
grestore
1.750 setlinewidth
1 setlinejoin
1 setlinecap
0.298 0.447 0.690 setrgbcolor
gsave
54.028125 339.26913 m
74.028125 339.26913 l
stroke
grestore
0.150 setgray
gsave

82.028125 335.769130 translate
0.000000 rotate
0.000000 0 m /P glyphshow
6.669922 0 m /o glyphshow
12.231445 0 m /s glyphshow
17.231445 0 m /i glyphshow
19.453125 0 m /t glyphshow
22.231445 0 m /i glyphshow
24.453125 0 m /o glyphshow
30.014648 0 m /n glyphshow
35.576172 0 m /space glyphshow
38.354492 0 m /e glyphshow
43.916016 0 m /r glyphshow
47.246094 0 m /r glyphshow
50.576172 0 m /o glyphshow
56.137695 0 m /r glyphshow
grestore
0.333 0.659 0.408 setrgbcolor
gsave
54.028125 324.941005 m
74.028125 324.941005 l
stroke
grestore
0.150 setgray
gsave

82.028125 321.441005 translate
0.000000 rotate
0.000000 0 m /D glyphshow
7.221680 0 m /B glyphshow
13.891602 0 m /H glyphshow
21.113281 0 m /space glyphshow
23.891602 0 m /e glyphshow
29.453125 0 m /r glyphshow
32.783203 0 m /r glyphshow
36.113281 0 m /o glyphshow
41.674805 0 m /r glyphshow
grestore
gsave
42.35625 154.228995 m
377.15625 154.228995 l
377.15625 250.646386 l
42.35625 250.646386 l
cl
0.918 0.918 0.949 setrgbcolor
fill
grestore
1.000 setlinewidth
1.000 setgray
gsave
334.8 96.417 42.356 154.229 clipbox
57.574432 154.228995 m
57.574432 250.646386 l
stroke
grestore
gsave
334.8 96.417 42.356 154.229 clipbox
108.796165 154.228995 m
108.796165 250.646386 l
stroke
grestore
gsave
334.8 96.417 42.356 154.229 clipbox
160.017898 154.228995 m
160.017898 250.646386 l
stroke
grestore
gsave
334.8 96.417 42.356 154.229 clipbox
211.239631 154.228995 m
211.239631 250.646386 l
stroke
grestore
gsave
334.8 96.417 42.356 154.229 clipbox
262.461365 154.228995 m
262.461365 250.646386 l
stroke
grestore
gsave
334.8 96.417 42.356 154.229 clipbox
313.683098 154.228995 m
313.683098 250.646386 l
stroke
grestore
gsave
334.8 96.417 42.356 154.229 clipbox
364.904831 154.228995 m
364.904831 250.646386 l
stroke
grestore
gsave
334.8 96.417 42.356 154.229 clipbox
42.35625 158.439403 m
377.15625 158.439403 l
stroke
grestore
0.150 setgray
gsave

29.793750 154.814403 translate
0.000000 rotate
0.000000 0 m /zero glyphshow
grestore
1.000 setgray
gsave
334.8 96.417 42.356 154.229 clipbox
42.35625 193.408822 m
377.15625 193.408822 l
stroke
grestore
0.150 setgray
gsave

29.793750 189.783822 translate
0.000000 rotate
0.000000 0 m /one glyphshow
grestore
1.000 setgray
gsave
334.8 96.417 42.356 154.229 clipbox
42.35625 228.37824 m
377.15625 228.37824 l
stroke
grestore
0.150 setgray
gsave

29.793750 224.753240 translate
0.000000 rotate
0.000000 0 m /two glyphshow
grestore
/LiberationSans 11.000 selectfont
gsave

23.512500 181.015815 translate
90.000000 rotate
0.000000 0 m /E glyphshow
7.336914 0 m /r glyphshow
11.000000 0 m /r glyphshow
14.663086 0 m /o glyphshow
20.780762 0 m /r glyphshow
24.443848 0 m /space glyphshow
27.500000 0 m /bracketleft glyphshow
30.556152 0 m /m glyphshow
39.719238 0 m /bracketright glyphshow
grestore
1.750 setlinewidth
1.000 0.000 0.000 setrgbcolor
gsave
334.8 96.417 42.356 154.229 clipbox
57.574432 165.574408 m
58.275145 165.108545 l
58.807851 164.981748 l
59.328264 165.267059 l
59.869165 164.106997 l
60.36909 163.591833 l
60.877209 166.238719 l
61.434502 166.411761 l
62.610553 167.392629 l
63.151454 169.142239 l
64.290625 171.270206 l
64.901189 172.684009 l
66.019871 174.184798 l
67.249193 178.516688 l
67.85156 179.83593 l
69.080882 180.81912 l
69.757009 183.56476 l
70.412647 182.965748 l
71.080578 183.780076 l
71.641969 187.331668 l
72.285314 183.529024 l
72.94505 186.205374 l
73.576101 186.666765 l
74.215348 185.079851 l
74.887378 188.906812 l
75.538918 187.347253 l
76.16997 189.358106 l
76.76824 193.506483 l
77.407487 190.68836 l
78.100005 196.773049 l
78.751545 195.123513 l
79.407183 195.557212 l
79.99316 196.500671 l
80.624212 198.656575 l
81.271654 199.33183 l
81.882218 199.534336 l
82.459999 201.174122 l
83.09105 201.726766 l
84.246613 204.326963 l
84.844883 204.265058 l
85.44725 205.658449 l
86.033227 206.707895 l
87.283037 210.28185 l
87.938675 212.10356 l
88.557434 214.165947 l
89.208974 217.317915 l
89.794951 218.454319 l
90.417807 221.315225 l
91.044761 220.718499 l
91.700399 221.698145 l
92.417504 219.295019 l
93.732878 218.667979 l
94.437689 219.876803 l
95.085131 220.531178 l
95.785845 225.442584 l
96.498851 221.48692 l
97.174978 223.042533 l
97.871594 224.946208 l
98.551818 226.181212 l
99.281216 226.920967 l
99.96144 226.151519 l
100.588394 224.367738 l
101.186664 224.614771 l
101.817716 224.387925 l
102.395497 221.418637 l
103.018354 223.965224 l
103.612526 224.04483 l
104.296848 228.381228 l
104.923802 229.477796 l
105.575342 229.620771 l
106.239176 230.753155 l
106.874326 235.824918 l
107.529964 236.172812 l
108.181504 238.148318 l
108.812556 242.497891 l
109.480487 239.693934 l
110.136126 243.92147 l
110.81635 241.81159 l
111.463793 241.379976 l
112.242363 242.167668 l
112.91849 241.873084 l
113.561835 243.291659 l
115.02063 240.417971 l
115.70905 242.906694 l
116.360591 236.743696 l
116.954763 238.237645 l
117.729235 234.226117 l
118.44634 232.764071 l
119.106075 230.67403 l
121.113967 226.530384 l
121.781899 224.959595 l
122.441635 223.739811 l
123.720129 220.825547 l
124.420843 218.682816 l
125.088774 217.41163 l
125.74851 215.677313 l
126.404148 213.093275 l
127.821966 212.324398 l
128.526777 211.138912 l
129.161926 210.705291 l
129.87903 211.108555 l
130.555157 208.086769 l
131.247675 207.037574 l
131.931997 204.771806 l
133.181808 202.069292 l
133.792371 201.292934 l
134.448009 199.308982 l
136.587029 194.27406 l
137.812252 189.901386 l
138.447402 189.291687 l
139.865219 184.471484 l
140.561835 182.356074 l
141.828036 186.636593 l
142.495968 186.160866 l
143.172095 187.273607 l
143.799049 189.692273 l
144.426003 186.274437 l
144.999686 187.55436 l
145.66352 183.237196 l
146.257692 183.036877 l
146.892841 186.991381 l
147.556675 181.790012 l
148.146749 181.993487 l
148.765508 183.85924 l
149.343289 184.281138 l
149.962048 183.706526 l
150.55622 186.409561 l
151.146294 184.55595 l
151.744564 184.872952 l
152.334638 187.77587 l
152.977983 188.495653 l
153.604937 188.676545 l
154.957191 183.262191 l
155.641513 185.838957 l
157.018354 193.875015 l
157.69448 189.433707 l
158.36651 188.243445 l
159.009854 186.519475 l
159.604027 189.40238 l
160.263763 187.209246 l
160.989062 186.1942 l
161.636505 187.857138 l
162.324925 189.13251 l
162.939586 189.615995 l
163.582931 192.640035 l
164.279546 194.513061 l
164.967966 197.178844 l
165.664582 198.603711 l
167.004543 203.808378 l
167.672474 201.514033 l
168.393676 201.593832 l
169.02063 203.908417 l
169.692659 203.104522 l
170.393372 201.184441 l
171.036717 206.070936 l
171.725138 203.809651 l
172.475024 205.908916 l
173.052805 203.177438 l
173.737127 203.375 l
174.380472 201.450805 l
175.032013 200.088534 l
175.695846 199.794707 l
176.330996 197.240636 l
177.003025 203.37292 l
177.720129 207.755175 l
178.359376 200.553864 l
179.043699 198.494482 l
179.728021 200.704577 l
180.297607 205.038805 l
180.940952 205.628953 l
181.637567 205.531954 l
182.350574 205.644377 l
182.998017 209.885078 l
183.739707 213.334768 l
184.448616 214.427101 l
185.153427 212.189253 l
185.85414 212.535956 l
187.222785 214.197942 l
188.435716 217.21648 l
189.701917 222.175145 l
190.373946 224.959783 l
191.066464 225.265696 l
191.787666 226.468301 l
192.545748 225.278278 l
193.271047 224.619064 l
193.975858 224.467846 l
194.656083 223.625577 l
195.455142 230.011813 l
196.155855 231.30854 l
196.868862 234.5421 l
197.692507 235.164761 l
198.380927 238.144036 l
199.073445 238.986078 l
199.815136 240.324376 l
200.540436 234.820808 l
201.187878 232.732031 l
201.81893 229.356345 l
202.552425 236.448686 l
203.240846 236.169851 l
203.949754 236.314782 l
204.68325 231.558585 l
205.383963 231.074072 l
206.105165 231.179829 l
206.764901 229.550287 l
207.441028 230.217006 l
208.08847 229.364767 l
208.772793 228.915661 l
209.493995 229.914349 l
210.153731 228.736124 l
210.887226 226.997765 l
211.469105 229.0588 l
212.206698 226.836153 l
212.89102 226.146344 l
213.604027 230.878433 l
215.091506 227.408835 l
215.779926 226.87418 l
216.488835 226.948867 l
217.279698 228.451106 l
217.931239 227.117885 l
218.648343 231.265797 l
219.398229 226.648314 l
220.13992 228.754361 l
220.857024 225.177026 l
221.557737 225.628592 l
222.254353 223.648106 l
223.049314 223.610994 l
223.823787 220.680588 l
224.61465 218.521307 l
225.298973 215.54425 l
225.991491 215.278044 l
226.704497 213.840903 l
227.356038 210.388272 l
228.052653 207.762359 l
228.704194 207.665156 l
229.363929 206.828111 l
230.093327 206.289736 l
230.798138 201.9218 l
232.121708 205.668304 l
232.867496 210.300352 l
233.617382 210.221261 l
234.367268 203.054997 l
235.186816 201.658601 l
235.932605 203.026247 l
236.633318 205.650053 l
237.280761 201.444188 l
238.633014 202.409895 l
239.407487 203.813238 l
240.128689 200.703566 l
240.87038 200.5263 l
241.599777 204.231348 l
242.304588 197.291511 l
243.013497 194.039372 l
243.763383 195.22589 l
244.517367 198.948491 l
245.209885 196.507847 l
246.013042 197.496673 l
246.824394 196.927595 l
247.570182 191.501606 l
249.160105 185.225058 l
249.955066 186.219375 l
250.713148 191.708302 l
251.413861 195.82116 l
252.237507 190.888053 l
252.995588 188.137861 l
253.802843 187.66423 l
254.519947 189.543424 l
255.970547 197.237657 l
256.650771 192.390852 l
257.376071 189.75982 l
258.121859 189.304909 l
258.802084 194.886937 l
259.556068 197.057459 l
261.047645 194.212305 l
261.748358 197.682097 l
262.55971 199.793452 l
263.916062 205.124016 l
264.612677 205.316441 l
265.346173 205.823611 l
266.059179 209.113857 l
266.788577 205.751745 l
267.554854 206.03527 l
268.202296 207.536345 l
268.878423 207.506292 l
269.587332 208.674911 l
270.87812 211.974425 l
271.488683 211.094646 l
272.173005 214.261122 l
272.795861 212.194184 l
273.390034 209.432469 l
273.97601 216.429993 l
274.680821 214.676617 l
275.361046 217.993286 l
276.049466 217.617526 l
277.40172 220.373012 l
278.045065 222.923848 l
278.672019 224.227276 l
279.352243 225.990407 l
280.024272 226.707187 l
280.647129 229.175798 l
281.269985 232.768754 l
283.212313 239.158973 l
284.515394 241.750287 l
285.179228 244.574217 l
285.793888 240.335997 l
286.490504 240.450233 l
287.121556 242.959493 l
287.789487 244.91902 l
288.453321 246.108956 l
289.08847 245.10709 l
289.809672 246.263777 l
291.125046 242.303528 l
291.743805 243.563504 l
292.51418 242.176083 l
293.223089 242.491853 l
294.681884 240.44906 l
295.374401 242.287376 l
296.038235 240.05791 l
296.730753 240.33103 l
297.435564 237.104809 l
298.181352 234.540915 l
298.845186 236.445395 l
299.492629 234.136109 l
300.189244 233.00739 l
300.902251 232.221908 l
301.566085 231.9454 l
302.197136 230.630072 l
302.901947 229.423706 l
303.627247 230.617246 l
304.278788 226.700758 l
304.881155 229.989291 l
305.532696 226.343166 l
306.262093 226.452329 l
307.016077 226.998052 l
307.712693 222.696212 l
308.433895 221.138852 l
309.13051 218.576644 l
309.864005 218.432742 l
310.568816 220.235841 l
311.257236 221.438115 l
311.933363 220.531847 l
312.605393 217.016796 l
313.326595 216.813843 l
314.756705 220.854529 l
315.432832 214.402241 l
316.108959 218.624823 l
316.793281 213.150783 l
318.055385 215.394661 l
318.805271 213.12723 l
319.4773 210.190483 l
320.157525 206.385941 l
320.817261 205.552357 l
321.472899 202.460403 l
322.112146 201.530374 l
322.726807 199.229458 l
323.370152 195.731524 l
324.042181 196.208444 l
324.742894 201.427302 l
325.435412 200.182552 l
326.148419 201.587211 l
326.85323 198.104068 l
327.529357 195.95755 l
328.295634 199.075731 l
328.902099 199.230372 l
329.651985 203.059091 l
330.389578 197.716927 l
331.016532 196.141365 l
331.696757 199.461849 l
332.385177 200.380926 l
332.954763 198.048468 l
333.598108 201.115999 l
334.175889 198.332829 l
334.79055 197.307209 l
335.347842 197.565959 l
335.987089 195.419403 l
336.577164 196.568696 l
337.175433 195.807113 l
337.777801 195.802451 l
338.343289 193.61516 l
338.92107 194.684602 l
339.461972 192.189822 l
340.068437 190.311497 l
340.744564 192.102226 l
341.33054 190.856505 l
341.92881 189.21425 l
342.514787 191.493791 l
343.137643 188.652064 l
343.768695 189.160696 l
344.387454 188.020884 l
345.030798 188.600374 l
346.22324 186.983526 l
346.837901 187.041583 l
347.468953 184.292737 l
348.079516 184.779615 l
348.661395 185.847393 l
349.30474 184.810306 l
350.480791 185.263848 l
351.165113 184.759024 l
351.78797 185.376795 l
353.021389 185.872132 l
354.779319 195.580515 l
356.000445 195.510295 l
361.938068 195.510434 l
361.938068 195.510434 l
stroke
grestore
0.502 0.000 0.502 setrgbcolor
gsave
334.8 96.417 42.356 154.229 clipbox
57.574432 159.776961 m
58.807851 159.994987 l
59.328264 160.200149 l
59.869165 159.473798 l
60.36909 159.217278 l
60.877209 159.235483 l
62.024576 160.297832 l
62.610553 160.041787 l
63.151454 160.32282 l
63.700551 159.551542 l
64.290625 159.028153 l
64.901189 159.044444 l
65.450286 158.75478 l
66.605848 159.006106 l
67.249193 159.539982 l
67.85156 159.632561 l
68.453928 159.372645 l
69.080882 159.582047 l
69.757009 159.495151 l
70.412647 159.556217 l
71.641969 159.082169 l
72.285314 159.102392 l
72.94505 159.302584 l
73.576101 159.747488 l
74.215348 159.435906 l
74.887378 159.525035 l
75.538918 158.977526 l
76.16997 158.684036 l
76.76824 158.85343 l
77.407487 159.283715 l
79.99316 159.899109 l
81.271654 159.63898 l
81.882218 158.862355 l
82.459999 159.361023 l
83.09105 158.912622 l
86.033227 159.955 l
87.283037 160.265469 l
87.938675 160.258946 l
88.557434 159.808946 l
89.208974 159.815196 l
89.794951 160.428643 l
90.417807 160.851902 l
91.044761 160.661672 l
91.700399 161.013056 l
92.417504 161.60525 l
93.09363 161.711028 l
93.732878 162.070748 l
94.437689 161.568805 l
95.085131 161.912474 l
95.785845 162.42275 l
96.498851 162.490441 l
97.871594 161.994604 l
98.551818 162.286504 l
99.281216 161.895433 l
99.96144 161.071037 l
100.588394 161.435416 l
101.186664 161.316117 l
102.395497 161.856039 l
103.018354 161.705816 l
103.612526 160.872548 l
104.296848 160.933697 l
104.923802 160.755596 l
105.575342 160.714977 l
106.239176 160.353084 l
106.874326 161.089006 l
107.529964 161.347302 l
108.181504 161.236383 l
108.812556 160.507805 l
109.480487 160.705251 l
110.81635 161.70607 l
111.463793 161.606018 l
112.242363 161.872892 l
112.91849 162.394484 l
114.336308 163.82914 l
115.02063 163.612343 l
115.70905 163.828048 l
116.360591 163.294598 l
116.954763 163.446775 l
117.729235 162.952016 l
118.44634 163.60602 l
119.106075 163.366535 l
119.778105 163.372852 l
121.113967 163.624787 l
121.781899 163.516127 l
123.089077 162.981021 l
123.720129 163.935278 l
124.420843 163.596006 l
125.088774 163.640676 l
125.74851 163.92124 l
126.404148 162.585699 l
127.084373 162.965423 l
127.821966 163.043484 l
128.526777 162.634927 l
129.161926 162.76589 l
129.87903 162.74684 l
130.555157 162.843185 l
131.247675 161.910292 l
131.931997 161.855242 l
132.550756 162.292743 l
133.792371 162.247164 l
135.15282 162.202522 l
135.828947 161.777475 l
136.587029 161.759161 l
137.189396 161.558934 l
138.447402 162.129209 l
139.865219 161.078915 l
141.176496 161.66577 l
141.828036 162.159724 l
142.495968 161.39758 l
143.172095 162.535174 l
143.799049 162.381218 l
144.999686 162.721547 l
145.66352 162.447203 l
146.257692 162.667981 l
146.892841 162.400091 l
148.146749 160.968033 l
148.765508 160.516411 l
149.343289 160.328603 l
149.962048 159.846036 l
150.55622 159.759298 l
151.146294 159.035886 l
151.744564 158.837101 l
152.334638 159.173373 l
152.977983 159.937285 l
153.604937 159.721315 l
154.264673 160.548098 l
154.957191 160.983074 l
155.641513 161.030422 l
156.313542 160.73698 l
157.018354 160.70877 l
157.69448 161.028818 l
159.009854 160.412524 l
160.263763 159.314409 l
160.989062 159.320786 l
162.324925 159.792805 l
162.939586 159.915383 l
163.582931 159.838147 l
164.279546 160.070162 l
164.967966 159.48545 l
165.664582 159.780221 l
166.365295 159.792318 l
167.004543 160.152618 l
167.672474 160.355552 l
168.393676 160.368382 l
169.02063 160.225149 l
169.692659 161.06626 l
170.393372 160.832181 l
171.036717 160.244198 l
172.475024 159.808542 l
173.052805 159.332937 l
173.737127 159.629817 l
174.380472 159.57606 l
175.695846 160.121941 l
176.330996 159.971335 l
177.003025 159.329204 l
177.720129 159.301069 l
178.359376 162.028224 l
179.043699 163.147407 l
180.297607 161.288894 l
180.940952 161.213218 l
181.637567 160.954854 l
182.350574 160.828268 l
182.998017 160.156507 l
183.739707 160.140523 l
184.448616 159.889602 l
185.153427 160.179205 l
185.85414 160.34256 l
186.534365 160.856817 l
187.222785 160.254714 l
187.837446 161.13647 l
188.435716 159.93252 l
189.091354 160.214727 l
189.701917 160.943818 l
190.373946 161.289248 l
191.787666 161.809206 l
192.545748 160.702438 l
193.271047 161.537529 l
193.975858 161.29073 l
194.656083 161.639013 l
196.155855 161.564102 l
197.692507 161.728583 l
198.380927 161.193538 l
199.073445 161.52034 l
199.815136 161.696763 l
200.540436 161.694147 l
203.240846 159.56165 l
205.383963 161.925615 l
206.764901 163.780269 l
207.441028 164.01224 l
208.08847 163.805577 l
209.493995 164.319473 l
210.153731 164.802874 l
211.469105 163.622542 l
212.89102 163.540721 l
213.604027 163.054723 l
215.091506 162.579322 l
215.779926 162.0069 l
217.279698 161.3721 l
217.931239 161.441898 l
218.648343 161.151799 l
220.13992 160.986549 l
220.857024 161.265821 l
221.557737 161.982672 l
222.254353 161.177437 l
223.049314 162.1704 l
223.823787 161.375913 l
224.61465 162.19762 l
225.298973 161.907877 l
225.991491 162.527672 l
226.704497 162.84225 l
227.356038 162.906048 l
228.052653 162.479832 l
229.363929 162.178029 l
230.093327 162.420116 l
230.798138 162.106868 l
231.457874 162.370047 l
232.121708 161.896559 l
232.867496 161.945613 l
233.617382 162.2643 l
234.367268 162.38988 l
235.186816 162.792769 l
237.280761 161.611884 l
237.977376 161.610269 l
238.633014 161.838361 l
240.128689 160.301953 l
240.87038 160.160501 l
241.599777 160.576448 l
242.304588 160.357333 l
243.013497 160.385757 l
243.763383 161.028119 l
244.517367 160.782373 l
245.209885 161.11541 l
246.013042 162.329409 l
246.824394 161.457196 l
247.570182 161.02346 l
248.340557 160.720225 l
249.955066 160.796297 l
251.413861 161.402391 l
252.237507 161.177488 l
253.802843 161.520394 l
254.519947 160.938398 l
255.970547 160.962235 l
256.650771 160.246937 l
257.376071 160.526321 l
258.121859 160.234309 l
258.802084 160.295522 l
259.556068 160.047645 l
260.289563 159.958136 l
261.047645 159.427333 l
261.748358 158.791525 l
262.55971 158.925433 l
263.239935 159.623863 l
263.916062 159.217817 l
264.612677 158.988314 l
265.346173 158.90131 l
266.059179 158.611603 l
266.788577 159.244768 l
268.878423 159.492873 l
269.587332 159.956965 l
270.230677 159.920086 l
270.87812 159.67166 l
271.488683 159.816915 l
272.173005 160.243577 l
273.390034 161.360744 l
274.680821 160.929403 l
276.049466 160.2418 l
276.741984 160.206735 l
277.40172 160.512999 l
278.045065 159.815429 l
279.352243 160.256359 l
280.024272 159.526447 l
280.647129 159.746933 l
281.884646 159.629256 l
282.560773 160.395411 l
283.212313 160.27331 l
284.515394 160.932339 l
285.179228 160.780152 l
285.793888 159.813835 l
286.490504 160.700246 l
287.121556 159.722636 l
287.789487 160.565284 l
289.08847 160.977067 l
291.125046 163.028695 l
291.743805 162.95567 l
292.51418 163.784863 l
293.223089 163.816812 l
293.977073 164.498817 l
295.374401 163.916986 l
296.038235 164.583054 l
296.730753 163.757007 l
297.435564 164.048149 l
298.181352 162.956439 l
298.845186 162.706805 l
299.492629 161.664227 l
300.189244 162.061282 l
300.902251 162.073903 l
301.566085 162.25066 l
302.197136 160.989003 l
302.901947 161.875298 l
303.627247 161.179554 l
304.278788 161.469524 l
304.881155 161.582112 l
305.532696 161.914768 l
306.262093 161.721696 l
307.016077 162.147601 l
307.712693 162.27706 l
308.433895 162.534743 l
309.13051 161.886101 l
309.864005 162.122932 l
310.568816 161.289181 l
311.257236 161.947128 l
312.605393 162.815249 l
313.326595 162.360099 l
314.051894 161.770404 l
314.756705 162.223539 l
315.432832 162.228877 l
316.108959 161.87903 l
316.793281 162.747701 l
317.395649 162.848045 l
318.055385 162.475456 l
319.4773 161.961697 l
320.157525 161.627447 l
321.472899 161.959124 l
322.112146 161.934863 l
323.370152 161.273884 l
325.435412 160.861963 l
327.529357 160.895259 l
329.651985 161.847154 l
331.696757 162.959072 l
332.385177 163.571186 l
332.954763 163.267578 l
333.598108 163.450995 l
334.175889 162.875804 l
334.79055 162.461868 l
335.347842 161.565473 l
335.987089 162.305308 l
336.577164 161.345853 l
337.175433 161.948668 l
337.777801 162.288712 l
338.92107 162.696387 l
339.461972 162.27105 l
340.068437 161.070592 l
340.744564 161.450479 l
341.92881 161.21332 l
342.514787 162.020178 l
343.137643 161.214427 l
343.768695 161.974445 l
344.387454 161.04704 l
345.030798 160.523267 l
345.624971 161.243013 l
346.22324 160.355719 l
346.837901 160.349583 l
347.468953 160.007667 l
348.661395 160.309243 l
349.30474 160.014046 l
349.898912 160.102604 l
350.480791 159.537303 l
351.165113 159.478568 l
351.78797 160.087544 l
352.398533 160.312615 l
353.021389 160.400252 l
353.611463 160.276496 l
354.779319 159.515316 l
355.406273 159.012206 l
356.602812 159.076531 l
357.262548 159.28783 l
358.40172 159.118166 l
358.96311 159.207735 l
359.528598 159.097312 l
360.184236 159.171476 l
360.77431 159.09003 l
361.376678 159.318003 l
361.938068 159.237361 l
361.938068 159.237361 l
stroke
grestore
gsave
42.35625 154.228995 m
42.35625 250.646386 l
grestore
gsave
377.15625 154.228995 m
377.15625 250.646386 l
grestore
gsave
42.35625 154.228995 m
377.15625 154.228995 l
grestore
gsave
42.35625 250.646386 m
377.15625 250.646386 l
grestore
0.300 setlinewidth
0 setlinejoin
0 setlinecap
0.800 setgray
gsave
49.35625 199.662011 m
141.73125 199.662011 l
143.064583 199.662011 143.73125 200.328678 143.73125 201.662011 c
143.73125 243.646386 l
143.73125 244.979719 143.064583 245.646386 141.73125 245.646386 c
49.35625 245.646386 l
48.022917 245.646386 47.35625 244.979719 47.35625 243.646386 c
47.35625 201.662011 l
47.35625 200.328678 48.022917 199.662011 49.35625 199.662011 c
cl
gsave
1.000 setgray
fill
grestore
stroke
grestore
0.150 setgray
/LiberationSans 10.000 selectfont
gsave

51.356250 234.396386 translate
0.000000 rotate
0.000000 0 m /D glyphshow
7.221680 0 m /r glyphshow
10.551758 0 m /o glyphshow
16.113281 0 m /n glyphshow
21.674805 0 m /e glyphshow
27.236328 0 m /space glyphshow
30.014648 0 m /p glyphshow
35.576172 0 m /o glyphshow
41.137695 0 m /s glyphshow
46.137695 0 m /i glyphshow
48.359375 0 m /t glyphshow
51.137695 0 m /i glyphshow
53.359375 0 m /o glyphshow
58.920898 0 m /n glyphshow
64.482422 0 m /space glyphshow
67.260742 0 m /e glyphshow
72.822266 0 m /r glyphshow
76.152344 0 m /r glyphshow
79.482422 0 m /o glyphshow
85.043945 0 m /r glyphshow
grestore
1.750 setlinewidth
1 setlinejoin
1 setlinecap
1.000 0.000 0.000 setrgbcolor
gsave
62.926563 223.568261 m
82.926563 223.568261 l
stroke
grestore
0.150 setgray
gsave

90.926563 220.068261 translate
0.000000 rotate
0.000000 0 m /S glyphshow
6.669922 0 m /L glyphshow
12.231445 0 m /O glyphshow
20.009766 0 m /A glyphshow
26.679688 0 m /M glyphshow
grestore
0.502 0.000 0.502 setrgbcolor
gsave
62.926563 209.240136 m
82.926563 209.240136 l
stroke
grestore
0.150 setgray
gsave

90.926563 205.740136 translate
0.000000 rotate
0.000000 0 m /P glyphshow
6.669922 0 m /i glyphshow
8.891602 0 m /x glyphshow
13.891602 0 m /h glyphshow
19.453125 0 m /a glyphshow
25.014648 0 m /w glyphshow
32.236328 0 m /k glyphshow
grestore
gsave
42.35625 38.528125 m
377.15625 38.528125 l
377.15625 134.945516 l
42.35625 134.945516 l
cl
0.918 0.918 0.949 setrgbcolor
fill
grestore
1.000 setlinewidth
1.000 setgray
gsave
334.8 96.417 42.356 38.528 clipbox
57.574432 38.528125 m
57.574432 134.945516 l
stroke
grestore
0.150 setgray
gsave

54.793182 24.278125 translate
0.000000 rotate
0.000000 0 m /zero glyphshow
grestore
1.000 setgray
gsave
334.8 96.417 42.356 38.528 clipbox
108.796165 38.528125 m
108.796165 134.945516 l
stroke
grestore
0.150 setgray
gsave

103.233665 24.278125 translate
0.000000 rotate
0.000000 0 m /five glyphshow
5.561523 0 m /zero glyphshow
grestore
1.000 setgray
gsave
334.8 96.417 42.356 38.528 clipbox
160.017898 38.528125 m
160.017898 134.945516 l
stroke
grestore
0.150 setgray
gsave

151.674148 24.278125 translate
0.000000 rotate
0.000000 0 m /one glyphshow
5.561523 0 m /zero glyphshow
11.123047 0 m /zero glyphshow
grestore
1.000 setgray
gsave
334.8 96.417 42.356 38.528 clipbox
211.239631 38.528125 m
211.239631 134.945516 l
stroke
grestore
0.150 setgray
gsave

202.895881 24.278125 translate
0.000000 rotate
0.000000 0 m /one glyphshow
5.561523 0 m /five glyphshow
11.123047 0 m /zero glyphshow
grestore
1.000 setgray
gsave
334.8 96.417 42.356 38.528 clipbox
262.461365 38.528125 m
262.461365 134.945516 l
stroke
grestore
0.150 setgray
gsave

254.117615 24.278125 translate
0.000000 rotate
0.000000 0 m /two glyphshow
5.561523 0 m /zero glyphshow
11.123047 0 m /zero glyphshow
grestore
1.000 setgray
gsave
334.8 96.417 42.356 38.528 clipbox
313.683098 38.528125 m
313.683098 134.945516 l
stroke
grestore
0.150 setgray
gsave

305.339348 24.278125 translate
0.000000 rotate
0.000000 0 m /two glyphshow
5.561523 0 m /five glyphshow
11.123047 0 m /zero glyphshow
grestore
1.000 setgray
gsave
334.8 96.417 42.356 38.528 clipbox
364.904831 38.528125 m
364.904831 134.945516 l
stroke
grestore
0.150 setgray
gsave

356.561081 24.278125 translate
0.000000 rotate
0.000000 0 m /three glyphshow
5.561523 0 m /zero glyphshow
11.123047 0 m /zero glyphshow
grestore
gsave
200.256250 10.200000 translate
0.000000 rotate
/DejaVuSans-Oblique 11.0 selectfont
0.000000 0.031250 moveto
/t glyphshow
/LiberationSans 11.0 selectfont
4.312988 0.031250 moveto
/space glyphshow
7.369141 0.031250 moveto
/bracketleft glyphshow
10.425293 0.031250 moveto
/s glyphshow
15.925293 0.031250 moveto
/bracketright glyphshow
grestore
1.000 setgray
gsave
334.8 96.417 42.356 38.528 clipbox
42.35625 41.640412 m
377.15625 41.640412 l
stroke
grestore
0.150 setgray
gsave

29.793750 38.015412 translate
0.000000 rotate
0.000000 0 m /zero glyphshow
grestore
1.000 setgray
gsave
334.8 96.417 42.356 38.528 clipbox
42.35625 67.04684 m
377.15625 67.04684 l
stroke
grestore
0.150 setgray
gsave

24.231250 63.421840 translate
0.000000 rotate
0.000000 0 m /two glyphshow
5.561523 0 m /zero glyphshow
grestore
1.000 setgray
gsave
334.8 96.417 42.356 38.528 clipbox
42.35625 92.453267 m
377.15625 92.453267 l
stroke
grestore
0.150 setgray
gsave

24.231250 88.828267 translate
0.000000 rotate
0.000000 0 m /four glyphshow
5.561523 0 m /zero glyphshow
grestore
1.000 setgray
gsave
334.8 96.417 42.356 38.528 clipbox
42.35625 117.859694 m
377.15625 117.859694 l
stroke
grestore
0.150 setgray
gsave

24.231250 114.234694 translate
0.000000 rotate
0.000000 0 m /six glyphshow
5.561523 0 m /zero glyphshow
grestore
/LiberationSans 11.000 selectfont
gsave

17.950000 64.393071 translate
90.000000 rotate
0.000000 0 m /C glyphshow
7.943848 0 m /o glyphshow
14.061523 0 m /u glyphshow
20.179199 0 m /n glyphshow
26.296875 0 m /t glyphshow
29.353027 0 m /space glyphshow
32.409180 0 m /bracketleft glyphshow
35.465332 0 m /numbersign glyphshow
41.583008 0 m /bracketright glyphshow
grestore
1.750 setlinewidth
0.000 setgray
gsave
334.8 96.417 42.356 38.528 clipbox
57.574432 42.910734 m
58.275145 42.910734 l
58.807851 44.181055 l
61.434502 44.181055 l
62.024576 45.451376 l
63.700551 45.451376 l
64.901189 47.992019 l
65.450286 47.992019 l
66.605848 50.532662 l
69.757009 50.532662 l
70.412647 51.802983 l
71.641969 51.802983 l
72.285314 53.073305 l
73.576101 53.073305 l
75.538918 56.884269 l
78.100005 56.884269 l
79.407183 59.424911 l
79.99316 59.424911 l
80.624212 60.695233 l
84.246613 60.695233 l
85.44725 63.235875 l
87.283037 63.235875 l
87.938675 64.506197 l
91.700399 64.506197 l
92.417504 65.776518 l
95.785845 65.776518 l
96.498851 67.04684 l
97.871594 67.04684 l
99.281216 69.587482 l
101.817716 69.587482 l
102.395497 70.857804 l
103.612526 70.857804 l
105.575342 74.668768 l
106.874326 74.668768 l
107.529964 75.939089 l
109.480487 75.939089 l
110.136126 77.20941 l
112.242363 77.20941 l
113.561835 79.750053 l
116.954763 79.750053 l
117.729235 81.020375 l
121.113967 81.020375 l
121.781899 82.290696 l
125.74851 82.290696 l
126.404148 83.561017 l
127.821966 83.561017 l
128.526777 84.831339 l
131.247675 84.831339 l
131.931997 86.10166 l
133.181808 86.10166 l
133.792371 87.371981 l
135.828947 87.371981 l
136.587029 88.642303 l
149.962048 88.642303 l
150.55622 89.912624 l
157.018354 89.912624 l
157.69448 91.182945 l
171.725138 91.182945 l
172.475024 92.453267 l
173.052805 94.993909 l
187.837446 94.993909 l
188.435716 96.264231 l
192.545748 96.264231 l
193.271047 97.534552 l
200.540436 97.534552 l
201.187878 98.804874 l
216.488835 98.804874 l
217.279698 101.345516 l
217.931239 102.615838 l
223.049314 102.615838 l
224.61465 105.15648 l
230.798138 105.15648 l
231.457874 106.426802 l
233.617382 106.426802 l
234.367268 107.697123 l
237.280761 107.697123 l
237.977376 110.237766 l
241.599777 110.237766 l
243.013497 112.778409 l
247.570182 112.778409 l
248.340557 114.04873 l
280.024272 114.04873 l
280.647129 115.319051 l
283.212313 115.319051 l
283.855658 116.589373 l
285.793888 116.589373 l
286.490504 117.859694 l
287.121556 117.859694 l
287.789487 119.130015 l
295.374401 119.130015 l
296.038235 120.400337 l
300.902251 120.400337 l
301.566085 121.670658 l
304.278788 121.670658 l
304.881155 122.940979 l
314.051894 122.940979 l
314.756705 124.211301 l
316.108959 124.211301 l
316.793281 125.481622 l
317.395649 125.481622 l
318.055385 126.751944 l
361.938068 126.751944 l
361.938068 126.751944 l
stroke
grestore
0 setlinecap
[6.475 2.8] 0 setdash
0.502 setgray
gsave
334.8 96.417 42.356 38.528 clipbox
57.574432 130.562908 m
233.617382 130.562908 l
234.367268 92.453267 l
235.186816 130.562908 l
361.938068 130.562908 l
361.938068 130.562908 l
stroke
grestore
gsave
42.35625 38.528125 m
42.35625 134.945516 l
grestore
gsave
377.15625 38.528125 m
377.15625 134.945516 l
grestore
gsave
42.35625 38.528125 m
377.15625 38.528125 l
grestore
gsave
42.35625 134.945516 m
377.15625 134.945516 l
grestore
0.300 setlinewidth
0 setlinejoin
[] 0 setdash
0.800 setgray
gsave
49.35625 83.961141 m
148.95 83.961141 l
150.283333 83.961141 150.95 84.627808 150.95 85.961141 c
150.95 127.945516 l
150.95 129.27885 150.283333 129.945516 148.95 129.945516 c
49.35625 129.945516 l
48.022917 129.945516 47.35625 129.27885 47.35625 127.945516 c
47.35625 85.961141 l
47.35625 84.627808 48.022917 83.961141 49.35625 83.961141 c
cl
gsave
1.000 setgray
fill
grestore
stroke
grestore
0.150 setgray
/LiberationSans 10.000 selectfont
gsave

51.356250 118.695516 translate
0.000000 rotate
0.000000 0 m /N glyphshow
7.221680 0 m /u glyphshow
12.783203 0 m /m glyphshow
21.113281 0 m /b glyphshow
26.674805 0 m /e glyphshow
32.236328 0 m /r glyphshow
35.566406 0 m /space glyphshow
38.344727 0 m /o glyphshow
43.906250 0 m /f glyphshow
46.684570 0 m /space glyphshow
49.462891 0 m /l glyphshow
51.684570 0 m /a glyphshow
57.246094 0 m /n glyphshow
62.807617 0 m /d glyphshow
68.369141 0 m /m glyphshow
76.699219 0 m /a glyphshow
82.260742 0 m /r glyphshow
85.590820 0 m /k glyphshow
90.590820 0 m /s glyphshow
grestore
1.750 setlinewidth
1 setlinejoin
1 setlinecap
0.000 setgray
gsave
57.075 107.867391 m
77.075 107.867391 l
stroke
grestore
0.150 setgray
gsave

85.075000 104.367391 translate
0.000000 rotate
0.000000 0 m /S glyphshow
6.669922 0 m /L glyphshow
12.231445 0 m /O glyphshow
20.009766 0 m /A glyphshow
26.679688 0 m /M glyphshow
grestore
0 setlinecap
[6.475 2.8] 0 setdash
0.502 setgray
gsave
57.075 93.539266 m
77.075 93.539266 l
stroke
grestore
0.150 setgray
gsave

85.075000 90.039266 translate
0.000000 rotate
0.000000 0 m /G glyphshow
7.778320 0 m /r glyphshow
11.108398 0 m /o glyphshow
16.669922 0 m /u glyphshow
22.231445 0 m /n glyphshow
27.792969 0 m /d glyphshow
33.354492 0 m /space glyphshow
36.132812 0 m /t glyphshow
38.911133 0 m /r glyphshow
42.241211 0 m /u glyphshow
47.802734 0 m /t glyphshow
50.581055 0 m /h glyphshow
grestore

end
showpage
