%!PS-Adobe-3.0 EPSF-3.0
%%Title: sloam_acc.eps
%%Creator: Matplotlib v3.4.3, https://matplotlib.org/
%%CreationDate: Thu May 26 21:42:44 2022
%%Orientation: portrait
%%BoundingBox: 112 149 500 643
%%HiResBoundingBox: 112.431250 149.782610 499.568750 642.217390
%%EndComments
%%BeginProlog
/mpldict 12 dict def
mpldict begin
/_d { bind def } bind def
/m { moveto } _d
/l { lineto } _d
/r { rlineto } _d
/c { curveto } _d
/cl { closepath } _d
/ce { closepath eofill } _d
/box {
      m
      1 index 0 r
      0 exch r
      neg 0 r
      cl
    } _d
/clipbox {
      box
      clip
      newpath
    } _d
/sc { setcachedevice } _d
%!PS-Adobe-3.0 Resource-Font
%%Creator: Converted from TrueType to Type 3 by Matplotlib.
10 dict begin
/FontName /LiberationSans def
/PaintType 0 def
/FontMatrix [0.00048828125 0 0 0.00048828125 0 0] def
/FontBBox [-1114 -621 2666 2007] def
/FontType 3 def
/Encoding [/space /numbersign /period /zero /one /two /four /five /six /A /B /C /D /E /G /H /L /M /N /O /P /S /bracketleft /bracketright /a /b /c /d /e /f /h /i /k /l /m /n /o /p /r /s /t /u /w /x] def
/CharStrings 45 dict dup begin
/.notdef 0 def
/space{569 0 0 0 0 0 sc
ce} _d
/numbersign{1139 0 9 0 1129 1401 sc
896 885 m
818 516 l
1078 516 l
1078 408 l
795 408 l
707 0 l
597 0 l
683 408 l
320 408 l
236 0 l
126 0 l
210 408 l
9 408 l
9 516 l
234 516 l
312 885 l
60 885 l
60 993 l
334 993 l
423 1401 l
533 1401 l
445 993 l
808 993 l
896 1401 l
1006 1401 l
918 993 l
1129 993 l
1129 885 l
896 885 l

425 885 m
345 516 l
707 516 l
785 885 l
425 885 l

ce} _d
/period{569 0 187 0 382 219 sc
187 0 m
187 219 l
382 219 l
382 0 l
187 0 l

ce} _d
/zero{1139 0 80 -20 1059 1430 sc
1059 705 m
1059 470 1017 290 934 166 c
851 42 729 -20 567 -20 c
405 -20 283 42 202 165 c
121 288 80 468 80 705 c
80 947 119 1128 198 1249 c
277 1370 402 1430 573 1430 c
739 1430 861 1369 940 1247 c
1019 1125 1059 944 1059 705 c

876 705 m
876 908 852 1056 805 1147 c
758 1238 681 1284 573 1284 c
462 1284 383 1239 334 1149 c
286 1059 262 911 262 705 c
262 505 286 359 335 266 c
384 173 462 127 569 127 c
675 127 753 174 802 269 c
851 364 876 509 876 705 c

ce} _d
/one{1139 0 156 0 1039 1409 sc
156 0 m
156 153 l
515 153 l
515 1237 l
197 1010 l
197 1180 l
530 1409 l
696 1409 l
696 153 l
1039 153 l
1039 0 l
156 0 l

ce} _d
/two{1139 0 103 0 1036 1430 sc
103 0 m
103 127 l
137 205 178 274 227 333 c
276 393 328 447 382 495 c
436 544 489 589 542 630 c
595 671 643 713 686 754 c
729 795 763 839 789 884 c
816 929 829 981 829 1038 c
829 1115 806 1175 761 1218 c
716 1261 653 1282 572 1282 c
495 1282 432 1261 382 1219 c
333 1178 304 1119 295 1044 c
111 1061 l
124 1174 172 1263 254 1330 c
337 1397 443 1430 572 1430 c
714 1430 823 1396 899 1329 c
976 1262 1014 1167 1014 1044 c
1014 989 1001 935 976 881 c
951 827 914 773 865 719 c
816 665 721 581 582 468 c
505 405 444 349 399 298 c
354 248 321 200 301 153 c
1036 153 l
1036 0 l
103 0 l

ce} _d
/four{1139 0 47 0 1079 1409 sc
881 319 m
881 0 l
711 0 l
711 319 l
47 319 l
47 459 l
692 1409 l
881 1409 l
881 461 l
1079 461 l
1079 319 l
881 319 l

711 1206 m
710 1202 700 1184 683 1153 c
666 1122 653 1100 644 1087 c
283 555 l
229 481 l
213 461 l
711 461 l
711 1206 l

ce} _d
/five{1139 0 82 -20 1053 1409 sc
1053 459 m
1053 310 1009 193 920 108 c
832 23 710 -20 553 -20 c
422 -20 316 9 235 66 c
154 123 103 206 82 315 c
264 336 l
302 197 400 127 557 127 c
654 127 729 156 784 214 c
839 273 866 353 866 455 c
866 544 838 615 783 670 c
728 725 654 752 561 752 c
512 752 467 744 425 729 c
383 714 341 688 299 651 c
123 651 l
170 1409 l
971 1409 l
971 1256 l
334 1256 l
307 809 l
385 869 482 899 598 899 c
737 899 847 858 929 777 c
1012 696 1053 590 1053 459 c

ce} _d
/six{1139 0 104 -20 1049 1430 sc
1049 461 m
1049 312 1009 195 928 109 c
847 23 736 -20 594 -20 c
435 -20 314 39 230 157 c
146 275 104 447 104 672 c
104 916 148 1103 235 1234 c
322 1365 447 1430 608 1430 c
821 1430 955 1334 1010 1143 c
838 1112 l
803 1227 725 1284 606 1284 c
503 1284 424 1236 367 1140 c
311 1045 283 906 283 725 c
316 786 362 832 421 863 c
480 895 548 911 625 911 c
755 911 858 870 934 789 c
1011 708 1049 598 1049 461 c

866 453 m
866 555 841 634 791 689 c
741 744 671 772 582 772 c
498 772 430 747 378 698 c
327 649 301 582 301 496 c
301 387 328 298 381 229 c
435 160 504 125 588 125 c
675 125 743 154 792 212 c
841 271 866 351 866 453 c

ce} _d
/A{1366 0 4 0 1362 1409 sc
1167 0 m
1006 412 l
364 412 l
202 0 l
4 0 l
579 1409 l
796 1409 l
1362 0 l
1167 0 l

685 1265 m
676 1237 l
659 1182 635 1111 602 1024 c
422 561 l
949 561 l
768 1026 l
749 1072 731 1124 712 1182 c
685 1265 l

ce} _d
/B{1366 0 168 0 1258 1409 sc
1258 397 m
1258 272 1212 174 1121 104 c
1030 35 903 0 740 0 c
168 0 l
168 1409 l
680 1409 l
1011 1409 1176 1295 1176 1067 c
1176 984 1153 914 1106 857 c
1059 800 993 762 908 743 c
1020 730 1106 692 1167 630 c
1228 569 1258 491 1258 397 c

984 1044 m
984 1120 958 1174 906 1207 c
854 1240 779 1256 680 1256 c
359 1256 l
359 810 l
680 810 l
782 810 858 829 908 867 c
959 906 984 965 984 1044 c

1065 412 m
1065 578 948 661 715 661 c
359 661 l
359 153 l
730 153 l
847 153 932 175 985 218 c
1038 261 1065 326 1065 412 c

ce} _d
/C{1479 0 104 -20 1401 1430 sc
792 1274 m
636 1274 515 1224 428 1123 c
341 1023 298 886 298 711 c
298 538 343 399 433 294 c
524 189 646 137 800 137 c
997 137 1146 235 1245 430 c
1401 352 l
1343 231 1261 138 1156 75 c
1051 12 930 -20 791 -20 c
649 -20 526 9 422 68 c
319 127 240 212 185 321 c
131 431 104 561 104 711 c
104 936 165 1112 286 1239 c
407 1366 575 1430 790 1430 c
940 1430 1065 1401 1166 1342 c
1267 1283 1341 1196 1388 1081 c
1207 1021 l
1174 1103 1122 1166 1049 1209 c
977 1252 891 1274 792 1274 c

ce} _d
/D{1479 0 168 0 1381 1409 sc
1381 719 m
1381 574 1353 446 1296 337 c
1239 228 1159 145 1055 87 c
951 29 831 0 695 0 c
168 0 l
168 1409 l
634 1409 l
873 1409 1057 1349 1186 1229 c
1316 1110 1381 940 1381 719 c

1189 719 m
1189 894 1141 1027 1045 1118 c
950 1210 811 1256 630 1256 c
359 1256 l
359 153 l
673 153 l
776 153 867 176 945 221 c
1024 266 1084 332 1126 417 c
1168 502 1189 603 1189 719 c

ce} _d
/E{1366 0 168 0 1278 1409 sc
168 0 m
168 1409 l
1237 1409 l
1237 1253 l
359 1253 l
359 801 l
1177 801 l
1177 647 l
359 647 l
359 156 l
1278 156 l
1278 0 l
168 0 l

ce} _d
/G{1593 0 103 -20 1440 1430 sc
103 711 m
103 940 164 1117 287 1242 c
410 1367 582 1430 804 1430 c
960 1430 1087 1404 1184 1351 c
1281 1298 1356 1214 1409 1098 c
1227 1044 l
1187 1124 1132 1182 1061 1219 c
991 1256 904 1274 799 1274 c
636 1274 512 1225 426 1126 c
340 1028 297 890 297 711 c
297 533 343 392 434 289 c
525 186 652 135 813 135 c
905 135 991 149 1070 177 c
1150 205 1215 243 1264 291 c
1264 545 l
843 545 l
843 705 l
1440 705 l
1440 219 l
1365 143 1274 84 1165 42 c
1057 1 940 -20 813 -20 c
666 -20 539 9 432 68 c
325 127 244 211 187 321 c
131 432 103 562 103 711 c

ce} _d
/H{1479 0 168 0 1312 1409 sc
1121 0 m
1121 653 l
359 653 l
359 0 l
168 0 l
168 1409 l
359 1409 l
359 813 l
1121 813 l
1121 1409 l
1312 1409 l
1312 0 l
1121 0 l

ce} _d
/L{1139 0 168 0 1071 1409 sc
168 0 m
168 1409 l
359 1409 l
359 156 l
1071 156 l
1071 0 l
168 0 l

ce} _d
/M{1706 0 168 0 1538 1409 sc
1366 0 m
1366 940 l
1366 1044 1369 1144 1375 1240 c
1342 1121 1313 1027 1287 960 c
923 0 l
789 0 l
420 960 l
364 1130 l
331 1240 l
334 1129 l
338 940 l
338 0 l
168 0 l
168 1409 l
419 1409 l
794 432 l
807 393 820 350 832 305 c
845 260 853 228 857 208 c
862 235 873 275 890 329 c
907 384 919 418 925 432 c
1293 1409 l
1538 1409 l
1538 0 l
1366 0 l

ce} _d
/N{1479 0 168 0 1312 1409 sc
1082 0 m
328 1200 l
333 1103 l
338 936 l
338 0 l
168 0 l
168 1409 l
390 1409 l
1152 201 l
1144 332 1140 426 1140 485 c
1140 1409 l
1312 1409 l
1312 0 l
1082 0 l

ce} _d
/O{1593 0 97 -20 1495 1430 sc
1495 711 m
1495 564 1467 435 1410 324 c
1354 213 1273 128 1168 69 c
1063 10 938 -20 795 -20 c
650 -20 525 9 420 68 c
315 127 235 211 180 322 c
125 433 97 563 97 711 c
97 936 159 1112 282 1239 c
405 1366 577 1430 797 1430 c
940 1430 1065 1401 1170 1344 c
1275 1287 1356 1205 1411 1096 c
1467 987 1495 859 1495 711 c

1300 711 m
1300 886 1256 1024 1168 1124 c
1081 1224 957 1274 797 1274 c
636 1274 511 1225 423 1126 c
335 1027 291 889 291 711 c
291 534 335 394 424 290 c
513 187 637 135 795 135 c
958 135 1082 185 1169 285 c
1256 386 1300 528 1300 711 c

ce} _d
/P{1366 0 168 0 1258 1409 sc
1258 985 m
1258 852 1214 746 1127 667 c
1040 588 922 549 773 549 c
359 549 l
359 0 l
168 0 l
168 1409 l
761 1409 l
919 1409 1041 1372 1128 1298 c
1215 1224 1258 1120 1258 985 c

1066 983 m
1066 1165 957 1256 738 1256 c
359 1256 l
359 700 l
746 700 l
959 700 1066 794 1066 983 c

ce} _d
/S{1366 0 93 -20 1272 1430 sc
1272 389 m
1272 259 1221 158 1119 87 c
1018 16 875 -20 690 -20 c
347 -20 148 99 93 338 c
278 375 l
299 290 345 228 414 188 c
483 149 578 129 697 129 c
820 129 915 150 982 192 c
1049 235 1083 297 1083 379 c
1083 425 1072 462 1051 491 c
1030 520 1001 543 963 562 c
925 581 880 596 827 609 c
774 622 716 635 652 650 c
541 675 456 699 398 724 c
341 749 295 776 262 806 c
229 837 203 872 185 913 c
168 954 159 1000 159 1053 c
159 1174 205 1267 297 1332 c
390 1397 522 1430 694 1430 c
854 1430 976 1405 1061 1356 c
1146 1307 1205 1224 1239 1106 c
1051 1073 l
1030 1148 991 1202 933 1235 c
875 1269 795 1286 692 1286 c
579 1286 493 1267 434 1230 c
375 1193 345 1137 345 1063 c
345 1020 356 984 379 955 c
402 927 436 903 479 883 c
522 864 609 840 738 811 c
781 801 824 791 867 780 c
910 770 952 758 991 743 c
1030 729 1067 712 1101 693 c
1136 674 1166 650 1191 622 c
1216 594 1236 561 1250 523 c
1265 485 1272 440 1272 389 c

ce} _d
/bracketleft{569 0 146 -425 553 1484 sc
146 -425 m
146 1484 l
553 1484 l
553 1355 l
320 1355 l
320 -296 l
553 -296 l
553 -425 l
146 -425 l

ce} _d
/bracketright{569 0 16 -425 423 1484 sc
16 -425 m
16 -296 l
249 -296 l
249 1355 l
16 1355 l
16 1484 l
423 1484 l
423 -425 l
16 -425 l

ce} _d
/a{1139 0 87 -20 1139 1102 sc
414 -20 m
305 -20 224 9 169 66 c
114 123 87 202 87 302 c
87 414 124 500 197 560 c
271 620 390 652 554 656 c
797 660 l
797 719 l
797 807 778 870 741 908 c
704 946 645 965 565 965 c
484 965 426 951 389 924 c
352 897 330 853 323 793 c
135 810 l
166 1005 310 1102 569 1102 c
705 1102 807 1071 876 1008 c
945 946 979 856 979 738 c
979 272 l
979 219 986 178 1000 151 c
1014 124 1041 111 1080 111 c
1097 111 1117 113 1139 118 c
1139 6 l
1094 -5 1047 -10 1000 -10 c
933 -10 885 7 854 42 c
824 77 807 132 803 207 c
797 207 l
751 124 697 66 636 31 c
575 -3 501 -20 414 -20 c

455 115 m
521 115 580 130 631 160 c
682 190 723 231 752 283 c
782 336 797 390 797 445 c
797 534 l
600 530 l
515 529 451 520 407 504 c
364 488 330 463 307 430 c
284 397 272 353 272 299 c
272 240 288 195 319 163 c
351 131 396 115 455 115 c

ce} _d
/b{1139 0 132 -20 1053 1484 sc
1053 546 m
1053 169 920 -20 655 -20 c
573 -20 505 -5 450 24 c
396 54 352 102 318 168 c
316 168 l
316 147 315 116 312 73 c
309 31 307 7 306 0 c
132 0 l
136 36 138 110 138 223 c
138 1484 l
318 1484 l
318 1061 l
318 1018 317 967 314 908 c
318 908 l
351 977 395 1027 450 1057 c
505 1087 574 1102 655 1102 c
792 1102 892 1056 956 964 c
1021 872 1053 733 1053 546 c

864 540 m
864 691 844 800 804 865 c
764 930 699 963 609 963 c
508 963 434 928 387 859 c
341 790 318 680 318 529 c
318 387 341 282 386 214 c
431 147 505 113 607 113 c
698 113 763 146 803 213 c
844 280 864 389 864 540 c

ce} _d
/c{1024 0 87 -20 970 1102 sc
275 546 m
275 402 298 295 343 226 c
388 157 457 122 548 122 c
612 122 665 139 708 174 c
751 209 778 262 788 334 c
970 322 l
956 218 912 135 837 73 c
762 11 668 -20 553 -20 c
402 -20 286 28 206 123 c
127 219 87 359 87 542 c
87 724 127 863 207 958 c
287 1054 402 1102 551 1102 c
662 1102 753 1073 826 1016 c
899 959 945 880 964 779 c
779 765 l
770 825 746 873 708 908 c
670 943 616 961 546 961 c
451 961 382 929 339 866 c
296 803 275 696 275 546 c

ce} _d
/d{1139 0 86 -20 1007 1484 sc
821 174 m
788 105 743 55 688 25 c
633 -5 565 -20 484 -20 c
347 -20 247 26 182 118 c
118 210 86 349 86 536 c
86 913 219 1102 484 1102 c
566 1102 634 1087 689 1057 c
744 1027 788 979 821 914 c
823 914 l
821 1035 l
821 1484 l
1001 1484 l
1001 223 l
1001 110 1003 36 1007 0 c
835 0 l
833 11 831 35 828 74 c
826 113 825 146 825 174 c
821 174 l

275 542 m
275 391 295 282 335 217 c
375 152 440 119 530 119 c
632 119 706 154 752 225 c
798 296 821 405 821 554 c
821 697 798 802 752 869 c
706 936 633 969 532 969 c
441 969 376 935 335 868 c
295 801 275 693 275 542 c

ce} _d
/e{1139 0 87 -20 1048 1102 sc
276 503 m
276 379 302 283 353 216 c
404 149 479 115 578 115 c
656 115 718 131 765 162 c
812 193 844 233 861 281 c
1019 236 l
954 65 807 -20 578 -20 c
418 -20 296 28 212 123 c
129 218 87 360 87 548 c
87 727 129 864 212 959 c
296 1054 416 1102 571 1102 c
889 1102 1048 910 1048 527 c
1048 503 l
276 503 l

862 641 m
852 755 823 838 775 890 c
727 943 658 969 568 969 c
481 969 411 940 360 881 c
309 823 282 743 278 641 c
862 641 l

ce} _d
/f{569 0 29 0 572 1482 sc
361 951 m
361 0 l
181 0 l
181 951 l
29 951 l
29 1082 l
181 1082 l
181 1204 l
181 1303 203 1374 246 1417 c
289 1460 356 1482 445 1482 c
495 1482 537 1478 572 1470 c
572 1333 l
542 1338 515 1341 492 1341 c
446 1341 413 1329 392 1306 c
371 1283 361 1240 361 1179 c
361 1082 l
572 1082 l
572 951 l
361 951 l

ce} _d
/h{1139 0 142 0 1006 1484 sc
317 897 m
356 968 402 1019 456 1052 c
511 1085 580 1102 663 1102 c
780 1102 867 1073 922 1014 c
978 956 1006 858 1006 721 c
1006 0 l
825 0 l
825 686 l
825 762 818 818 804 855 c
790 892 767 920 735 937 c
703 954 659 963 602 963 c
517 963 449 934 398 875 c
347 816 322 737 322 638 c
322 0 l
142 0 l
142 1484 l
322 1484 l
322 1098 l
322 1057 321 1015 318 972 c
316 929 315 904 314 897 c
317 897 l

ce} _d
/i{455 0 137 0 317 1484 sc
137 1312 m
137 1484 l
317 1484 l
317 1312 l
137 1312 l

137 0 m
137 1082 l
317 1082 l
317 0 l
137 0 l

ce} _d
/k{1024 0 138 0 1027 1484 sc
816 0 m
450 494 l
318 385 l
318 0 l
138 0 l
138 1484 l
318 1484 l
318 557 l
793 1082 l
1004 1082 l
565 617 l
1027 0 l
816 0 l

ce} _d
/l{455 0 138 0 318 1484 sc
138 0 m
138 1484 l
318 1484 l
318 0 l
138 0 l

ce} _d
/m{1706 0 136 0 1571 1102 sc
768 0 m
768 686 l
768 791 754 863 725 903 c
696 943 645 963 570 963 c
493 963 433 934 388 875 c
343 816 321 734 321 627 c
321 0 l
142 0 l
142 851 l
142 977 140 1054 136 1082 c
306 1082 l
307 1079 307 1070 308 1055 c
309 1040 309 1023 310 1004 c
311 985 313 950 314 897 c
317 897 l
356 974 400 1027 450 1057 c
500 1087 561 1102 633 1102 c
715 1102 780 1086 827 1053 c
875 1020 908 968 927 897 c
930 897 l
967 970 1012 1022 1065 1054 c
1118 1086 1183 1102 1258 1102 c
1367 1102 1447 1072 1496 1013 c
1546 954 1571 856 1571 721 c
1571 0 l
1393 0 l
1393 686 l
1393 791 1379 863 1350 903 c
1321 943 1270 963 1195 963 c
1116 963 1055 934 1011 875 c
968 817 946 734 946 627 c
946 0 l
768 0 l

ce} _d
/n{1139 0 136 0 1006 1102 sc
825 0 m
825 686 l
825 757 818 813 804 852 c
790 891 768 920 737 937 c
706 954 661 963 602 963 c
515 963 447 933 397 874 c
347 815 322 732 322 627 c
322 0 l
142 0 l
142 851 l
142 977 140 1054 136 1082 c
306 1082 l
307 1079 307 1070 308 1055 c
309 1040 309 1023 310 1004 c
311 985 313 950 314 897 c
317 897 l
358 972 406 1024 460 1055 c
515 1086 582 1102 663 1102 c
782 1102 868 1072 923 1013 c
978 954 1006 857 1006 721 c
1006 0 l
825 0 l

ce} _d
/o{1139 0 86 -20 1053 1102 sc
1053 542 m
1053 353 1011 212 928 119 c
845 26 724 -20 565 -20 c
407 -20 288 28 207 124 c
126 221 86 360 86 542 c
86 915 248 1102 571 1102 c
736 1102 858 1056 936 965 c
1014 874 1053 733 1053 542 c

864 542 m
864 691 842 800 797 867 c
753 935 679 969 574 969 c
469 969 392 934 345 865 c
298 796 275 689 275 542 c
275 399 298 292 344 220 c
391 149 464 113 563 113 c
671 113 748 148 794 217 c
841 286 864 395 864 542 c

ce} _d
/p{1139 0 132 -425 1053 1101 sc
1053 546 m
1053 169 920 -20 655 -20 c
488 -20 376 43 319 168 c
314 168 l
317 163 318 106 318 -2 c
318 -425 l
138 -425 l
138 861 l
138 972 136 1046 132 1082 c
306 1082 l
307 1079 308 1070 309 1053 c
310 1037 312 1012 313 978 c
315 944 316 921 316 908 c
320 908 l
352 975 394 1023 447 1054 c
500 1085 569 1101 655 1101 c
788 1101 888 1056 954 967 c
1020 878 1053 737 1053 546 c

864 542 m
864 693 844 800 803 865 c
762 930 698 962 609 962 c
538 962 482 947 441 917 c
401 887 370 840 349 776 c
328 713 318 630 318 528 c
318 386 341 281 386 214 c
431 147 505 113 607 113 c
696 113 761 146 802 211 c
843 277 864 387 864 542 c

ce} _d
/r{682 0 136 0 648 1102 sc
142 0 m
142 830 l
142 906 140 990 136 1082 c
306 1082 l
311 959 314 886 314 861 c
318 861 l
347 954 380 1017 417 1051 c
454 1085 507 1102 575 1102 c
599 1102 623 1099 648 1092 c
648 927 l
624 934 592 937 552 937 c
477 937 420 905 381 840 c
342 776 322 684 322 564 c
322 0 l
142 0 l

ce} _d
/s{1024 0 57 -20 950 1099 sc
950 299 m
950 197 911 118 834 63 c
757 8 650 -20 511 -20 c
376 -20 272 2 199 46 c
126 91 79 160 57 254 c
216 285 l
231 227 263 184 311 157 c
359 130 426 117 511 117 c
602 117 669 131 711 159 c
754 187 775 229 775 285 c
775 328 760 362 731 389 c
702 416 654 438 589 455 c
460 489 l
357 516 283 542 239 567 c
196 593 162 624 137 661 c
112 698 100 743 100 796 c
100 895 135 970 205 1021 c
276 1073 378 1099 513 1099 c
632 1099 727 1078 797 1036 c
868 994 912 927 931 834 c
769 814 l
759 862 732 899 688 924 c
645 950 586 963 513 963 c
432 963 372 951 333 926 c
294 901 275 864 275 814 c
275 783 283 758 299 738 c
315 718 339 701 370 687 c
401 673 467 654 568 629 c
663 605 732 583 774 562 c
816 542 849 520 873 495 c
898 470 917 442 930 409 c
943 377 950 340 950 299 c

ce} _d
/t{569 0 31 -16 554 1324 sc
554 8 m
495 -8 434 -16 372 -16 c
228 -16 156 66 156 229 c
156 951 l
31 951 l
31 1082 l
163 1082 l
216 1324 l
336 1324 l
336 1082 l
536 1082 l
536 951 l
336 951 l
336 268 l
336 216 344 179 361 158 c
378 137 408 127 450 127 c
474 127 509 132 554 141 c
554 8 l

ce} _d
/u{1139 0 133 -20 1003 1082 sc
314 1082 m
314 396 l
314 325 321 269 335 230 c
349 191 371 162 402 145 c
433 128 478 119 537 119 c
624 119 692 149 742 208 c
792 267 817 350 817 455 c
817 1082 l
997 1082 l
997 231 l
997 105 999 28 1003 0 c
833 0 l
832 3 832 12 831 27 c
830 42 829 58 828 77 c
827 96 826 132 825 185 c
822 185 l
781 110 733 57 678 26 c
624 -5 557 -20 476 -20 c
357 -20 270 9 215 68 c
160 127 133 225 133 361 c
133 1082 l
314 1082 l

ce} _d
/w{1479 0 -3 0 1484 1082 sc
1174 0 m
965 0 l
776 765 l
740 934 l
734 904 725 861 712 804 c
699 748 631 480 508 0 c
300 0 l
-3 1082 l
175 1082 l
358 347 l
363 331 377 265 401 149 c
418 223 l
644 1082 l
837 1082 l
1026 339 l
1072 149 l
1103 288 l
1308 1082 l
1484 1082 l
1174 0 l

ce} _d
/x{1024 0 23 0 1002 1082 sc
801 0 m
510 444 l
217 0 l
23 0 l
408 556 l
41 1082 l
240 1082 l
510 661 l
778 1082 l
979 1082 l
612 558 l
1002 0 l
801 0 l

ce} _d
end readonly def

/BuildGlyph {
 exch begin
 CharStrings exch
 2 copy known not {pop /.notdef} if
 true 3 1 roll get exec
 end
} _d

/BuildChar {
 1 index /Encoding get exch get
 1 index /BuildGlyph get exec
} _d

FontName currentdict end definefont pop
%!PS-Adobe-3.0 Resource-Font
%%Creator: Converted from TrueType to Type 3 by Matplotlib.
10 dict begin
/FontName /DejaVuSans-Oblique def
/PaintType 0 def
/FontMatrix [0.00048828125 0 0 0.00048828125 0 0] def
/FontBBox [-2080 -717 3398 2187] def
/FontType 3 def
/Encoding [/t] def
/CharStrings 2 dict dup begin
/.notdef 0 def
/t{803 0 131 0 866 1438 sc
866 1120 m
838 977 l
471 977 l
352 369 l
348 346 345 327 343 312 c
341 297 340 285 340 276 c
340 233 353 202 378 183 c
404 164 445 154 502 154 c
688 154 l
657 0 l
481 0 l
372 0 290 21 236 64 c
183 107 156 171 156 258 c
156 273 157 290 159 308 c
161 327 164 347 168 369 c
287 977 l
131 977 l
160 1120 l
313 1120 l
375 1438 l
559 1438 l
498 1120 l
866 1120 l

ce} _d
end readonly def

/BuildGlyph {
 exch begin
 CharStrings exch
 2 copy known not {pop /.notdef} if
 true 3 1 roll get exec
 end
} _d

/BuildChar {
 1 index /Encoding get exch get
 1 index /BuildGlyph get exec
} _d

FontName currentdict end definefont pop
end
%%EndProlog
mpldict begin
112.431 149.783 translate
387.137 492.435 0 0 clipbox
gsave
0 0 m
387.1375 0 l
387.1375 492.43478 l
0 492.43478 l
cl
1.000 setgray
fill
grestore
gsave
45.1375 385.630734 m
379.9375 385.630734 l
379.9375 482.048125 l
45.1375 482.048125 l
cl
0.918 0.918 0.949 setrgbcolor
fill
grestore
1.000 setlinewidth
1 setlinejoin
1 setlinecap
[] 0 setdash
1.000 setgray
gsave
334.8 96.417 45.138 385.631 clipbox
60.355682 385.630734 m
60.355682 482.048125 l
stroke
grestore
gsave
334.8 96.417 45.138 385.631 clipbox
126.275208 385.630734 m
126.275208 482.048125 l
stroke
grestore
gsave
334.8 96.417 45.138 385.631 clipbox
192.194734 385.630734 m
192.194734 482.048125 l
stroke
grestore
gsave
334.8 96.417 45.138 385.631 clipbox
258.11426 385.630734 m
258.11426 482.048125 l
stroke
grestore
gsave
334.8 96.417 45.138 385.631 clipbox
324.033787 385.630734 m
324.033787 482.048125 l
stroke
grestore
gsave
334.8 96.417 45.138 385.631 clipbox
45.1375 389.892853 m
379.9375 389.892853 l
stroke
grestore
0.150 setgray
/LiberationSans 10.000 selectfont
gsave

32.575000 386.267853 translate
0.000000 rotate
0.000000 0 m /zero glyphshow
grestore
1.000 setgray
gsave
334.8 96.417 45.138 385.631 clipbox
45.1375 435.751316 m
379.9375 435.751316 l
stroke
grestore
0.150 setgray
gsave

27.012500 432.126316 translate
0.000000 rotate
0.000000 0 m /five glyphshow
5.561523 0 m /zero glyphshow
grestore
1.000 setgray
gsave
334.8 96.417 45.138 385.631 clipbox
45.1375 481.60978 m
379.9375 481.60978 l
stroke
grestore
0.150 setgray
gsave

21.450000 477.984780 translate
0.000000 rotate
0.000000 0 m /one glyphshow
5.561523 0 m /zero glyphshow
11.123047 0 m /zero glyphshow
grestore
/LiberationSans 11.000 selectfont
gsave

15.168750 412.417554 translate
90.000000 rotate
0.000000 0 m /E glyphshow
7.336914 0 m /r glyphshow
11.000000 0 m /r glyphshow
14.663086 0 m /o glyphshow
20.780762 0 m /r glyphshow
24.443848 0 m /space glyphshow
27.500000 0 m /bracketleft glyphshow
30.556152 0 m /m glyphshow
39.719238 0 m /bracketright glyphshow
grestore
1.750 setlinewidth
0.298 0.447 0.690 setrgbcolor
gsave
334.8 96.417 45.138 385.631 clipbox
60.355682 390.457868 m
61.964118 390.409301 l
62.665502 390.956061 l
65.53432 390.953578 l
66.277892 391.679225 l
68.4506 391.624824 l
69.241634 393.626491 l
70.106498 393.306232 l
70.9239 394.143574 l
71.772944 394.08933 l
72.553431 395.048752 l
76.666809 395.097618 l
77.484212 396.306149 l
79.113742 396.303524 l
80.785461 398.571031 l
81.68724 398.58655 l
82.58902 399.391044 l
83.459157 399.389584 l
84.313474 399.79673 l
85.067594 401.106323 l
86.728766 401.190078 l
88.268646 404.186261 l
89.703055 404.159651 l
90.399165 406.066104 l
91.944319 405.976058 l
92.798636 407.87483 l
95.266663 407.87665 l
96.168442 409.909499 l
96.991118 409.909499 l
97.892897 413.14066 l
105.159865 413.14399 l
106.066918 414.477655 l
110.428154 414.512632 l
111.361574 416.433099 l
112.279174 416.433099 l
113.112397 417.983022 l
114.066912 422.746595 l
114.973964 422.562531 l
119.103164 422.495235 l
120.85926 426.042149 l
121.713577 426.119919 l
122.499338 427.820209 l
127.71489 427.841477 l
128.690499 429.131785 l
131.332554 429.113205 l
132.250154 429.671749 l
133.167754 431.661011 l
138.304203 431.615367 l
146.203999 431.668349 l
149.652909 431.816693 l
150.533594 431.827322 l
151.503929 432.92547 l
153.217837 432.96256 l
154.119616 434.52423 l
156.861868 434.25209 l
157.695091 434.666102 l
158.559955 436.039907 l
159.577753 435.67617 l
161.428773 435.644708 l
162.451844 436.356787 l
164.186846 436.419439 l
166.016772 436.279103 l
179.358884 436.3477 l
180.239569 436.333064 l
181.062245 437.886685 l
196.497961 437.983584 l
197.510485 438.132048 l
201.017404 438.232912 l
201.903362 440.240633 l
203.569808 440.435119 l
204.503228 441.356451 l
211.617263 441.32348 l
212.503222 442.595033 l
213.510472 444.579058 l
214.354242 445.606028 l
215.308757 445.606028 l
216.368743 445.30623 l
217.333805 445.30623 l
218.21449 447.608281 l
219.216466 447.523839 l
221.942898 447.584086 l
229.91125 447.511519 l
230.834124 450.195226 l
235.258642 450.188545 l
237.114936 450.186292 l
238.03781 453.628339 l
238.992324 453.286585 l
240.827524 453.284097 l
241.729303 455.637192 l
242.694365 455.140678 l
245.536815 455.165679 l
246.428047 456.643085 l
251.095149 456.635445 l
252.007476 456.793567 l
253.948146 456.787779 l
254.849925 458.081068 l
256.685125 458.178273 l
257.602725 459.568382 l
258.55724 459.835214 l
259.511754 460.733164 l
261.394416 460.605164 l
262.396393 461.201482 l
265.328493 461.166284 l
266.267187 461.560787 l
267.269164 461.155416 l
270.939563 461.13168 l
271.936267 461.834249 l
274.050965 461.788797 l
275.147866 463.168569 l
276.218399 463.161955 l
277.183461 463.733632 l
283.675216 463.72433 l
293.668616 463.669061 l
298.277709 463.667913 l
299.253318 464.843602 l
300.197286 464.802161 l
301.056877 467.379413 l
307.574999 467.332774 l
309.468208 467.226065 l
310.438544 468.917858 l
311.429973 468.910395 l
312.384488 470.430775 l
315.232211 470.464759 l
316.181453 470.386036 l
317.183429 472.565818 l
320.168266 472.540087 l
322.140578 472.67211 l
323.068725 473.54266 l
324.017966 473.54266 l
324.946113 475.069714 l
325.937543 476.278451 l
334.248676 476.247798 l
349.742402 476.269275 l
362.947401 476.273798 l
363.83336 477.615045 l
364.719318 477.665516 l
364.719318 477.665516 l
stroke
grestore
0.333 0.659 0.408 setrgbcolor
gsave
334.8 96.417 45.138 385.631 clipbox
60.355682 390.19974 m
61.964118 390.034874 l
64.785474 390.017539 l
65.53432 390.013342 l
66.277892 390.314606 l
67.638471 390.103743 l
68.4506 390.086744 l
69.241634 390.915272 l
70.106498 390.193845 l
70.9239 390.397927 l
71.772944 390.230019 l
72.553431 390.422966 l
76.666809 390.301346 l
77.484212 390.398676 l
79.113742 390.336446 l
79.941691 390.588301 l
80.785461 390.429296 l
81.68724 390.399597 l
82.58902 390.595991 l
83.459157 390.591566 l
84.313474 390.715245 l
85.067594 391.273759 l
87.482885 390.987208 l
88.268646 390.663464 l
89.703055 390.600604 l
90.399165 391.364044 l
91.190199 390.634967 l
91.944319 390.59875 l
92.798636 391.394321 l
96.991118 391.415053 l
97.892897 391.75187 l
109.616025 391.648154 l
110.428154 391.611427 l
111.361574 392.0109 l
112.279174 392.0109 l
114.066912 393.119673 l
114.973964 392.702339 l
120.041858 392.730848 l
120.85926 393.053134 l
121.713577 392.767869 l
122.499338 393.3524 l
123.380022 392.98504 l
126.78147 392.874485 l
127.71489 392.870445 l
128.690499 392.984755 l
131.332554 392.931666 l
132.250154 393.19345 l
133.167754 393.835232 l
136.558654 393.91403 l
144.437356 393.883334 l
145.344409 393.707683 l
148.788045 394.059003 l
150.533594 394.10188 l
152.316058 393.900467 l
153.217837 393.925904 l
154.119616 394.07873 l
155.021395 393.978993 l
155.944268 394.16384 l
156.861868 394.228744 l
158.559955 395.279047 l
159.577753 394.940566 l
161.428773 394.974907 l
162.451844 395.217283 l
163.369444 394.82434 l
168.621912 394.906841 l
170.235622 394.90895 l
172.682554 394.835096 l
174.491386 394.962583 l
179.358884 395.039961 l
180.239569 395.127343 l
181.062245 395.716976 l
181.832185 395.716976 l
182.660134 395.41783 l
185.233632 395.351054 l
190.259337 395.37304 l
196.497961 395.419689 l
198.459726 395.172736 l
199.372052 395.174611 l
200.226369 395.379113 l
201.017404 395.420668 l
201.903362 395.92446 l
202.720764 395.697784 l
203.569808 395.621123 l
204.503228 395.868395 l
205.368092 395.860996 l
207.150556 395.632748 l
210.720758 395.590109 l
211.617263 395.608031 l
212.503222 395.992963 l
213.510472 396.076406 l
214.354242 396.670775 l
215.308757 396.670775 l
216.368743 396.058379 l
217.333805 396.058379 l
218.21449 396.252957 l
219.216466 396.018896 l
221.942898 395.951378 l
228.149881 395.955227 l
228.993651 395.780394 l
233.491999 395.801865 l
237.114936 395.810364 l
238.03781 396.583446 l
238.992324 395.873811 l
240.827524 395.84001 l
241.729303 396.522125 l
242.694365 395.928895 l
245.536815 395.952135 l
246.428047 396.278524 l
251.095149 396.305889 l
252.993632 396.085347 l
253.948146 396.069945 l
254.849925 396.30848 l
256.685125 396.239738 l
257.602725 396.549991 l
258.55724 396.672245 l
259.511754 397.175792 l
260.450448 396.584585 l
261.394416 396.451064 l
262.396393 397.208558 l
267.269164 397.275375 l
269.041081 397.286145 l
270.011417 397.132608 l
270.939563 397.131105 l
271.936267 397.280741 l
274.050965 397.218112 l
276.218399 397.241975 l
277.183461 397.489896 l
279.962628 397.551047 l
298.277709 397.494826 l
299.253318 398.118393 l
300.197286 397.571348 l
301.969203 397.581459 l
311.429973 397.539663 l
315.232211 397.69941 l
316.181453 397.699962 l
317.183429 398.299484 l
320.168266 398.342189 l
322.140578 398.583641 l
323.068725 399.24003 l
324.017966 399.24003 l
324.946113 399.518407 l
325.937543 399.01561 l
329.808337 399.07936 l
345.607929 399.196367 l
364.719318 399.277585 l
364.719318 399.277585 l
stroke
grestore
gsave
45.1375 385.630734 m
45.1375 482.048125 l
grestore
gsave
379.9375 385.630734 m
379.9375 482.048125 l
grestore
gsave
45.1375 385.630734 m
379.9375 385.630734 l
grestore
gsave
45.1375 482.048125 m
379.9375 482.048125 l
grestore
0.300 setlinewidth
0 setlinejoin
0 setlinecap
0.800 setgray
gsave
52.1375 431.06375 m
181.746875 431.06375 l
183.080208 431.06375 183.746875 431.730417 183.746875 433.06375 c
183.746875 475.048125 l
183.746875 476.381458 183.080208 477.048125 181.746875 477.048125 c
52.1375 477.048125 l
50.804167 477.048125 50.1375 476.381458 50.1375 475.048125 c
50.1375 433.06375 l
50.1375 431.730417 50.804167 431.06375 52.1375 431.06375 c
cl
gsave
1.000 setgray
fill
grestore
stroke
grestore
0.150 setgray
/LiberationSans 10.000 selectfont
gsave

54.137500 465.798125 translate
0.000000 rotate
0.000000 0 m /A glyphshow
6.669922 0 m /c glyphshow
11.669922 0 m /c glyphshow
16.669922 0 m /u glyphshow
22.231445 0 m /m glyphshow
30.561523 0 m /u glyphshow
36.123047 0 m /l glyphshow
38.344727 0 m /a glyphshow
43.906250 0 m /t glyphshow
46.684570 0 m /e glyphshow
52.246094 0 m /d glyphshow
57.807617 0 m /space glyphshow
60.585938 0 m /l glyphshow
62.807617 0 m /a glyphshow
68.369141 0 m /n glyphshow
73.930664 0 m /d glyphshow
79.492188 0 m /m glyphshow
87.822266 0 m /a glyphshow
93.383789 0 m /r glyphshow
96.713867 0 m /k glyphshow
101.713867 0 m /space glyphshow
104.492188 0 m /e glyphshow
110.053711 0 m /r glyphshow
113.383789 0 m /r glyphshow
116.713867 0 m /o glyphshow
122.275391 0 m /r glyphshow
grestore
1.750 setlinewidth
1 setlinejoin
1 setlinecap
0.298 0.447 0.690 setrgbcolor
gsave
73.207813 454.97 m
93.207813 454.97 l
stroke
grestore
0.150 setgray
gsave

101.207813 451.470000 translate
0.000000 rotate
0.000000 0 m /P glyphshow
6.669922 0 m /o glyphshow
12.231445 0 m /s glyphshow
17.231445 0 m /i glyphshow
19.453125 0 m /t glyphshow
22.231445 0 m /i glyphshow
24.453125 0 m /o glyphshow
30.014648 0 m /n glyphshow
35.576172 0 m /space glyphshow
38.354492 0 m /e glyphshow
43.916016 0 m /r glyphshow
47.246094 0 m /r glyphshow
50.576172 0 m /o glyphshow
56.137695 0 m /r glyphshow
grestore
0.333 0.659 0.408 setrgbcolor
gsave
73.207813 440.641875 m
93.207813 440.641875 l
stroke
grestore
0.150 setgray
gsave

101.207813 437.141875 translate
0.000000 rotate
0.000000 0 m /D glyphshow
7.221680 0 m /B glyphshow
13.891602 0 m /H glyphshow
21.113281 0 m /space glyphshow
23.891602 0 m /e glyphshow
29.453125 0 m /r glyphshow
32.783203 0 m /r glyphshow
36.113281 0 m /o glyphshow
41.674805 0 m /r glyphshow
grestore
gsave
45.1375 269.929864 m
379.9375 269.929864 l
379.9375 366.347255 l
45.1375 366.347255 l
cl
0.918 0.918 0.949 setrgbcolor
fill
grestore
1.000 setlinewidth
1.000 setgray
gsave
334.8 96.417 45.138 269.93 clipbox
60.355682 269.929864 m
60.355682 366.347255 l
stroke
grestore
gsave
334.8 96.417 45.138 269.93 clipbox
126.275208 269.929864 m
126.275208 366.347255 l
stroke
grestore
gsave
334.8 96.417 45.138 269.93 clipbox
192.194734 269.929864 m
192.194734 366.347255 l
stroke
grestore
gsave
334.8 96.417 45.138 269.93 clipbox
258.11426 269.929864 m
258.11426 366.347255 l
stroke
grestore
gsave
334.8 96.417 45.138 269.93 clipbox
324.033787 269.929864 m
324.033787 366.347255 l
stroke
grestore
gsave
334.8 96.417 45.138 269.93 clipbox
45.1375 271.328102 m
379.9375 271.328102 l
stroke
grestore
0.150 setgray
gsave

24.231250 267.703102 translate
0.000000 rotate
0.000000 0 m /zero glyphshow
5.561523 0 m /period glyphshow
8.339844 0 m /zero glyphshow
grestore
1.000 setgray
gsave
334.8 96.417 45.138 269.93 clipbox
45.1375 300.409971 m
379.9375 300.409971 l
stroke
grestore
0.150 setgray
gsave

24.231250 296.784971 translate
0.000000 rotate
0.000000 0 m /zero glyphshow
5.561523 0 m /period glyphshow
8.339844 0 m /five glyphshow
grestore
1.000 setgray
gsave
334.8 96.417 45.138 269.93 clipbox
45.1375 329.491839 m
379.9375 329.491839 l
stroke
grestore
0.150 setgray
gsave

24.231250 325.866839 translate
0.000000 rotate
0.000000 0 m /one glyphshow
5.561523 0 m /period glyphshow
8.339844 0 m /zero glyphshow
grestore
1.000 setgray
gsave
334.8 96.417 45.138 269.93 clipbox
45.1375 358.573708 m
379.9375 358.573708 l
stroke
grestore
0.150 setgray
gsave

24.231250 354.948708 translate
0.000000 rotate
0.000000 0 m /one glyphshow
5.561523 0 m /period glyphshow
8.339844 0 m /five glyphshow
grestore
/LiberationSans 11.000 selectfont
gsave

17.950000 296.716685 translate
90.000000 rotate
0.000000 0 m /E glyphshow
7.336914 0 m /r glyphshow
11.000000 0 m /r glyphshow
14.663086 0 m /o glyphshow
20.780762 0 m /r glyphshow
24.443848 0 m /space glyphshow
27.500000 0 m /bracketleft glyphshow
30.556152 0 m /m glyphshow
39.719238 0 m /bracketright glyphshow
grestore
1.750 setlinewidth
0.298 0.447 0.690 setrgbcolor
gsave
334.8 96.417 45.138 269.93 clipbox
60.355682 307.159423 m
61.964118 304.079481 l
62.665502 305.040618 l
65.53432 304.961883 l
66.277892 309.08997 l
66.915993 308.276374 l
67.638471 308.004733 l
68.4506 307.939988 l
69.241634 318.683014 l
70.106498 314.62107 l
70.9239 316.255798 l
71.772944 315.682469 l
72.553431 318.038023 l
73.376107 318.044307 l
74.235697 318.283559 l
75.058373 318.283559 l
75.780851 318.448132 l
76.666809 318.480726 l
77.484212 322.166761 l
79.113742 322.145952 l
79.941691 324.081073 l
80.785461 326.362139 l
81.68724 326.460553 l
82.58902 326.086537 l
83.459157 326.078118 l
85.067594 330.588095 l
86.728766 331.030715 l
87.482885 334.068464 l
88.268646 336.073746 l
89.703055 335.953211 l
90.399165 339.704919 l
91.190199 339.283531 l
91.944319 339.324224 l
92.798636 342.600319 l
95.266663 342.607533 l
96.168442 345.997936 l
96.991118 345.997936 l
97.892897 348.922648 l
105.159865 348.933764 l
106.066918 349.282303 l
107.823014 349.199575 l
110.428154 349.39321 l
111.361574 351.475321 l
112.279174 351.475321 l
113.112397 352.300031 l
114.066912 358.139432 l
114.973964 357.653069 l
116.577127 357.550287 l
119.103164 357.47525 l
120.041858 358.785327 l
120.85926 359.49982 l
121.713577 359.689509 l
122.499338 357.228929 l
127.71489 357.277099 l
129.560637 357.081809 l
131.332554 357.094328 l
132.250154 355.416152 l
133.167754 356.77306 l
135.69379 356.699131 l
144.437356 356.659807 l
146.203999 356.78807 l
147.902086 356.99082 l
150.533594 357.113281 l
151.503929 356.608768 l
153.217837 356.682272 l
154.119616 357.096868 l
155.021395 356.982874 l
155.944268 356.665329 l
156.861868 356.573892 l
157.695091 354.838875 l
158.559955 354.942053 l
159.577753 354.282997 l
161.428773 354.225991 l
162.451844 353.177651 l
164.186846 353.288016 l
165.120266 353.063804 l
168.621912 353.027148 l
169.439314 353.157727 l
179.358884 353.161642 l
180.239569 353.13586 l
181.062245 353.587686 l
181.832185 353.587686 l
182.660134 353.416515 l
185.233632 353.491344 l
196.497961 353.753767 l
197.510485 354.008229 l
199.372052 354.04573 l
200.226369 354.237688 l
201.017404 354.181106 l
201.903362 355.351364 l
202.720764 355.596371 l
203.569808 355.675934 l
204.503228 355.011315 l
208.9172 354.941525 l
212.503222 354.8829 l
213.510472 355.913761 l
214.354242 355.450458 l
215.308757 355.450458 l
216.368743 354.997788 l
217.333805 354.997788 l
218.21449 356.447055 l
219.216466 356.32252 l
221.041119 356.411372 l
229.91125 356.30435 l
230.834124 358.241061 l
234.325222 358.226433 l
237.114936 358.228184 l
238.03781 361.147801 l
238.992324 360.666182 l
240.827524 360.662676 l
241.729303 361.964647 l
242.694365 361.280142 l
251.095149 361.383141 l
252.007476 359.715902 l
253.948146 359.708255 l
254.849925 359.578374 l
256.685125 359.704177 l
257.602725 359.699775 l
258.55724 360.038207 l
259.511754 359.415361 l
260.450448 359.277808 l
261.394416 359.256197 l
262.396393 358.292512 l
265.328493 358.249586 l
266.267187 358.730702 l
267.269164 358.236332 l
270.939563 358.207385 l
271.936267 357.408803 l
275.147866 357.381717 l
276.218399 357.37395 l
277.183461 356.46864 l
282.673239 356.458334 l
298.277709 356.392864 l
299.253318 356.205246 l
300.197286 356.158317 l
301.056877 357.537444 l
307.574999 357.485555 l
309.468208 357.366834 l
310.438544 357.733197 l
311.429973 357.725036 l
312.384488 357.894873 l
315.232211 357.931401 l
316.181453 357.846785 l
317.183429 357.276243 l
320.168266 357.249492 l
322.140578 357.386746 l
323.068725 356.889143 l
324.017966 356.889143 l
324.946113 357.068183 l
325.937543 356.926213 l
334.248676 356.895839 l
349.742402 356.91712 l
364.719318 356.962595 l
364.719318 356.962595 l
stroke
grestore
0.333 0.659 0.408 setrgbcolor
gsave
334.8 96.417 45.138 269.93 clipbox
60.355682 290.789788 m
61.283829 280.764433 l
61.964118 280.334553 l
62.665502 276.520467 l
63.398527 275.897185 l
64.057722 275.494686 l
65.53432 275.14861 l
66.277892 280.243478 l
66.915993 277.021486 l
67.638471 275.786068 l
68.4506 275.426724 l
69.241634 284.295767 l
70.106498 275.145679 l
70.9239 276.666447 l
71.772944 274.891754 l
72.553431 276.130663 l
74.235697 275.55658 l
75.058373 275.55658 l
75.780851 275.104371 l
76.666809 275.028851 l
77.484212 275.337796 l
78.254152 274.844495 l
79.113742 274.844495 l
79.941691 276.228426 l
80.785461 274.730038 l
81.68724 274.541698 l
82.58902 275.381791 l
83.459157 275.35628 l
84.313474 276.06931 l
85.067594 278.625794 l
85.858628 278.105653 l
87.482885 276.666582 l
88.268646 274.818782 l
88.975303 274.575938 l
89.703055 274.53404 l
90.399165 277.54796 l
91.190199 274.465591 l
91.944319 274.312473 l
92.798636 277.279225 l
95.266663 277.223714 l
96.168442 277.006496 l
96.991118 277.006496 l
97.892897 277.53297 l
98.636469 277.53297 l
100.324009 277.29631 l
105.159865 277.298068 l
107.823014 277.431088 l
109.616025 276.893861 l
110.428154 276.777407 l
111.361574 277.724258 l
112.279174 277.724258 l
113.112397 278.870945 l
114.066912 279.854513 l
114.973964 278.751767 l
115.775546 278.751767 l
116.577127 278.623444 l
119.103164 278.670279 l
120.041858 278.527141 l
120.85926 279.03634 l
121.713577 278.340552 l
122.499338 279.163553 l
123.380022 278.331528 l
125.062289 278.328837 l
125.9377 278.125815 l
130.462416 277.982571 l
131.332554 277.973314 l
132.250154 278.305189 l
133.167754 279.393012 l
134.881661 279.505371 l
140.012837 279.563238 l
144.437356 279.491414 l
145.344409 279.132085 l
147.902086 279.759357 l
150.533594 279.938492 l
151.503929 279.445053 l
152.316058 279.270264 l
154.119616 279.372163 l
155.021395 279.180498 l
155.944268 279.53572 l
156.861868 279.660446 l
158.559955 281.087359 l
159.577753 280.474065 l
162.451844 280.707467 l
163.369444 280.01527 l
167.778142 280.10292 l
170.235622 280.164317 l
171.944256 280.083908 l
172.682554 280.034218 l
174.491386 280.258795 l
178.594218 280.229319 l
180.239569 280.549032 l
181.062245 281.310425 l
181.832185 281.310425 l
182.660134 280.7977 l
184.316032 280.68325 l
192.105084 280.784618 l
196.497961 280.800887 l
197.510485 280.492306 l
198.459726 280.377619 l
199.372052 280.380832 l
200.226369 280.731341 l
201.017404 280.802565 l
201.903362 281.393993 l
202.720764 281.015703 l
203.569808 280.887768 l
204.503228 281.044728 l
205.368092 281.032698 l
207.150556 280.661551 l
209.787337 280.592217 l
211.617263 280.62136 l
212.503222 280.999305 l
213.510472 280.892488 l
214.354242 281.562212 l
215.308757 281.562212 l
216.368743 280.637544 l
218.21449 280.70801 l
219.216466 280.362817 l
221.041119 280.26324 l
228.149881 280.268916 l
228.993651 280.011072 l
237.114936 279.856927 l
238.03781 280.75687 l
238.992324 279.75681 l
240.827524 279.709177 l
241.729303 280.467358 l
242.694365 279.649518 l
245.536815 279.681558 l
246.428047 279.944217 l
251.095149 279.98114 l
252.007476 279.625571 l
253.948146 279.489145 l
254.849925 279.631309 l
256.685125 279.542341 l
258.55724 279.92662 l
259.511754 280.384163 l
260.450448 279.649019 l
261.394416 279.48299 l
262.396393 280.249967 l
264.352884 280.291383 l
266.267187 280.332073 l
269.041081 280.344589 l
270.011417 280.157342 l
274.050965 280.093062 l
276.218399 279.958772 l
278.116881 280.139195 l
289.982396 280.165104 l
298.277709 280.093395 l
299.253318 280.643024 l
300.197286 280.023529 l
301.969203 279.882227 l
306.59939 279.749203 l
307.574999 279.686672 l
309.468208 279.753938 l
312.384488 279.610043 l
316.181453 279.71963 l
317.183429 280.06777 l
320.168266 280.112168 l
322.140578 280.363184 l
323.068725 280.888844 l
324.017966 280.888844 l
324.946113 281.017304 l
325.937543 280.367696 l
330.773399 280.444498 l
346.472793 280.554402 l
363.83336 280.59423 l
364.719318 280.484219 l
364.719318 280.484219 l
stroke
grestore
gsave
45.1375 269.929864 m
45.1375 366.347255 l
grestore
gsave
379.9375 269.929864 m
379.9375 366.347255 l
grestore
gsave
45.1375 269.929864 m
379.9375 269.929864 l
grestore
gsave
45.1375 366.347255 m
379.9375 366.347255 l
grestore
0.300 setlinewidth
0 setlinejoin
0 setlinecap
0.800 setgray
gsave
52.1375 315.36288 m
148.95 315.36288 l
150.283333 315.36288 150.95 316.029547 150.95 317.36288 c
150.95 359.347255 l
150.95 360.680589 150.283333 361.347255 148.95 361.347255 c
52.1375 361.347255 l
50.804167 361.347255 50.1375 360.680589 50.1375 359.347255 c
50.1375 317.36288 l
50.1375 316.029547 50.804167 315.36288 52.1375 315.36288 c
cl
gsave
1.000 setgray
fill
grestore
stroke
grestore
0.150 setgray
/LiberationSans 10.000 selectfont
gsave

54.137500 350.097255 translate
0.000000 rotate
0.000000 0 m /M glyphshow
8.330078 0 m /e glyphshow
13.891602 0 m /a glyphshow
19.453125 0 m /n glyphshow
25.014648 0 m /space glyphshow
27.792969 0 m /l glyphshow
30.014648 0 m /a glyphshow
35.576172 0 m /n glyphshow
41.137695 0 m /d glyphshow
46.699219 0 m /m glyphshow
55.029297 0 m /a glyphshow
60.590820 0 m /r glyphshow
63.920898 0 m /k glyphshow
68.920898 0 m /space glyphshow
71.699219 0 m /e glyphshow
77.260742 0 m /r glyphshow
80.590820 0 m /r glyphshow
83.920898 0 m /o glyphshow
89.482422 0 m /r glyphshow
grestore
1.750 setlinewidth
1 setlinejoin
1 setlinecap
0.298 0.447 0.690 setrgbcolor
gsave
56.809375 339.26913 m
76.809375 339.26913 l
stroke
grestore
0.150 setgray
gsave

84.809375 335.769130 translate
0.000000 rotate
0.000000 0 m /P glyphshow
6.669922 0 m /o glyphshow
12.231445 0 m /s glyphshow
17.231445 0 m /i glyphshow
19.453125 0 m /t glyphshow
22.231445 0 m /i glyphshow
24.453125 0 m /o glyphshow
30.014648 0 m /n glyphshow
35.576172 0 m /space glyphshow
38.354492 0 m /e glyphshow
43.916016 0 m /r glyphshow
47.246094 0 m /r glyphshow
50.576172 0 m /o glyphshow
56.137695 0 m /r glyphshow
grestore
0.333 0.659 0.408 setrgbcolor
gsave
56.809375 324.941005 m
76.809375 324.941005 l
stroke
grestore
0.150 setgray
gsave

84.809375 321.441005 translate
0.000000 rotate
0.000000 0 m /D glyphshow
7.221680 0 m /B glyphshow
13.891602 0 m /H glyphshow
21.113281 0 m /space glyphshow
23.891602 0 m /e glyphshow
29.453125 0 m /r glyphshow
32.783203 0 m /r glyphshow
36.113281 0 m /o glyphshow
41.674805 0 m /r glyphshow
grestore
gsave
45.1375 154.228995 m
379.9375 154.228995 l
379.9375 250.646386 l
45.1375 250.646386 l
cl
0.918 0.918 0.949 setrgbcolor
fill
grestore
1.000 setlinewidth
1.000 setgray
gsave
334.8 96.417 45.138 154.229 clipbox
60.355682 154.228995 m
60.355682 250.646386 l
stroke
grestore
gsave
334.8 96.417 45.138 154.229 clipbox
126.275208 154.228995 m
126.275208 250.646386 l
stroke
grestore
gsave
334.8 96.417 45.138 154.229 clipbox
192.194734 154.228995 m
192.194734 250.646386 l
stroke
grestore
gsave
334.8 96.417 45.138 154.229 clipbox
258.11426 154.228995 m
258.11426 250.646386 l
stroke
grestore
gsave
334.8 96.417 45.138 154.229 clipbox
324.033787 154.228995 m
324.033787 250.646386 l
stroke
grestore
gsave
334.8 96.417 45.138 154.229 clipbox
45.1375 158.571344 m
379.9375 158.571344 l
stroke
grestore
0.150 setgray
gsave

32.575000 154.946344 translate
0.000000 rotate
0.000000 0 m /zero glyphshow
grestore
1.000 setgray
gsave
334.8 96.417 45.138 154.229 clipbox
45.1375 197.911206 m
379.9375 197.911206 l
stroke
grestore
0.150 setgray
gsave

32.575000 194.286206 translate
0.000000 rotate
0.000000 0 m /two glyphshow
grestore
1.000 setgray
gsave
334.8 96.417 45.138 154.229 clipbox
45.1375 237.251069 m
379.9375 237.251069 l
stroke
grestore
0.150 setgray
gsave

32.575000 233.626069 translate
0.000000 rotate
0.000000 0 m /four glyphshow
grestore
/LiberationSans 11.000 selectfont
gsave

26.293750 181.015815 translate
90.000000 rotate
0.000000 0 m /E glyphshow
7.336914 0 m /r glyphshow
11.000000 0 m /r glyphshow
14.663086 0 m /o glyphshow
20.780762 0 m /r glyphshow
24.443848 0 m /space glyphshow
27.500000 0 m /bracketleft glyphshow
30.556152 0 m /m glyphshow
39.719238 0 m /bracketright glyphshow
grestore
1.750 setlinewidth
1.000 0.000 0.000 setrgbcolor
gsave
334.8 96.417 45.138 154.229 clipbox
60.355682 162.727227 m
61.283829 160.899867 l
61.964118 161.08809 l
62.665502 161.533206 l
63.398527 163.087432 l
64.057722 163.257605 l
64.785474 163.045272 l
65.53432 163.784102 l
66.277892 164.910069 l
66.915993 165.309137 l
69.241634 167.654388 l
71.772944 170.99819 l
72.553431 171.720366 l
73.376107 173.735362 l
74.235697 174.828796 l
75.058373 175.522793 l
75.780851 176.929431 l
76.666809 176.756251 l
77.484212 178.49699 l
78.254152 177.9504 l
79.113742 181.215165 l
79.941691 179.178632 l
80.785461 180.817876 l
81.68724 181.174387 l
83.459157 181.605941 l
84.313474 182.439377 l
85.067594 184.607594 l
85.858628 184.085938 l
86.728766 185.656821 l
87.482885 185.340211 l
88.268646 185.727945 l
89.703055 187.674678 l
90.399165 188.418081 l
91.190199 190.053066 l
91.944319 189.809971 l
92.798636 190.173982 l
93.647679 190.659044 l
94.428167 191.514592 l
95.266663 193.150691 l
96.991118 193.541285 l
97.892897 194.448084 l
98.636469 194.614371 l
99.538248 194.617395 l
100.324009 195.369307 l
101.030666 198.408673 l
101.858616 201.170019 l
102.676018 199.896719 l
103.456505 201.465463 l
104.26336 203.898075 l
105.159865 202.682739 l
106.066918 200.56344 l
107.016159 200.812306 l
107.823014 201.384128 l
108.650963 201.514647 l
110.428154 204.777807 l
111.361574 204.183766 l
112.279174 205.647598 l
113.112397 204.801109 l
114.066912 204.593644 l
114.973964 203.515122 l
115.775546 205.759741 l
116.577127 204.730295 l
117.383982 204.045204 l
118.201384 203.925063 l
119.103164 203.142148 l
120.041858 202.85483 l
121.713577 206.440511 l
123.380022 207.516565 l
124.192151 209.888729 l
125.9377 212.522796 l
126.78147 213.226378 l
127.71489 212.577345 l
128.690499 213.807394 l
129.560637 212.098635 l
130.462416 211.371356 l
131.332554 210.28041 l
132.250154 209.340947 l
133.167754 208.201382 l
134.881661 207.914987 l
135.69379 207.602432 l
136.558654 206.205193 l
137.434065 205.920992 l
139.121605 207.459841 l
140.012837 208.679133 l
140.888249 208.552387 l
141.76366 206.766951 l
142.633798 204.548499 l
143.556671 205.128696 l
144.437356 205.124454 l
145.344409 202.76316 l
147.902086 199.530502 l
149.652909 198.260496 l
150.533594 197.813673 l
152.316058 196.20631 l
154.119616 193.384258 l
155.021395 191.717912 l
155.944268 191.048074 l
156.861868 190.018509 l
157.695091 186.72485 l
159.577753 184.362019 l
160.511173 183.258044 l
162.451844 180.410778 l
163.369444 179.858739 l
164.186846 177.493766 l
166.016772 176.465473 l
166.918551 174.565027 l
167.778142 173.942983 l
168.621912 175.271994 l
169.439314 177.097546 l
170.235622 176.977602 l
171.010835 176.421765 l
171.944256 176.22601 l
172.682554 175.739182 l
173.615975 176.512129 l
174.491386 177.562359 l
175.329883 174.870266 l
176.173653 172.95426 l
177.033243 173.513928 l
177.776815 171.543385 l
178.594218 173.035023 l
179.358884 173.376301 l
180.239569 174.297188 l
181.062245 173.604221 l
181.832185 177.36434 l
182.660134 174.392365 l
183.466989 174.466637 l
184.316032 175.308575 l
185.233632 179.381232 l
186.082676 180.790277 l
186.968634 178.617597 l
187.854593 177.822801 l
188.629806 175.963137 l
189.463029 176.121058 l
190.259337 177.901818 l
191.229672 180.864782 l
192.105084 180.147109 l
193.866453 176.372575 l
194.757685 177.845751 l
195.664738 177.203723 l
196.497961 177.605713 l
197.510485 178.301363 l
199.372052 181.496274 l
200.226369 183.431328 l
201.903362 186.67163 l
202.720764 186.72452 l
203.569808 184.992277 l
204.503228 184.512032 l
205.368092 187.041089 l
206.243504 187.650011 l
207.150556 188.860879 l
208.036515 189.356574 l
208.9172 188.821758 l
209.787337 189.761454 l
210.720758 191.096694 l
213.510472 190.373921 l
214.354242 190.830429 l
215.308757 192.0445 l
216.368743 195.942618 l
217.333805 198.40522 l
218.21449 197.339732 l
219.216466 193.845158 l
220.160434 193.673497 l
221.041119 198.184679 l
221.942898 200.08038 l
222.855224 198.871519 l
223.693721 196.764707 l
224.574405 198.676402 l
225.507826 201.990593 l
226.341049 203.830891 l
227.258649 206.879849 l
228.149881 208.68496 l
228.993651 207.690348 l
229.91125 206.292862 l
230.834124 206.62223 l
233.491999 209.194949 l
234.325222 206.429231 l
235.258642 205.225323 l
236.176242 208.774352 l
237.114936 210.896688 l
238.03781 211.440475 l
238.992324 212.504263 l
241.729303 215.042153 l
242.694365 216.033329 l
243.596144 216.777076 l
244.577027 216.429072 l
245.536815 219.804071 l
246.428047 219.647775 l
247.382562 218.134448 l
248.395085 215.173235 l
249.291591 216.341955 l
250.135361 216.640691 l
251.095149 217.206293 l
252.007476 218.125568 l
252.993632 219.541746 l
253.948146 219.03752 l
254.849925 220.196203 l
255.741157 220.524058 l
256.685125 220.031988 l
257.602725 222.961634 l
258.55724 221.369415 l
259.511754 221.286366 l
260.450448 220.396848 l
261.394416 224.229122 l
262.396393 226.001348 l
263.366728 226.63039 l
264.352884 227.125198 l
265.328493 226.926284 l
266.267187 227.642793 l
267.269164 230.549982 l
268.176217 231.53144 l
269.041081 231.067238 l
270.939563 234.272199 l
272.985706 237.237969 l
274.050965 238.362128 l
275.147866 239.87079 l
276.218399 240.15164 l
277.183461 242.017964 l
278.116881 245.696173 l
279.087217 246.122283 l
279.962628 246.263777 l
280.874954 246.151275 l
281.824196 243.726247 l
285.54733 241.146515 l
286.37528 238.714869 l
287.229597 236.682403 l
288.105008 236.769449 l
289.982396 234.050728 l
290.889449 232.574824 l
291.785954 230.76917 l
292.751016 229.270991 l
293.668616 227.012325 l
294.570395 227.607689 l
295.551278 225.137626 l
296.405595 225.351888 l
298.277709 221.623344 l
300.197286 218.592423 l
301.056877 216.304301 l
301.969203 214.305245 l
302.907897 211.965941 l
303.804402 208.874261 l
305.708158 204.707265 l
306.59939 203.382564 l
307.574999 199.396382 l
308.529514 198.353312 l
309.468208 199.952689 l
310.438544 200.81039 l
311.429973 200.471803 l
312.384488 196.57058 l
314.256602 195.84927 l
315.232211 194.463322 l
316.181453 193.411555 l
317.183429 193.306001 l
318.201227 192.945817 l
319.166289 191.853487 l
320.168266 193.583014 l
321.186063 195.747055 l
322.140578 195.023918 l
323.068725 194.69445 l
324.017966 192.405642 l
324.946113 192.33705 l
325.937543 193.286592 l
326.95534 194.607051 l
327.952043 193.798419 l
328.943473 190.193139 l
329.808337 188.065229 l
330.773399 187.847485 l
331.717367 185.794379 l
332.524222 186.389142 l
333.431274 188.616786 l
334.248676 187.529784 l
335.134635 188.262734 l
335.988952 187.107977 l
336.816901 189.458183 l
337.70286 190.561766 l
339.348211 194.566975 l
342.090463 200.252147 l
342.971148 201.441058 l
343.925663 202.150961 l
345.607929 204.803548 l
346.472793 206.540992 l
347.295469 207.180432 l
348.925 211.643314 l
349.742402 212.853531 l
350.644181 214.805809 l
351.466857 215.22557 l
352.300079 215.406977 l
354.071996 218.877094 l
354.942134 214.457028 l
355.785904 216.494993 l
356.671862 216.644832 l
357.547274 220.052477 l
358.491241 221.529335 l
361.212399 227.370036 l
362.056169 228.67904 l
363.83336 232.886243 l
364.719318 235.628032 l
364.719318 235.628032 l
stroke
grestore
0.502 0.000 0.502 setrgbcolor
gsave
334.8 96.417 45.138 154.229 clipbox
60.355682 159.485161 m
61.283829 159.474985 l
61.964118 159.822439 l
62.665502 159.550468 l
64.057722 159.302619 l
65.53432 158.80363 l
66.915993 158.937015 l
67.638471 158.90648 l
69.241634 158.611603 l
70.106498 159.112606 l
70.9239 158.852337 l
71.772944 159.119517 l
75.780851 159.241375 l
76.666809 158.946023 l
77.484212 158.934217 l
78.254152 159.242141 l
79.113742 159.321564 l
79.941691 159.565279 l
80.785461 159.572348 l
81.68724 159.826674 l
84.313474 159.601889 l
85.858628 159.566712 l
87.482885 159.472108 l
88.975303 159.574938 l
89.703055 159.80609 l
91.190199 159.089836 l
91.944319 159.384123 l
92.798636 159.332026 l
93.647679 159.127878 l
96.991118 159.362627 l
100.324009 159.837969 l
101.030666 159.35709 l
101.858616 159.415784 l
102.676018 159.860498 l
104.26336 159.936102 l
105.159865 160.242145 l
107.823014 160.601308 l
108.650963 160.476775 l
110.428154 160.75079 l
111.361574 160.748806 l
112.279174 160.557149 l
113.112397 160.556281 l
114.066912 160.23119 l
115.775546 160.075316 l
116.577127 159.631143 l
117.383982 159.383025 l
119.103164 159.980019 l
120.041858 160.186343 l
120.85926 160.070488 l
121.713577 159.54914 l
122.499338 159.651769 l
124.192151 159.352818 l
125.062289 159.615519 l
125.9377 159.566627 l
126.78147 159.693223 l
128.690499 159.745747 l
132.250154 161.094585 l
133.167754 161.25318 l
134.022071 161.803583 l
134.881661 161.55485 l
135.69379 161.644298 l
136.558654 161.156541 l
138.304203 161.057622 l
140.012837 160.732536 l
140.888249 160.593851 l
141.76366 161.053458 l
142.633798 160.929803 l
143.556671 160.392676 l
145.344409 160.83265 l
146.203999 161.242759 l
147.902086 160.808799 l
149.652909 160.852574 l
150.533594 160.523923 l
151.503929 160.573188 l
152.316058 161.077074 l
153.217837 160.806734 l
154.119616 161.327496 l
155.021395 160.723148 l
155.944268 160.863511 l
156.861868 160.540035 l
158.559955 160.945289 l
159.577753 160.648609 l
160.511173 160.529087 l
161.428773 160.793048 l
164.186846 161.19307 l
165.120266 160.866766 l
166.016772 161.004015 l
166.918551 160.694293 l
170.235622 160.873792 l
171.010835 161.099835 l
171.944256 160.834156 l
172.682554 160.753037 l
173.615975 160.806138 l
175.329883 160.642599 l
176.173653 160.87591 l
177.033243 160.168477 l
179.358884 159.473014 l
181.062245 159.638121 l
181.832185 159.588853 l
183.466989 158.725079 l
185.233632 158.832327 l
186.082676 159.380884 l
186.968634 159.292343 l
187.854593 159.746686 l
188.629806 159.897283 l
190.259337 159.876997 l
191.229672 159.662664 l
192.927759 159.991297 l
193.866453 159.810746 l
194.757685 159.372673 l
196.497961 159.810583 l
197.510485 159.461337 l
198.459726 159.456105 l
199.372052 159.612438 l
200.226369 159.990196 l
201.017404 159.530632 l
201.903362 159.517968 l
202.720764 159.683925 l
205.368092 159.70909 l
206.243504 159.531838 l
207.150556 159.566248 l
208.036515 159.804399 l
208.9172 159.638021 l
209.787337 159.907404 l
211.617263 160.061038 l
213.510472 159.488482 l
214.354242 159.491699 l
215.308757 159.369857 l
216.368743 159.543128 l
219.216466 159.376687 l
220.160434 159.31648 l
221.041119 159.418239 l
221.942898 159.385096 l
222.855224 159.129767 l
224.574405 159.642095 l
227.258649 159.842623 l
229.91125 160.280878 l
230.834124 160.125688 l
231.646252 160.247153 l
232.611314 160.812535 l
233.491999 160.394964 l
234.325222 160.214276 l
236.176242 160.464137 l
237.114936 160.309259 l
239.909924 160.203995 l
240.827524 159.971214 l
241.729303 160.157997 l
242.694365 160.240749 l
243.596144 160.096015 l
246.428047 161.034128 l
247.382562 160.79634 l
248.395085 160.747866 l
249.291591 160.528555 l
250.135361 160.131282 l
251.095149 159.986465 l
252.993632 159.918566 l
254.849925 159.677453 l
257.602725 159.900995 l
258.55724 160.106318 l
259.511754 159.981195 l
260.450448 160.199211 l
261.394416 159.837231 l
262.396393 159.805882 l
263.366728 159.619697 l
265.328493 159.603284 l
266.267187 159.476108 l
267.269164 160.007021 l
268.176217 160.062647 l
269.041081 159.784497 l
270.011417 159.946333 l
270.939563 159.646537 l
271.936267 159.48075 l
272.985706 159.422218 l
274.050965 159.502716 l
275.147866 159.349354 l
277.183461 159.901335 l
278.116881 159.85323 l
279.962628 160.032114 l
280.874954 159.570986 l
282.673239 159.495736 l
283.675216 159.885482 l
284.640278 160.39126 l
285.54733 160.5907 l
286.37528 160.423864 l
287.229597 160.948216 l
289.982396 161.248367 l
290.889449 161.561247 l
294.570395 160.724392 l
295.551278 160.256543 l
296.405595 160.219233 l
297.407572 159.996151 l
299.253318 159.994853 l
300.197286 160.315688 l
301.056877 160.344372 l
301.969203 160.243008 l
302.907897 160.675715 l
303.804402 160.930649 l
305.708158 160.75503 l
306.59939 160.777982 l
307.574999 160.463388 l
309.468208 160.859943 l
310.438544 160.553481 l
311.429973 160.726568 l
314.256602 160.685426 l
315.232211 159.877593 l
316.181453 159.977493 l
317.183429 159.572984 l
320.168266 159.064657 l
321.186063 159.441684 l
323.068725 159.242551 l
324.017966 159.456679 l
324.946113 158.907135 l
325.937543 159.399932 l
326.95534 160.097449 l
327.952043 160.336135 l
330.773399 159.59015 l
332.524222 159.821516 l
333.431274 159.917753 l
338.525535 158.976929 l
339.348211 159.004758 l
341.215052 158.633441 l
342.090463 158.823955 l
342.971148 158.897162 l
343.925663 159.254784 l
344.721971 158.917807 l
345.607929 159.089176 l
346.472793 158.842424 l
348.123418 158.826812 l
348.925 159.141235 l
349.742402 158.780019 l
350.644181 158.679006 l
351.466857 159.141407 l
353.128029 159.559159 l
354.071996 159.451349 l
354.942134 159.607252 l
356.671862 159.335965 l
359.414115 159.65765 l
360.321167 159.28163 l
361.212399 159.555723 l
362.056169 159.452487 l
362.947401 159.585139 l
363.83336 159.078891 l
364.719318 159.835885 l
364.719318 159.835885 l
stroke
grestore
gsave
45.1375 154.228995 m
45.1375 250.646386 l
grestore
gsave
379.9375 154.228995 m
379.9375 250.646386 l
grestore
gsave
45.1375 154.228995 m
379.9375 154.228995 l
grestore
gsave
45.1375 250.646386 m
379.9375 250.646386 l
grestore
0.300 setlinewidth
0 setlinejoin
0 setlinecap
0.800 setgray
gsave
52.1375 199.662011 m
144.5125 199.662011 l
145.845833 199.662011 146.5125 200.328678 146.5125 201.662011 c
146.5125 243.646386 l
146.5125 244.979719 145.845833 245.646386 144.5125 245.646386 c
52.1375 245.646386 l
50.804167 245.646386 50.1375 244.979719 50.1375 243.646386 c
50.1375 201.662011 l
50.1375 200.328678 50.804167 199.662011 52.1375 199.662011 c
cl
gsave
1.000 setgray
fill
grestore
stroke
grestore
0.150 setgray
/LiberationSans 10.000 selectfont
gsave

54.137500 234.396386 translate
0.000000 rotate
0.000000 0 m /D glyphshow
7.221680 0 m /r glyphshow
10.551758 0 m /o glyphshow
16.113281 0 m /n glyphshow
21.674805 0 m /e glyphshow
27.236328 0 m /space glyphshow
30.014648 0 m /p glyphshow
35.576172 0 m /o glyphshow
41.137695 0 m /s glyphshow
46.137695 0 m /i glyphshow
48.359375 0 m /t glyphshow
51.137695 0 m /i glyphshow
53.359375 0 m /o glyphshow
58.920898 0 m /n glyphshow
64.482422 0 m /space glyphshow
67.260742 0 m /e glyphshow
72.822266 0 m /r glyphshow
76.152344 0 m /r glyphshow
79.482422 0 m /o glyphshow
85.043945 0 m /r glyphshow
grestore
1.750 setlinewidth
1 setlinejoin
1 setlinecap
1.000 0.000 0.000 setrgbcolor
gsave
65.707813 223.568261 m
85.707813 223.568261 l
stroke
grestore
0.150 setgray
gsave

93.707813 220.068261 translate
0.000000 rotate
0.000000 0 m /S glyphshow
6.669922 0 m /L glyphshow
12.231445 0 m /O glyphshow
20.009766 0 m /A glyphshow
26.679688 0 m /M glyphshow
grestore
0.502 0.000 0.502 setrgbcolor
gsave
65.707813 209.240136 m
85.707813 209.240136 l
stroke
grestore
0.150 setgray
gsave

93.707813 205.740136 translate
0.000000 rotate
0.000000 0 m /P glyphshow
6.669922 0 m /i glyphshow
8.891602 0 m /x glyphshow
13.891602 0 m /h glyphshow
19.453125 0 m /a glyphshow
25.014648 0 m /w glyphshow
32.236328 0 m /k glyphshow
grestore
gsave
45.1375 38.528125 m
379.9375 38.528125 l
379.9375 134.945516 l
45.1375 134.945516 l
cl
0.918 0.918 0.949 setrgbcolor
fill
grestore
1.000 setlinewidth
1.000 setgray
gsave
334.8 96.417 45.138 38.528 clipbox
60.355682 38.528125 m
60.355682 134.945516 l
stroke
grestore
0.150 setgray
gsave

57.574432 24.278125 translate
0.000000 rotate
0.000000 0 m /zero glyphshow
grestore
1.000 setgray
gsave
334.8 96.417 45.138 38.528 clipbox
126.275208 38.528125 m
126.275208 134.945516 l
stroke
grestore
0.150 setgray
gsave

120.712708 24.278125 translate
0.000000 rotate
0.000000 0 m /five glyphshow
5.561523 0 m /zero glyphshow
grestore
1.000 setgray
gsave
334.8 96.417 45.138 38.528 clipbox
192.194734 38.528125 m
192.194734 134.945516 l
stroke
grestore
0.150 setgray
gsave

183.850984 24.278125 translate
0.000000 rotate
0.000000 0 m /one glyphshow
5.561523 0 m /zero glyphshow
11.123047 0 m /zero glyphshow
grestore
1.000 setgray
gsave
334.8 96.417 45.138 38.528 clipbox
258.11426 38.528125 m
258.11426 134.945516 l
stroke
grestore
0.150 setgray
gsave

249.770510 24.278125 translate
0.000000 rotate
0.000000 0 m /one glyphshow
5.561523 0 m /five glyphshow
11.123047 0 m /zero glyphshow
grestore
1.000 setgray
gsave
334.8 96.417 45.138 38.528 clipbox
324.033787 38.528125 m
324.033787 134.945516 l
stroke
grestore
0.150 setgray
gsave

315.690037 24.278125 translate
0.000000 rotate
0.000000 0 m /two glyphshow
5.561523 0 m /zero glyphshow
11.123047 0 m /zero glyphshow
grestore
gsave
203.037500 10.200000 translate
0.000000 rotate
/DejaVuSans-Oblique 11.0 selectfont
0.000000 0.031250 moveto
/t glyphshow
/LiberationSans 11.0 selectfont
4.312988 0.031250 moveto
/space glyphshow
7.369141 0.031250 moveto
/bracketleft glyphshow
10.425293 0.031250 moveto
/s glyphshow
15.925293 0.031250 moveto
/bracketright glyphshow
grestore
1.000 setgray
gsave
334.8 96.417 45.138 38.528 clipbox
45.1375 41.640412 m
379.9375 41.640412 l
stroke
grestore
0.150 setgray
gsave

32.575000 38.015412 translate
0.000000 rotate
0.000000 0 m /zero glyphshow
grestore
1.000 setgray
gsave
334.8 96.417 45.138 38.528 clipbox
45.1375 67.04684 m
379.9375 67.04684 l
stroke
grestore
0.150 setgray
gsave

27.012500 63.421840 translate
0.000000 rotate
0.000000 0 m /two glyphshow
5.561523 0 m /zero glyphshow
grestore
1.000 setgray
gsave
334.8 96.417 45.138 38.528 clipbox
45.1375 92.453267 m
379.9375 92.453267 l
stroke
grestore
0.150 setgray
gsave

27.012500 88.828267 translate
0.000000 rotate
0.000000 0 m /four glyphshow
5.561523 0 m /zero glyphshow
grestore
1.000 setgray
gsave
334.8 96.417 45.138 38.528 clipbox
45.1375 117.859694 m
379.9375 117.859694 l
stroke
grestore
0.150 setgray
gsave

27.012500 114.234694 translate
0.000000 rotate
0.000000 0 m /six glyphshow
5.561523 0 m /zero glyphshow
grestore
/LiberationSans 11.000 selectfont
gsave

20.731250 64.393071 translate
90.000000 rotate
0.000000 0 m /C glyphshow
7.943848 0 m /o glyphshow
14.061523 0 m /u glyphshow
20.179199 0 m /n glyphshow
26.296875 0 m /t glyphshow
29.353027 0 m /space glyphshow
32.409180 0 m /bracketleft glyphshow
35.465332 0 m /numbersign glyphshow
41.583008 0 m /bracketright glyphshow
grestore
1.750 setlinewidth
0.000 setgray
gsave
334.8 96.417 45.138 38.528 clipbox
60.355682 42.910734 m
61.964118 42.910734 l
62.665502 44.181055 l
65.53432 44.181055 l
66.277892 45.451376 l
68.4506 45.451376 l
69.241634 47.992019 l
70.106498 47.992019 l
70.9239 49.262341 l
71.772944 49.262341 l
72.553431 50.532662 l
76.666809 50.532662 l
77.484212 51.802983 l
79.113742 51.802983 l
80.785461 54.343626 l
81.68724 54.343626 l
82.58902 55.613947 l
84.313474 55.613947 l
85.067594 56.884269 l
86.728766 56.884269 l
88.268646 59.424911 l
89.703055 59.424911 l
90.399165 60.695233 l
91.944319 60.695233 l
92.798636 61.965554 l
95.266663 61.965554 l
96.168442 63.235875 l
96.991118 63.235875 l
97.892897 65.776518 l
105.159865 65.776518 l
106.066918 67.04684 l
110.428154 67.04684 l
111.361574 68.317161 l
112.279174 68.317161 l
113.112397 69.587482 l
114.066912 72.128125 l
119.103164 72.128125 l
120.85926 74.668768 l
121.713577 74.668768 l
122.499338 77.20941 l
127.71489 77.20941 l
128.690499 78.479732 l
131.332554 78.479732 l
133.167754 81.020375 l
150.533594 81.020375 l
151.503929 82.290696 l
153.217837 82.290696 l
154.119616 83.561017 l
156.861868 83.561017 l
158.559955 86.10166 l
161.428773 86.10166 l
162.451844 87.371981 l
180.239569 87.371981 l
181.062245 88.642303 l
201.017404 88.642303 l
201.903362 89.912624 l
203.569808 89.912624 l
204.503228 91.182945 l
211.617263 91.182945 l
214.354242 94.993909 l
217.333805 94.993909 l
218.21449 96.264231 l
229.91125 96.264231 l
230.834124 97.534552 l
237.114936 97.534552 l
238.03781 98.804874 l
240.827524 98.804874 l
241.729303 100.075195 l
245.536815 100.075195 l
246.428047 101.345516 l
251.095149 101.345516 l
252.007476 102.615838 l
253.948146 102.615838 l
254.849925 103.886159 l
256.685125 103.886159 l
257.602725 105.15648 l
258.55724 105.15648 l
259.511754 106.426802 l
261.394416 106.426802 l
262.396393 107.697123 l
270.939563 107.697123 l
271.936267 108.967444 l
274.050965 108.967444 l
275.147866 110.237766 l
276.218399 110.237766 l
277.183461 111.508087 l
298.277709 111.508087 l
299.253318 112.778409 l
300.197286 112.778409 l
301.056877 114.04873 l
309.468208 114.04873 l
310.438544 115.319051 l
311.429973 115.319051 l
312.384488 116.589373 l
316.181453 116.589373 l
317.183429 119.130015 l
322.140578 119.130015 l
323.068725 120.400337 l
324.017966 120.400337 l
325.937543 122.940979 l
362.947401 122.940979 l
363.83336 124.211301 l
364.719318 124.211301 l
364.719318 124.211301 l
stroke
grestore
0 setlinecap
[6.475 2.8] 0 setdash
0.502 setgray
gsave
334.8 96.417 45.138 38.528 clipbox
60.355682 130.562908 m
265.328493 130.562908 l
266.267187 116.589373 l
267.269164 130.562908 l
364.719318 130.562908 l
364.719318 130.562908 l
stroke
grestore
gsave
45.1375 38.528125 m
45.1375 134.945516 l
grestore
gsave
379.9375 38.528125 m
379.9375 134.945516 l
grestore
gsave
45.1375 38.528125 m
379.9375 38.528125 l
grestore
gsave
45.1375 134.945516 m
379.9375 134.945516 l
grestore
0.300 setlinewidth
0 setlinejoin
[] 0 setdash
0.800 setgray
gsave
52.1375 83.961141 m
151.73125 83.961141 l
153.064583 83.961141 153.73125 84.627808 153.73125 85.961141 c
153.73125 127.945516 l
153.73125 129.27885 153.064583 129.945516 151.73125 129.945516 c
52.1375 129.945516 l
50.804167 129.945516 50.1375 129.27885 50.1375 127.945516 c
50.1375 85.961141 l
50.1375 84.627808 50.804167 83.961141 52.1375 83.961141 c
cl
gsave
1.000 setgray
fill
grestore
stroke
grestore
0.150 setgray
/LiberationSans 10.000 selectfont
gsave

54.137500 118.695516 translate
0.000000 rotate
0.000000 0 m /N glyphshow
7.221680 0 m /u glyphshow
12.783203 0 m /m glyphshow
21.113281 0 m /b glyphshow
26.674805 0 m /e glyphshow
32.236328 0 m /r glyphshow
35.566406 0 m /space glyphshow
38.344727 0 m /o glyphshow
43.906250 0 m /f glyphshow
46.684570 0 m /space glyphshow
49.462891 0 m /l glyphshow
51.684570 0 m /a glyphshow
57.246094 0 m /n glyphshow
62.807617 0 m /d glyphshow
68.369141 0 m /m glyphshow
76.699219 0 m /a glyphshow
82.260742 0 m /r glyphshow
85.590820 0 m /k glyphshow
90.590820 0 m /s glyphshow
grestore
1.750 setlinewidth
1 setlinejoin
1 setlinecap
0.000 setgray
gsave
59.85625 107.867391 m
79.85625 107.867391 l
stroke
grestore
0.150 setgray
gsave

87.856250 104.367391 translate
0.000000 rotate
0.000000 0 m /S glyphshow
6.669922 0 m /L glyphshow
12.231445 0 m /O glyphshow
20.009766 0 m /A glyphshow
26.679688 0 m /M glyphshow
grestore
0 setlinecap
[6.475 2.8] 0 setdash
0.502 setgray
gsave
59.85625 93.539266 m
79.85625 93.539266 l
stroke
grestore
0.150 setgray
gsave

87.856250 90.039266 translate
0.000000 rotate
0.000000 0 m /G glyphshow
7.778320 0 m /r glyphshow
11.108398 0 m /o glyphshow
16.669922 0 m /u glyphshow
22.231445 0 m /n glyphshow
27.792969 0 m /d glyphshow
33.354492 0 m /space glyphshow
36.132812 0 m /t glyphshow
38.911133 0 m /r glyphshow
42.241211 0 m /u glyphshow
47.802734 0 m /t glyphshow
50.581055 0 m /h glyphshow
grestore

end
showpage
