%!PS-Adobe-3.0 EPSF-3.0
%%Title: rrt.eps
%%Creator: Matplotlib v3.4.3, https://matplotlib.org/
%%CreationDate: Wed May 18 16:13:27 2022
%%Orientation: portrait
%%BoundingBox: 18 198 594 594
%%HiResBoundingBox: 18.000000 198.000000 594.000000 594.000000
%%EndComments
%%BeginProlog
/mpldict 12 dict def
mpldict begin
/_d { bind def } bind def
/m { moveto } _d
/l { lineto } _d
/r { rlineto } _d
/c { curveto } _d
/cl { closepath } _d
/ce { closepath eofill } _d
/box {
      m
      1 index 0 r
      0 exch r
      neg 0 r
      cl
    } _d
/clipbox {
      box
      clip
      newpath
    } _d
/sc { setcachedevice } _d
%!PS-Adobe-3.0 Resource-Font
%%Creator: Converted from TrueType to Type 3 by Matplotlib.
10 dict begin
/FontName /LiberationSans def
/PaintType 0 def
/FontMatrix [0.00048828125 0 0 0.00048828125 0 0] def
/FontBBox [-1114 -621 2666 2007] def
/FontType 3 def
/Encoding [/space /m /period /zero /one /two /minus /four /five /six /seven /bracketleft /bracketright] def
/CharStrings 14 dict dup begin
/.notdef 0 def
/space{569 0 0 0 0 0 sc
ce} _d
/m{1706 0 136 0 1571 1102 sc
768 0 m
768 686 l
768 791 754 863 725 903 c
696 943 645 963 570 963 c
493 963 433 934 388 875 c
343 816 321 734 321 627 c
321 0 l
142 0 l
142 851 l
142 977 140 1054 136 1082 c
306 1082 l
307 1079 307 1070 308 1055 c
309 1040 309 1023 310 1004 c
311 985 313 950 314 897 c
317 897 l
356 974 400 1027 450 1057 c
500 1087 561 1102 633 1102 c
715 1102 780 1086 827 1053 c
875 1020 908 968 927 897 c
930 897 l
967 970 1012 1022 1065 1054 c
1118 1086 1183 1102 1258 1102 c
1367 1102 1447 1072 1496 1013 c
1546 954 1571 856 1571 721 c
1571 0 l
1393 0 l
1393 686 l
1393 791 1379 863 1350 903 c
1321 943 1270 963 1195 963 c
1116 963 1055 934 1011 875 c
968 817 946 734 946 627 c
946 0 l
768 0 l

ce} _d
/period{569 0 187 0 382 219 sc
187 0 m
187 219 l
382 219 l
382 0 l
187 0 l

ce} _d
/zero{1139 0 80 -20 1059 1430 sc
1059 705 m
1059 470 1017 290 934 166 c
851 42 729 -20 567 -20 c
405 -20 283 42 202 165 c
121 288 80 468 80 705 c
80 947 119 1128 198 1249 c
277 1370 402 1430 573 1430 c
739 1430 861 1369 940 1247 c
1019 1125 1059 944 1059 705 c

876 705 m
876 908 852 1056 805 1147 c
758 1238 681 1284 573 1284 c
462 1284 383 1239 334 1149 c
286 1059 262 911 262 705 c
262 505 286 359 335 266 c
384 173 462 127 569 127 c
675 127 753 174 802 269 c
851 364 876 509 876 705 c

ce} _d
/one{1139 0 156 0 1039 1409 sc
156 0 m
156 153 l
515 153 l
515 1237 l
197 1010 l
197 1180 l
530 1409 l
696 1409 l
696 153 l
1039 153 l
1039 0 l
156 0 l

ce} _d
/two{1139 0 103 0 1036 1430 sc
103 0 m
103 127 l
137 205 178 274 227 333 c
276 393 328 447 382 495 c
436 544 489 589 542 630 c
595 671 643 713 686 754 c
729 795 763 839 789 884 c
816 929 829 981 829 1038 c
829 1115 806 1175 761 1218 c
716 1261 653 1282 572 1282 c
495 1282 432 1261 382 1219 c
333 1178 304 1119 295 1044 c
111 1061 l
124 1174 172 1263 254 1330 c
337 1397 443 1430 572 1430 c
714 1430 823 1396 899 1329 c
976 1262 1014 1167 1014 1044 c
1014 989 1001 935 976 881 c
951 827 914 773 865 719 c
816 665 721 581 582 468 c
505 405 444 349 399 298 c
354 248 321 200 301 153 c
1036 153 l
1036 0 l
103 0 l

ce} _d
/minus{1196 0 101 608 1096 754 sc
101 608 m
101 754 l
1096 754 l
1096 608 l
101 608 l

ce} _d
/four{1139 0 47 0 1079 1409 sc
881 319 m
881 0 l
711 0 l
711 319 l
47 319 l
47 459 l
692 1409 l
881 1409 l
881 461 l
1079 461 l
1079 319 l
881 319 l

711 1206 m
710 1202 700 1184 683 1153 c
666 1122 653 1100 644 1087 c
283 555 l
229 481 l
213 461 l
711 461 l
711 1206 l

ce} _d
/five{1139 0 82 -20 1053 1409 sc
1053 459 m
1053 310 1009 193 920 108 c
832 23 710 -20 553 -20 c
422 -20 316 9 235 66 c
154 123 103 206 82 315 c
264 336 l
302 197 400 127 557 127 c
654 127 729 156 784 214 c
839 273 866 353 866 455 c
866 544 838 615 783 670 c
728 725 654 752 561 752 c
512 752 467 744 425 729 c
383 714 341 688 299 651 c
123 651 l
170 1409 l
971 1409 l
971 1256 l
334 1256 l
307 809 l
385 869 482 899 598 899 c
737 899 847 858 929 777 c
1012 696 1053 590 1053 459 c

ce} _d
/six{1139 0 104 -20 1049 1430 sc
1049 461 m
1049 312 1009 195 928 109 c
847 23 736 -20 594 -20 c
435 -20 314 39 230 157 c
146 275 104 447 104 672 c
104 916 148 1103 235 1234 c
322 1365 447 1430 608 1430 c
821 1430 955 1334 1010 1143 c
838 1112 l
803 1227 725 1284 606 1284 c
503 1284 424 1236 367 1140 c
311 1045 283 906 283 725 c
316 786 362 832 421 863 c
480 895 548 911 625 911 c
755 911 858 870 934 789 c
1011 708 1049 598 1049 461 c

866 453 m
866 555 841 634 791 689 c
741 744 671 772 582 772 c
498 772 430 747 378 698 c
327 649 301 582 301 496 c
301 387 328 298 381 229 c
435 160 504 125 588 125 c
675 125 743 154 792 212 c
841 271 866 351 866 453 c

ce} _d
/seven{1139 0 105 0 1036 1409 sc
1036 1263 m
892 1043 790 871 731 746 c
672 621 627 498 597 377 c
568 256 553 130 553 0 c
365 0 l
365 180 403 369 479 568 c
556 767 683 997 862 1256 c
105 1256 l
105 1409 l
1036 1409 l
1036 1263 l

ce} _d
/bracketleft{569 0 146 -425 553 1484 sc
146 -425 m
146 1484 l
553 1484 l
553 1355 l
320 1355 l
320 -296 l
553 -296 l
553 -425 l
146 -425 l

ce} _d
/bracketright{569 0 16 -425 423 1484 sc
16 -425 m
16 -296 l
249 -296 l
249 1355 l
16 1355 l
16 1484 l
423 1484 l
423 -425 l
16 -425 l

ce} _d
end readonly def

/BuildGlyph {
 exch begin
 CharStrings exch
 2 copy known not {pop /.notdef} if
 true 3 1 roll get exec
 end
} _d

/BuildChar {
 1 index /Encoding get exch get
 1 index /BuildGlyph get exec
} _d

FontName currentdict end definefont pop
%!PS-Adobe-3.0 Resource-Font
%%Creator: Converted from TrueType to Type 3 by Matplotlib.
10 dict begin
/FontName /DejaVuSans-Oblique def
/PaintType 0 def
/FontMatrix [0.00048828125 0 0 0.00048828125 0 0] def
/FontBBox [-2080 -717 3398 2187] def
/FontType 3 def
/Encoding [/x /y] def
/CharStrings 3 dict dup begin
/.notdef 0 def
/x{1212 0 -53 0 1229 1120 sc
1229 1120 m
715 571 l
1030 0 l
819 0 l
582 444 l
170 0 l
-53 0 l
498 590 l
205 1120 l
416 1120 l
631 715 l
1006 1120 l
1229 1120 l

ce} _d
/y{1212 0 -51 -426 1235 1120 sc
508 -104 m
423 -247 353 -337 299 -372 c
246 -408 177 -426 94 -426 c
-51 -426 l
-20 -272 l
86 -272 l
137 -272 181 -258 217 -230 c
253 -202 293 -147 338 -66 c
395 41 l
147 1120 l
342 1120 l
528 262 l
1042 1120 l
1235 1120 l
508 -104 l

ce} _d
end readonly def

/BuildGlyph {
 exch begin
 CharStrings exch
 2 copy known not {pop /.notdef} if
 true 3 1 roll get exec
 end
} _d

/BuildChar {
 1 index /Encoding get exch get
 1 index /BuildGlyph get exec
} _d

FontName currentdict end definefont pop
end
%%EndProlog
mpldict begin
18 198 translate
576 396 0 0 clipbox
gsave
0 0 m
576 0 l
576 396 l
0 396 l
cl
1.000 setgray
fill
grestore
gsave
72 43.56 m
518.4 43.56 l
518.4 348.48 l
72 348.48 l
cl
0.918 0.918 0.949 setrgbcolor
fill
grestore
1.000 setlinewidth
1 setlinejoin
1 setlinecap
[] 0 setdash
1.000 setgray
gsave
446.4 304.92 72 43.56 clipbox
86.692774 43.56 m
86.692774 348.48 l
stroke
grestore
0.150 setgray
/LiberationSans 10.000 selectfont
gsave

79.739649 29.310000 translate
0.000000 rotate
0.000000 0 m /two glyphshow
5.561523 0 m /period glyphshow
8.339844 0 m /five glyphshow
grestore
1.000 setgray
gsave
446.4 304.92 72 43.56 clipbox
145.323155 43.56 m
145.323155 348.48 l
stroke
grestore
0.150 setgray
gsave

138.370030 29.310000 translate
0.000000 rotate
0.000000 0 m /five glyphshow
5.561523 0 m /period glyphshow
8.339844 0 m /zero glyphshow
grestore
1.000 setgray
gsave
446.4 304.92 72 43.56 clipbox
203.953537 43.56 m
203.953537 348.48 l
stroke
grestore
0.150 setgray
gsave

197.000412 29.310000 translate
0.000000 rotate
0.000000 0 m /seven glyphshow
5.561523 0 m /period glyphshow
8.339844 0 m /five glyphshow
grestore
1.000 setgray
gsave
446.4 304.92 72 43.56 clipbox
262.583919 43.56 m
262.583919 348.48 l
stroke
grestore
0.150 setgray
gsave

252.849544 29.310000 translate
0.000000 rotate
0.000000 0 m /one glyphshow
5.561523 0 m /zero glyphshow
11.123047 0 m /period glyphshow
13.901367 0 m /zero glyphshow
grestore
1.000 setgray
gsave
446.4 304.92 72 43.56 clipbox
321.2143 43.56 m
321.2143 348.48 l
stroke
grestore
0.150 setgray
gsave

311.479925 29.310000 translate
0.000000 rotate
0.000000 0 m /one glyphshow
5.561523 0 m /two glyphshow
11.123047 0 m /period glyphshow
13.901367 0 m /five glyphshow
grestore
1.000 setgray
gsave
446.4 304.92 72 43.56 clipbox
379.844682 43.56 m
379.844682 348.48 l
stroke
grestore
0.150 setgray
gsave

370.110307 29.310000 translate
0.000000 rotate
0.000000 0 m /one glyphshow
5.561523 0 m /five glyphshow
11.123047 0 m /period glyphshow
13.901367 0 m /zero glyphshow
grestore
1.000 setgray
gsave
446.4 304.92 72 43.56 clipbox
438.475064 43.56 m
438.475064 348.48 l
stroke
grestore
0.150 setgray
gsave

428.740689 29.310000 translate
0.000000 rotate
0.000000 0 m /one glyphshow
5.561523 0 m /seven glyphshow
11.123047 0 m /period glyphshow
13.901367 0 m /five glyphshow
grestore
1.000 setgray
gsave
446.4 304.92 72 43.56 clipbox
497.105445 43.56 m
497.105445 348.48 l
stroke
grestore
0.150 setgray
gsave

487.371070 29.310000 translate
0.000000 rotate
0.000000 0 m /two glyphshow
5.561523 0 m /zero glyphshow
11.123047 0 m /period glyphshow
13.901367 0 m /zero glyphshow
grestore
gsave
282.700000 15.231875 translate
0.000000 rotate
/DejaVuSans-Oblique 11.0 selectfont
0.000000 0.031250 moveto
/x glyphshow
/LiberationSans 11.0 selectfont
6.509766 0.031250 moveto
/space glyphshow
9.565918 0.031250 moveto
/bracketleft glyphshow
12.622070 0.031250 moveto
/m glyphshow
21.785156 0.031250 moveto
/bracketright glyphshow
grestore
1.000 setgray
gsave
446.4 304.92 72 43.56 clipbox
72 75.751206 m
518.4 75.751206 l
stroke
grestore
0.150 setgray
gsave

53.593750 72.126206 translate
0.000000 rotate
0.000000 0 m /minus glyphshow
5.839844 0 m /six glyphshow
grestore
1.000 setgray
gsave
446.4 304.92 72 43.56 clipbox
72 117.612332 m
518.4 117.612332 l
stroke
grestore
0.150 setgray
gsave

53.593750 113.987332 translate
0.000000 rotate
0.000000 0 m /minus glyphshow
5.839844 0 m /four glyphshow
grestore
1.000 setgray
gsave
446.4 304.92 72 43.56 clipbox
72 159.473458 m
518.4 159.473458 l
stroke
grestore
0.150 setgray
gsave

53.593750 155.848458 translate
0.000000 rotate
0.000000 0 m /minus glyphshow
5.839844 0 m /two glyphshow
grestore
1.000 setgray
gsave
446.4 304.92 72 43.56 clipbox
72 201.334584 m
518.4 201.334584 l
stroke
grestore
0.150 setgray
gsave

59.437500 197.709584 translate
0.000000 rotate
0.000000 0 m /zero glyphshow
grestore
1.000 setgray
gsave
446.4 304.92 72 43.56 clipbox
72 243.19571 m
518.4 243.19571 l
stroke
grestore
0.150 setgray
gsave

59.437500 239.570710 translate
0.000000 rotate
0.000000 0 m /two glyphshow
grestore
1.000 setgray
gsave
446.4 304.92 72 43.56 clipbox
72 285.056836 m
518.4 285.056836 l
stroke
grestore
0.150 setgray
gsave

59.437500 281.431836 translate
0.000000 rotate
0.000000 0 m /four glyphshow
grestore
1.000 setgray
gsave
446.4 304.92 72 43.56 clipbox
72 326.917962 m
518.4 326.917962 l
stroke
grestore
0.150 setgray
gsave

59.437500 323.292962 translate
0.000000 rotate
0.000000 0 m /six glyphshow
grestore
gsave
46.593750 183.520000 translate
90.000000 rotate
/DejaVuSans-Oblique 11.0 selectfont
0.000000 0.031250 moveto
/y glyphshow
/LiberationSans 11.0 selectfont
6.509766 0.031250 moveto
/space glyphshow
9.565918 0.031250 moveto
/bracketleft glyphshow
12.622070 0.031250 moveto
/m glyphshow
21.785156 0.031250 moveto
/bracketright glyphshow
grestore
0.300 setlinewidth
0 setlinejoin
0 setlinecap
1.000 0.000 0.000 setrgbcolor
gsave
446.4 304.92 72 43.56 clipbox
262.345645 180.83833 m
269.13488 180.83833 275.64696 183.245697 280.447674 187.530235 c
285.248388 191.814774 287.94578 197.626671 287.94578 203.685923 c
287.94578 209.745176 285.248388 215.557073 280.447674 219.841611 c
275.64696 224.12615 269.13488 226.533517 262.345645 226.533517 c
255.55641 226.533517 249.04433 224.12615 244.243616 219.841611 c
239.442901 215.557073 236.745509 209.745176 236.745509 203.685923 c
236.745509 197.626671 239.442901 191.814774 244.243616 187.530235 c
249.04433 183.245697 255.55641 180.83833 262.345645 180.83833 c
cl
gsave
fill
grestore
stroke
grestore
gsave
446.4 304.92 72 43.56 clipbox
255.805543 140.454902 m
262.582277 140.454902 269.082366 142.857836 273.87424 147.134485 c
278.666115 151.411134 281.358539 157.212329 281.358539 163.260425 c
281.358539 169.30852 278.666115 175.109715 273.87424 179.386365 c
269.082366 183.663014 262.582277 186.065948 255.805543 186.065948 c
249.028809 186.065948 242.52872 183.663014 237.736846 179.386365 c
232.944971 175.109715 230.252546 169.30852 230.252546 163.260425 c
230.252546 157.212329 232.944971 151.411134 237.736846 147.134485 c
242.52872 142.857836 249.028809 140.454902 255.805543 140.454902 c
cl
gsave
fill
grestore
stroke
grestore
0.000 0.000 1.000 setrgbcolor
gsave
446.4 304.92 72 43.56 clipbox
262.345645 193.815279 m
265.278738 193.815279 268.092095 194.855312 270.166105 196.706324 c
272.240115 198.557335 273.405445 201.068198 273.405445 203.685923 c
273.405445 206.303649 272.240115 208.814511 270.166105 210.665523 c
268.092095 212.516534 265.278738 213.556568 262.345645 213.556568 c
259.412551 213.556568 256.599195 212.516534 254.525185 210.665523 c
252.451174 208.814511 251.285844 206.303649 251.285844 203.685923 c
251.285844 201.068198 252.451174 198.557335 254.525185 196.706324 c
256.599195 194.855312 259.412551 193.815279 262.345645 193.815279 c
cl
gsave
fill
grestore
stroke
grestore
gsave
446.4 304.92 72 43.56 clipbox
255.805543 153.431851 m
258.726135 153.431851 261.5275 154.467451 263.592671 156.310574 c
265.657841 158.153696 266.818205 160.653856 266.818205 163.260425 c
266.818205 165.866993 265.657841 168.367154 263.592671 170.210276 c
261.5275 172.053398 258.726135 173.088998 255.805543 173.088998 c
252.884951 173.088998 250.083586 172.053398 248.018415 170.210276 c
245.953245 168.367154 244.792881 165.866993 244.792881 163.260425 c
244.792881 160.653856 245.953245 158.153696 248.018415 156.310574 c
250.083586 154.467451 252.884951 153.431851 255.805543 153.431851 c
cl
gsave
fill
grestore
stroke
grestore
0.100 setlinewidth
1 setlinejoin
1 setlinecap
0.000 setgray
gsave
446.4 304.92 72 43.56 clipbox
236.87262 190.705479 m
230.460333 199.467486 l
238.948839 234.63511 l
stroke
grestore
gsave
446.4 304.92 72 43.56 clipbox
236.87262 190.705479 m
230.460333 199.467486 l
237.049215 223.11723 l
247.890441 260.361493 l
stroke
grestore
gsave
446.4 304.92 72 43.56 clipbox
236.87262 190.705479 m
230.460333 199.467486 l
243.231671 250.757504 l
stroke
grestore
gsave
446.4 304.92 72 43.56 clipbox
236.87262 190.705479 m
230.460333 199.467486 l
249.997383 231.12945 l
261.681245 232.016068 l
325.961016 232.732521 l
388.392992 236.396207 l
446.652829 245.432768 l
stroke
grestore
gsave
446.4 304.92 72 43.56 clipbox
236.87262 190.705479 m
230.460333 199.467486 l
249.997383 231.12945 l
261.681245 232.016068 l
325.961016 232.732521 l
394.743835 235.547682 l
417.365781 236.303485 l
stroke
grestore
gsave
446.4 304.92 72 43.56 clipbox
236.87262 190.705479 m
230.460333 199.467486 l
249.997383 231.12945 l
261.681245 232.016068 l
325.961016 232.732521 l
394.743835 235.547682 l
453.233503 237.801276 l
stroke
grestore
gsave
446.4 304.92 72 43.56 clipbox
236.87262 190.705479 m
230.460333 199.467486 l
249.997383 231.12945 l
261.681245 232.016068 l
325.961016 232.732521 l
394.743835 235.547682 l
463.536034 242.798448 l
stroke
grestore
gsave
446.4 304.92 72 43.56 clipbox
236.87262 190.705479 m
230.460333 199.467486 l
249.997383 231.12945 l
273.221815 233.86633 l
326.537939 239.735888 l
373.184271 246.067802 l
432.297767 247.239913 l
stroke
grestore
gsave
446.4 304.92 72 43.56 clipbox
236.87262 190.705479 m
230.460333 199.467486 l
249.997383 231.12945 l
273.221815 233.86633 l
326.537939 239.735888 l
373.184271 246.067802 l
440.072155 255.074014 l
stroke
grestore
gsave
446.4 304.92 72 43.56 clipbox
236.87262 190.705479 m
230.460333 199.467486 l
249.997383 231.12945 l
273.221815 233.86633 l
326.537939 239.735888 l
384.685206 248.107485 l
448.8972 261.96582 l
stroke
grestore
gsave
446.4 304.92 72 43.56 clipbox
236.87262 190.705479 m
230.460333 199.467486 l
249.997383 231.12945 l
273.221815 233.86633 l
326.537939 239.735888 l
384.685206 248.107485 l
447.947388 260.544426 l
stroke
grestore
gsave
446.4 304.92 72 43.56 clipbox
236.87262 190.705479 m
230.460333 199.467486 l
249.997383 231.12945 l
273.221815 233.86633 l
326.537939 239.735888 l
388.76119 241.284122 l
stroke
grestore
gsave
446.4 304.92 72 43.56 clipbox
236.87262 190.705479 m
230.460333 199.467486 l
249.997383 231.12945 l
273.221815 233.86633 l
326.537939 239.735888 l
396.157999 245.936776 l
stroke
grestore
gsave
446.4 304.92 72 43.56 clipbox
236.87262 190.705479 m
230.460333 199.467486 l
249.997383 231.12945 l
273.221815 233.86633 l
326.537939 239.735888 l
357.902848 247.722153 l
stroke
grestore
gsave
446.4 304.92 72 43.56 clipbox
236.87262 190.705479 m
230.460333 199.467486 l
249.997383 231.12945 l
273.221815 233.86633 l
326.537939 239.735888 l
347.293094 243.266665 l
404.732106 253.075354 l
446.556676 266.217655 l
stroke
grestore
gsave
446.4 304.92 72 43.56 clipbox
236.87262 190.705479 m
230.460333 199.467486 l
249.997383 231.12945 l
273.221815 233.86633 l
326.537939 239.735888 l
347.293094 243.266665 l
404.732106 253.075354 l
450.796825 267.425558 l
stroke
grestore
gsave
446.4 304.92 72 43.56 clipbox
236.87262 190.705479 m
230.460333 199.467486 l
249.997383 231.12945 l
273.221815 233.86633 l
326.537939 239.735888 l
347.293094 243.266665 l
405.968035 249.156106 l
stroke
grestore
gsave
446.4 304.92 72 43.56 clipbox
236.87262 190.705479 m
230.460333 199.467486 l
249.997383 231.12945 l
273.221815 233.86633 l
340.051069 249.733371 l
367.576861 255.258621 l
stroke
grestore
gsave
446.4 304.92 72 43.56 clipbox
236.87262 190.705479 m
230.460333 199.467486 l
249.997383 231.12945 l
273.221815 233.86633 l
340.051069 249.733371 l
398.071695 269.134957 l
stroke
grestore
gsave
446.4 304.92 72 43.56 clipbox
236.87262 190.705479 m
230.460333 199.467486 l
249.997383 231.12945 l
273.221815 233.86633 l
340.051069 249.733371 l
405.850774 263.492914 l
stroke
grestore
gsave
446.4 304.92 72 43.56 clipbox
236.87262 190.705479 m
230.460333 199.467486 l
249.997383 231.12945 l
281.190857 241.544707 l
340.724146 274.989444 l
352.15238 277.340784 l
stroke
grestore
gsave
446.4 304.92 72 43.56 clipbox
236.87262 190.705479 m
230.460333 199.467486 l
249.997383 231.12945 l
281.190857 241.544707 l
340.724146 274.989444 l
354.157539 274.314643 l
stroke
grestore
gsave
446.4 304.92 72 43.56 clipbox
236.87262 190.705479 m
230.460333 199.467486 l
249.997383 231.12945 l
281.190857 241.544707 l
340.724146 274.989444 l
355.796845 284.676946 l
stroke
grestore
gsave
446.4 304.92 72 43.56 clipbox
236.87262 190.705479 m
230.460333 199.467486 l
249.997383 231.12945 l
281.190857 241.544707 l
340.724146 274.989444 l
367.379863 283.041432 l
421.523848 302.470227 l
424.070752 302.567136 l
stroke
grestore
gsave
446.4 304.92 72 43.56 clipbox
236.87262 190.705479 m
230.460333 199.467486 l
249.997383 231.12945 l
281.190857 241.544707 l
340.724146 274.989444 l
367.379863 283.041432 l
421.523848 302.470227 l
434.483507 307.378235 l
stroke
grestore
gsave
446.4 304.92 72 43.56 clipbox
236.87262 190.705479 m
230.460333 199.467486 l
249.997383 231.12945 l
281.190857 241.544707 l
340.724146 274.989444 l
368.123296 287.261243 l
417.157057 311.020362 l
stroke
grestore
gsave
446.4 304.92 72 43.56 clipbox
236.87262 190.705479 m
230.460333 199.467486 l
249.997383 231.12945 l
281.190857 241.544707 l
340.724146 274.989444 l
401.012595 293.788648 l
stroke
grestore
gsave
446.4 304.92 72 43.56 clipbox
236.87262 190.705479 m
230.460333 199.467486 l
249.997383 231.12945 l
281.190857 241.544707 l
340.724146 274.989444 l
389.481172 295.680562 l
stroke
grestore
gsave
446.4 304.92 72 43.56 clipbox
236.87262 190.705479 m
230.460333 199.467486 l
249.997383 231.12945 l
281.190857 241.544707 l
340.724146 274.989444 l
376.751343 295.981962 l
stroke
grestore
gsave
446.4 304.92 72 43.56 clipbox
236.87262 190.705479 m
230.460333 199.467486 l
249.997383 231.12945 l
281.568436 226.514679 l
330.710077 222.790085 l
390.438019 211.827829 l
stroke
grestore
gsave
446.4 304.92 72 43.56 clipbox
236.87262 190.705479 m
230.460333 199.467486 l
249.997383 231.12945 l
281.568436 226.514679 l
347.014014 223.166626 l
406.720849 204.681444 l
stroke
grestore
gsave
446.4 304.92 72 43.56 clipbox
236.87262 190.705479 m
230.460333 199.467486 l
249.997383 231.12945 l
281.568436 226.514679 l
347.014014 223.166626 l
409.828259 214.772068 l
424.403772 214.001949 l
stroke
grestore
gsave
446.4 304.92 72 43.56 clipbox
236.87262 190.705479 m
230.460333 199.467486 l
249.997383 231.12945 l
281.568436 226.514679 l
347.014014 223.166626 l
414.338108 214.057415 l
stroke
grestore
gsave
446.4 304.92 72 43.56 clipbox
236.87262 190.705479 m
230.460333 199.467486 l
249.997383 231.12945 l
281.568436 226.514679 l
347.014014 223.166626 l
381.408941 222.068714 l
421.544955 215.221824 l
stroke
grestore
gsave
446.4 304.92 72 43.56 clipbox
236.87262 190.705479 m
230.460333 199.467486 l
249.997383 231.12945 l
268.726037 238.060606 l
stroke
grestore
gsave
446.4 304.92 72 43.56 clipbox
236.87262 190.705479 m
230.460333 199.467486 l
249.997383 231.12945 l
291.777158 221.365384 l
348.198347 210.656931 l
401.153308 195.888179 l
458.965209 179.199258 l
stroke
grestore
gsave
446.4 304.92 72 43.56 clipbox
236.87262 190.705479 m
230.460333 199.467486 l
249.997383 231.12945 l
291.777158 221.365384 l
348.198347 210.656931 l
391.870946 199.261834 l
408.639235 188.997524 l
stroke
grestore
gsave
446.4 304.92 72 43.56 clipbox
236.87262 190.705479 m
230.460333 199.467486 l
249.997383 231.12945 l
291.777158 221.365384 l
348.198347 210.656931 l
391.870946 199.261834 l
415.543549 198.056795 l
stroke
grestore
gsave
446.4 304.92 72 43.56 clipbox
236.87262 190.705479 m
230.460333 199.467486 l
249.997383 231.12945 l
291.777158 221.365384 l
336.357355 186.249404 l
stroke
grestore
gsave
446.4 304.92 72 43.56 clipbox
236.87262 190.705479 m
230.460333 199.467486 l
249.997383 231.12945 l
291.777158 221.365384 l
339.293565 179.78343 l
343.791688 178.156078 l
stroke
grestore
gsave
446.4 304.92 72 43.56 clipbox
236.87262 190.705479 m
230.460333 199.467486 l
249.997383 231.12945 l
301.936631 222.028757 l
stroke
grestore
gsave
446.4 304.92 72 43.56 clipbox
236.87262 190.705479 m
230.460333 199.467486 l
249.997383 231.12945 l
307.48072 231.2498 l
341.603602 226.665588 l
410.088578 223.549865 l
450.459114 222.274566 l
stroke
grestore
gsave
446.4 304.92 72 43.56 clipbox
236.87262 190.705479 m
230.460333 199.467486 l
249.997383 231.12945 l
307.48072 231.2498 l
341.603602 226.665588 l
410.088578 223.549865 l
465.402825 216.739897 l
stroke
grestore
gsave
446.4 304.92 72 43.56 clipbox
236.87262 190.705479 m
230.460333 199.467486 l
249.997383 231.12945 l
307.48072 231.2498 l
327.825462 231.570666 l
390.529483 225.781481 l
stroke
grestore
gsave
446.4 304.92 72 43.56 clipbox
236.87262 190.705479 m
230.460333 199.467486 l
249.997383 231.12945 l
307.48072 231.2498 l
327.825462 231.570666 l
393.587643 228.458291 l
413.118596 224.81742 l
stroke
grestore
gsave
446.4 304.92 72 43.56 clipbox
236.87262 190.705479 m
230.460333 199.467486 l
249.997383 231.12945 l
307.48072 231.2498 l
327.825462 231.570666 l
393.587643 228.458291 l
423.646268 229.425493 l
stroke
grestore
gsave
446.4 304.92 72 43.56 clipbox
236.87262 190.705479 m
230.460333 199.467486 l
249.997383 231.12945 l
307.48072 231.2498 l
327.825462 231.570666 l
393.587643 228.458291 l
434.143451 226.493749 l
stroke
grestore
gsave
446.4 304.92 72 43.56 clipbox
236.87262 190.705479 m
230.460333 199.467486 l
249.997383 231.12945 l
307.48072 231.2498 l
327.825462 231.570666 l
393.587643 228.458291 l
445.158927 222.902273 l
stroke
grestore
gsave
446.4 304.92 72 43.56 clipbox
236.87262 190.705479 m
230.460333 199.467486 l
249.997383 231.12945 l
307.48072 231.2498 l
327.825462 231.570666 l
393.587643 228.458291 l
455.644385 222.544779 l
stroke
grestore
gsave
446.4 304.92 72 43.56 clipbox
236.87262 190.705479 m
230.460333 199.467486 l
249.997383 231.12945 l
307.48072 231.2498 l
327.825462 231.570666 l
393.587643 228.458291 l
462.29776 231.162101 l
stroke
grestore
gsave
446.4 304.92 72 43.56 clipbox
236.87262 190.705479 m
230.460333 199.467486 l
249.997383 231.12945 l
268.787013 269.710756 l
stroke
grestore
gsave
446.4 304.92 72 43.56 clipbox
236.87262 190.705479 m
230.460333 199.467486 l
249.997383 231.12945 l
292.879409 242.380883 l
355.890653 254.386026 l
401.444115 267.423883 l
422.975536 277.272341 l
stroke
grestore
gsave
446.4 304.92 72 43.56 clipbox
236.87262 190.705479 m
230.460333 199.467486 l
249.997383 231.12945 l
292.879409 242.380883 l
331.188501 248.213603 l
369.305285 265.609413 l
stroke
grestore
gsave
446.4 304.92 72 43.56 clipbox
236.87262 190.705479 m
230.460333 199.467486 l
249.997383 231.12945 l
292.879409 242.380883 l
331.188501 248.213603 l
387.321228 269.266819 l
400.062783 272.59436 l
stroke
grestore
gsave
446.4 304.92 72 43.56 clipbox
236.87262 190.705479 m
230.460333 199.467486 l
249.997383 231.12945 l
292.879409 242.380883 l
331.188501 248.213603 l
387.321228 269.266819 l
410.313719 277.675464 l
stroke
grestore
gsave
446.4 304.92 72 43.56 clipbox
236.87262 190.705479 m
230.460333 199.467486 l
249.997383 231.12945 l
292.879409 242.380883 l
331.188501 248.213603 l
390.203498 270.237369 l
446.282285 288.987386 l
stroke
grestore
gsave
446.4 304.92 72 43.56 clipbox
236.87262 190.705479 m
230.460333 199.467486 l
249.997383 231.12945 l
292.879409 242.380883 l
356.645813 267.793098 l
378.543088 279.841358 l
stroke
grestore
gsave
446.4 304.92 72 43.56 clipbox
236.87262 190.705479 m
230.460333 199.467486 l
249.997383 231.12945 l
292.879409 242.380883 l
356.645813 267.793098 l
381.56138 276.536632 l
stroke
grestore
gsave
446.4 304.92 72 43.56 clipbox
236.87262 190.705479 m
230.460333 199.467486 l
249.997383 231.12945 l
292.879409 242.380883 l
356.645813 267.793098 l
390.112034 278.132587 l
stroke
grestore
gsave
446.4 304.92 72 43.56 clipbox
236.87262 190.705479 m
230.460333 199.467486 l
249.997383 231.12945 l
292.879409 242.380883 l
356.645813 267.793098 l
405.128448 283.989377 l
stroke
grestore
gsave
446.4 304.92 72 43.56 clipbox
236.87262 190.705479 m
230.460333 199.467486 l
249.997383 231.12945 l
292.879409 242.380883 l
356.645813 267.793098 l
416.995237 286.274785 l
stroke
grestore
gsave
446.4 304.92 72 43.56 clipbox
236.87262 190.705479 m
230.460333 199.467486 l
249.997383 231.12945 l
292.879409 242.380883 l
356.645813 267.793098 l
409.781355 287.293267 l
424.169251 294.554497 l
stroke
grestore
gsave
446.4 304.92 72 43.56 clipbox
236.87262 190.705479 m
230.460333 199.467486 l
249.997383 231.12945 l
292.879409 242.380883 l
356.645813 267.793098 l
409.781355 287.293267 l
446.793542 299.44283 l
stroke
grestore
gsave
446.4 304.92 72 43.56 clipbox
236.87262 190.705479 m
230.460333 199.467486 l
249.997383 231.12945 l
292.879409 242.380883 l
356.645813 267.793098 l
409.781355 287.293267 l
445.611554 304.077694 l
stroke
grestore
gsave
446.4 304.92 72 43.56 clipbox
236.87262 190.705479 m
230.460333 199.467486 l
249.997383 231.12945 l
292.879409 242.380883 l
356.645813 267.793098 l
409.781355 287.293267 l
451.296356 300.398311 l
stroke
grestore
gsave
446.4 304.92 72 43.56 clipbox
236.87262 190.705479 m
230.460333 199.467486 l
249.997383 231.12945 l
280.393483 271.206036 l
stroke
grestore
gsave
446.4 304.92 72 43.56 clipbox
236.87262 190.705479 m
230.460333 199.467486 l
249.997383 231.12945 l
273.721346 225.921088 l
316.85689 196.147865 l
338.676773 168.738581 l
stroke
grestore
gsave
446.4 304.92 72 43.56 clipbox
236.87262 190.705479 m
230.460333 199.467486 l
249.997383 231.12945 l
273.721346 225.921088 l
316.85689 196.147865 l
357.64722 156.791206 l
366.380801 149.806887 l
stroke
grestore
gsave
446.4 304.92 72 43.56 clipbox
236.87262 190.705479 m
230.460333 199.467486 l
249.997383 231.12945 l
273.721346 225.921088 l
316.85689 196.147865 l
362.576862 160.843154 l
stroke
grestore
gsave
446.4 304.92 72 43.56 clipbox
236.87262 190.705479 m
230.460333 199.467486 l
249.997383 231.12945 l
273.721346 225.921088 l
316.85689 196.147865 l
334.042628 173.637798 l
stroke
grestore
gsave
446.4 304.92 72 43.56 clipbox
236.87262 190.705479 m
230.460333 199.467486 l
249.997383 231.12945 l
273.721346 225.921088 l
337.089062 214.008835 l
388.294493 195.985548 l
stroke
grestore
gsave
446.4 304.92 72 43.56 clipbox
236.87262 190.705479 m
230.460333 199.467486 l
249.997383 231.12945 l
273.721346 225.921088 l
337.089062 214.008835 l
392.553404 203.836079 l
427.682383 193.87242 l
470.68425 179.590241 l
stroke
grestore
gsave
446.4 304.92 72 43.56 clipbox
236.87262 190.705479 m
230.460333 199.467486 l
249.997383 231.12945 l
273.721346 225.921088 l
337.089062 214.008835 l
400.020569 196.092964 l
stroke
grestore
gsave
446.4 304.92 72 43.56 clipbox
236.87262 190.705479 m
230.460333 199.467486 l
249.997383 231.12945 l
273.721346 225.921088 l
337.089062 214.008835 l
405.728823 203.249253 l
426.408931 199.565621 l
stroke
grestore
gsave
446.4 304.92 72 43.56 clipbox
236.87262 190.705479 m
230.460333 199.467486 l
249.997383 231.12945 l
273.721346 225.921088 l
328.294505 193.848642 l
356.938965 177.67928 l
415.536513 152.204273 l
425.292609 146.232993 l
stroke
grestore
gsave
446.4 304.92 72 43.56 clipbox
236.87262 190.705479 m
230.460333 199.467486 l
249.997383 231.12945 l
273.721346 225.921088 l
328.294505 193.848642 l
356.938965 177.67928 l
405.42629 149.933726 l
stroke
grestore
gsave
446.4 304.92 72 43.56 clipbox
236.87262 190.705479 m
230.460333 199.467486 l
249.997383 231.12945 l
273.721346 225.921088 l
328.294505 193.848642 l
356.938965 177.67928 l
395.599838 155.644002 l
432.018686 137.645183 l
stroke
grestore
gsave
446.4 304.92 72 43.56 clipbox
236.87262 190.705479 m
230.460333 199.467486 l
249.997383 231.12945 l
273.721346 225.921088 l
328.294505 193.848642 l
357.949752 167.253139 l
stroke
grestore
gsave
446.4 304.92 72 43.56 clipbox
236.87262 190.705479 m
230.460333 199.467486 l
249.997383 231.12945 l
273.721346 225.921088 l
328.294505 193.848642 l
376.666915 154.832733 l
stroke
grestore
gsave
446.4 304.92 72 43.56 clipbox
236.87262 190.705479 m
230.460333 199.467486 l
249.997383 231.12945 l
273.721346 225.921088 l
328.294505 193.848642 l
371.197873 166.271705 l
408.672068 143.719651 l
stroke
grestore
gsave
446.4 304.92 72 43.56 clipbox
236.87262 190.705479 m
230.460333 199.467486 l
249.997383 231.12945 l
273.721346 225.921088 l
325.456795 204.002686 l
351.650504 192.333919 l
stroke
grestore
gsave
446.4 304.92 72 43.56 clipbox
236.87262 190.705479 m
230.460333 199.467486 l
249.997383 231.12945 l
273.721346 225.921088 l
325.456795 204.002686 l
350.759322 186.573451 l
stroke
grestore
gsave
446.4 304.92 72 43.56 clipbox
236.87262 190.705479 m
230.460333 199.467486 l
249.997383 231.12945 l
273.721346 225.921088 l
325.456795 204.002686 l
360.226956 192.746586 l
416.833417 171.057478 l
421.730227 171.722651 l
stroke
grestore
gsave
446.4 304.92 72 43.56 clipbox
236.87262 190.705479 m
230.460333 199.467486 l
249.997383 231.12945 l
273.721346 225.921088 l
325.456795 204.002686 l
360.226956 192.746586 l
416.833417 171.057478 l
429.277129 170.362793 l
stroke
grestore
gsave
446.4 304.92 72 43.56 clipbox
236.87262 190.705479 m
230.460333 199.467486 l
249.997383 231.12945 l
273.721346 225.921088 l
325.456795 204.002686 l
360.226956 192.746586 l
416.833417 171.057478 l
442.342324 153.816973 l
stroke
grestore
gsave
446.4 304.92 72 43.56 clipbox
236.87262 190.705479 m
230.460333 199.467486 l
249.997383 231.12945 l
273.721346 225.921088 l
325.456795 204.002686 l
360.226956 192.746586 l
416.833417 171.057478 l
455.848418 151.426703 l
stroke
grestore
gsave
446.4 304.92 72 43.56 clipbox
236.87262 190.705479 m
230.460333 199.467486 l
249.997383 231.12945 l
273.721346 225.921088 l
325.456795 204.002686 l
370.613915 182.984404 l
stroke
grestore
gsave
446.4 304.92 72 43.56 clipbox
236.87262 190.705479 m
230.460333 199.467486 l
249.997383 231.12945 l
273.721346 225.921088 l
325.456795 204.002686 l
374.886897 178.869601 l
415.855462 162.665578 l
462.290725 142.682332 l
stroke
grestore
gsave
446.4 304.92 72 43.56 clipbox
236.87262 190.705479 m
230.460333 199.467486 l
249.997383 231.12945 l
273.721346 225.921088 l
325.456795 204.002686 l
375.686615 178.346965 l
stroke
grestore
gsave
446.4 304.92 72 43.56 clipbox
236.87262 190.705479 m
230.460333 199.467486 l
249.997383 231.12945 l
273.721346 225.921088 l
325.456795 204.002686 l
381.711473 187.324272 l
stroke
grestore
gsave
446.4 304.92 72 43.56 clipbox
236.87262 190.705479 m
230.460333 199.467486 l
249.997383 231.12945 l
273.721346 225.921088 l
325.456795 204.002686 l
380.513068 171.891352 l
425.008838 146.033943 l
stroke
grestore
gsave
446.4 304.92 72 43.56 clipbox
236.87262 190.705479 m
230.460333 199.467486 l
249.997383 231.12945 l
273.721346 225.921088 l
325.456795 204.002686 l
380.513068 171.891352 l
441.842793 143.361111 l
stroke
grestore
gsave
446.4 304.92 72 43.56 clipbox
236.87262 190.705479 m
230.460333 199.467486 l
249.997383 231.12945 l
275.097987 249.255317 l
330.226963 279.653192 l
365.130801 297.380333 l
stroke
grestore
gsave
446.4 304.92 72 43.56 clipbox
236.87262 190.705479 m
230.460333 199.467486 l
249.997383 231.12945 l
275.097987 249.255317 l
330.226963 279.653192 l
346.800599 287.0511 l
stroke
grestore
gsave
446.4 304.92 72 43.56 clipbox
236.87262 190.705479 m
230.460333 199.467486 l
249.997383 231.12945 l
275.097987 249.255317 l
331.605949 283.9674 l
370.248061 306.796574 l
stroke
grestore
gsave
446.4 304.92 72 43.56 clipbox
236.87262 190.705479 m
230.460333 199.467486 l
249.997383 231.12945 l
275.097987 249.255317 l
323.580623 280.165573 l
339.764953 290.187545 l
stroke
grestore
gsave
446.4 304.92 72 43.56 clipbox
236.87262 190.705479 m
230.460333 199.467486 l
249.997383 231.12945 l
275.097987 249.255317 l
326.575462 289.094342 l
stroke
grestore
gsave
446.4 304.92 72 43.56 clipbox
236.87262 190.705479 m
230.460333 199.467486 l
249.997383 231.12945 l
275.097987 249.255317 l
315.747604 272.512312 l
stroke
grestore
gsave
446.4 304.92 72 43.56 clipbox
236.87262 190.705479 m
230.460333 199.467486 l
249.997383 231.12945 l
276.807649 281.169612 l
stroke
grestore
gsave
446.4 304.92 72 43.56 clipbox
236.87262 190.705479 m
230.460333 199.467486 l
249.997383 231.12945 l
310.412239 214.797373 l
353.526676 201.334584 l
414.36156 179.863175 l
445.435663 164.414117 l
450.048701 161.704028 l
stroke
grestore
gsave
446.4 304.92 72 43.56 clipbox
236.87262 190.705479 m
230.460333 199.467486 l
249.997383 231.12945 l
310.412239 214.797373 l
353.526676 201.334584 l
414.36156 179.863175 l
439.335758 175.741319 l
458.733033 168.736069 l
stroke
grestore
gsave
446.4 304.92 72 43.56 clipbox
236.87262 190.705479 m
230.460333 199.467486 l
249.997383 231.12945 l
310.412239 214.797373 l
353.526676 201.334584 l
414.36156 179.863175 l
457.513521 153.63404 l
stroke
grestore
gsave
446.4 304.92 72 43.56 clipbox
236.87262 190.705479 m
230.460333 199.467486 l
249.997383 231.12945 l
310.412239 214.797373 l
353.526676 201.334584 l
414.36156 179.863175 l
465.569336 168.113594 l
stroke
grestore
gsave
446.4 304.92 72 43.56 clipbox
236.87262 190.705479 m
230.460333 199.467486 l
249.997383 231.12945 l
310.412239 214.797373 l
371.945997 193.117517 l
402.684734 178.90916 l
stroke
grestore
gsave
446.4 304.92 72 43.56 clipbox
236.87262 190.705479 m
230.460333 199.467486 l
249.997383 231.12945 l
289.577346 269.600243 l
stroke
grestore
gsave
446.4 304.92 72 43.56 clipbox
236.87262 190.705479 m
230.460333 199.467486 l
249.997383 231.12945 l
301.570777 235.556682 l
367.708193 236.8144 l
406.18614 233.257669 l
stroke
grestore
gsave
446.4 304.92 72 43.56 clipbox
236.87262 190.705479 m
230.460333 199.467486 l
249.997383 231.12945 l
301.570777 235.556682 l
367.708193 236.8144 l
424.603115 243.767951 l
stroke
grestore
gsave
446.4 304.92 72 43.56 clipbox
236.87262 190.705479 m
230.460333 199.467486 l
246.761924 234.293314 l
257.916002 265.789206 l
stroke
grestore
gsave
446.4 304.92 72 43.56 clipbox
236.87262 190.705479 m
227.194386 172.339056 l
203.811182 130.208763 l
stroke
grestore
gsave
446.4 304.92 72 43.56 clipbox
236.87262 190.705479 m
227.194386 172.339056 l
228.872387 131.82837 l
stroke
grestore
gsave
446.4 304.92 72 43.56 clipbox
236.87262 190.705479 m
227.194386 172.339056 l
236.950481 131.541412 l
254.959389 113.968739 l
stroke
grestore
gsave
446.4 304.92 72 43.56 clipbox
236.87262 190.705479 m
227.194386 172.339056 l
236.950481 131.541412 l
265.693674 118.181643 l
313.892538 92.038114 l
stroke
grestore
gsave
446.4 304.92 72 43.56 clipbox
236.87262 190.705479 m
227.194386 172.339056 l
236.950481 131.541412 l
259.849632 104.456845 l
stroke
grestore
gsave
446.4 304.92 72 43.56 clipbox
236.87262 190.705479 m
227.194386 172.339056 l
236.950481 131.541412 l
266.165062 124.026084 l
stroke
grestore
gsave
446.4 304.92 72 43.56 clipbox
236.87262 190.705479 m
227.194386 172.339056 l
236.950481 131.541412 l
244.332281 117.595378 l
stroke
grestore
gsave
446.4 304.92 72 43.56 clipbox
236.87262 190.705479 m
227.194386 172.339056 l
236.950481 131.541412 l
277.417405 118.012315 l
333.660358 100.583644 l
stroke
grestore
gsave
446.4 304.92 72 43.56 clipbox
236.87262 190.705479 m
227.194386 172.339056 l
236.950481 131.541412 l
287.848923 113.230728 l
stroke
grestore
gsave
446.4 304.92 72 43.56 clipbox
236.87262 190.705479 m
227.194386 172.339056 l
236.950481 131.541412 l
272.079695 111.519236 l
312.87237 90.769722 l
stroke
grestore
gsave
446.4 304.92 72 43.56 clipbox
236.87262 190.705479 m
227.194386 172.339056 l
236.950481 131.541412 l
267.023411 134.907884 l
stroke
grestore
gsave
446.4 304.92 72 43.56 clipbox
236.87262 190.705479 m
227.194386 172.339056 l
236.950481 131.541412 l
255.632701 94.691691 l
stroke
grestore
gsave
446.4 304.92 72 43.56 clipbox
236.87262 190.705479 m
227.194386 172.339056 l
236.950481 131.541412 l
266.79358 91.48471 l
stroke
grestore
gsave
446.4 304.92 72 43.56 clipbox
236.87262 190.705479 m
227.194386 172.339056 l
236.950481 131.541412 l
273.275755 143.968306 l
316.495727 167.176742 l
stroke
grestore
gsave
446.4 304.92 72 43.56 clipbox
236.87262 190.705479 m
227.194386 172.339056 l
236.950481 131.541412 l
273.275755 143.968306 l
327.877057 164.661726 l
stroke
grestore
gsave
446.4 304.92 72 43.56 clipbox
236.87262 190.705479 m
225.458223 208.932776 l
stroke
grestore
gsave
446.4 304.92 72 43.56 clipbox
236.87262 190.705479 m
216.108319 214.8821 l
stroke
grestore
gsave
446.4 304.92 72 43.56 clipbox
236.87262 190.705479 m
205.210572 211.01813 l
170.616771 234.843159 l
136.440887 253.556548 l
stroke
grestore
gsave
446.4 304.92 72 43.56 clipbox
236.87262 190.705479 m
218.074313 225.199193 l
194.138342 274.677788 l
stroke
grestore
gsave
446.4 304.92 72 43.56 clipbox
236.87262 190.705479 m
219.061648 164.799868 l
stroke
grestore
gsave
446.4 304.92 72 43.56 clipbox
236.87262 190.705479 m
228.867697 229.289653 l
223.713852 265.27557 l
stroke
grestore
gsave
446.4 304.92 72 43.56 clipbox
236.87262 190.705479 m
228.867697 229.289653 l
223.252548 275.732898 l
stroke
grestore
gsave
446.4 304.92 72 43.56 clipbox
236.87262 190.705479 m
234.118868 244.171493 l
239.628248 248.761775 l
stroke
grestore
gsave
446.4 304.92 72 43.56 clipbox
236.87262 190.705479 m
234.118868 244.171493 l
247.130826 267.998846 l
stroke
grestore
gsave
446.4 304.92 72 43.56 clipbox
236.87262 190.705479 m
234.118868 244.171493 l
243.907093 264.097807 l
stroke
grestore
gsave
446.4 304.92 72 43.56 clipbox
236.87262 190.705479 m
234.118868 244.171493 l
234.460566 278.809481 l
stroke
grestore
gsave
446.4 304.92 72 43.56 clipbox
236.87262 190.705479 m
234.118868 244.171493 l
226.983316 289.671816 l
stroke
grestore
gsave
446.4 304.92 72 43.56 clipbox
236.87262 190.705479 m
234.118868 244.171493 l
240.661081 257.991316 l
stroke
grestore
gsave
446.4 304.92 72 43.56 clipbox
236.87262 190.705479 m
234.118868 244.171493 l
245.068913 262.724344 l
stroke
grestore
gsave
446.4 304.92 72 43.56 clipbox
236.87262 190.705479 m
186.737312 192.589146 l
140.079019 195.360227 l
stroke
grestore
gsave
446.4 304.92 72 43.56 clipbox
236.87262 190.705479 m
186.737312 192.589146 l
121.976772 202.780622 l
stroke
grestore
gsave
446.4 304.92 72 43.56 clipbox
236.87262 190.705479 m
186.737312 192.589146 l
162.917664 192.890253 l
stroke
grestore
gsave
446.4 304.92 72 43.56 clipbox
236.87262 190.705479 m
186.737312 192.589146 l
118.787279 198.234181 l
stroke
grestore
gsave
446.4 304.92 72 43.56 clipbox
236.87262 190.705479 m
186.737312 192.589146 l
126.113966 201.699592 l
stroke
grestore
gsave
446.4 304.92 72 43.56 clipbox
236.87262 190.705479 m
186.737312 192.589146 l
127.888121 201.40024 l
stroke
grestore
gsave
446.4 304.92 72 43.56 clipbox
236.87262 190.705479 m
210.336978 215.96624 l
170.848478 265.868324 l
160.635066 279.926546 l
stroke
grestore
gsave
446.4 304.92 72 43.56 clipbox
236.87262 190.705479 m
210.336978 215.96624 l
171.023197 256.304103 l
159.844963 269.485125 l
stroke
grestore
gsave
446.4 304.92 72 43.56 clipbox
236.87262 190.705479 m
210.336978 215.96624 l
171.023197 256.304103 l
149.507957 274.425784 l
stroke
grestore
gsave
446.4 304.92 72 43.56 clipbox
236.87262 190.705479 m
210.336978 215.96624 l
171.023197 256.304103 l
143.740135 283.537696 l
stroke
grestore
gsave
446.4 304.92 72 43.56 clipbox
236.87262 190.705479 m
210.336978 215.96624 l
171.023197 256.304103 l
160.926576 268.829998 l
stroke
grestore
gsave
446.4 304.92 72 43.56 clipbox
236.87262 190.705479 m
224.3419 249.949165 l
stroke
grestore
gsave
446.4 304.92 72 43.56 clipbox
236.87262 190.705479 m
190.872395 182.796133 l
138.618185 174.224691 l
stroke
grestore
gsave
446.4 304.92 72 43.56 clipbox
236.87262 190.705479 m
219.235194 154.335633 l
199.842375 112.858164 l
stroke
grestore
gsave
446.4 304.92 72 43.56 clipbox
236.87262 190.705479 m
212.09847 146.03185 l
197.866296 122.952346 l
stroke
grestore
gsave
446.4 304.92 72 43.56 clipbox
236.87262 190.705479 m
202.101521 140.562066 l
179.385062 102.023458 l
stroke
grestore
gsave
446.4 304.92 72 43.56 clipbox
236.87262 190.705479 m
202.101521 140.562066 l
169.709876 96.110992 l
161.631548 88.525338 l
stroke
grestore
gsave
446.4 304.92 72 43.56 clipbox
236.87262 190.705479 m
198.718547 219.733093 l
145.690651 259.98851 l
139.957303 266.44831 l
stroke
grestore
gsave
446.4 304.92 72 43.56 clipbox
236.87262 190.705479 m
198.718547 219.733093 l
145.690651 259.98851 l
128.610682 272.676617 l
stroke
grestore
gsave
446.4 304.92 72 43.56 clipbox
236.87262 190.705479 m
198.718547 219.733093 l
145.690651 259.98851 l
117.573161 276.209906 l
stroke
grestore
gsave
446.4 304.92 72 43.56 clipbox
236.87262 190.705479 m
190.695566 216.463906 l
162.170009 227.584231 l
stroke
grestore
gsave
446.4 304.92 72 43.56 clipbox
236.87262 190.705479 m
190.695566 216.463906 l
154.697684 235.649405 l
stroke
grestore
gsave
446.4 304.92 72 43.56 clipbox
236.87262 190.705479 m
190.695566 216.463906 l
137.677754 243.149453 l
stroke
grestore
gsave
446.4 304.92 72 43.56 clipbox
236.87262 190.705479 m
221.580879 235.742336 l
stroke
grestore
gsave
446.4 304.92 72 43.56 clipbox
236.87262 190.705479 m
199.429617 147.667155 l
162.870994 104.61215 l
150.849655 92.640077 l
stroke
grestore
gsave
446.4 304.92 72 43.56 clipbox
236.87262 190.705479 m
199.429617 147.667155 l
162.870994 104.61215 l
143.137649 84.756581 l
stroke
grestore
gsave
446.4 304.92 72 43.56 clipbox
236.87262 190.705479 m
199.429617 147.667155 l
162.870994 104.61215 l
147.835584 80.466862 l
stroke
grestore
gsave
446.4 304.92 72 43.56 clipbox
236.87262 190.705479 m
199.429617 147.667155 l
162.870994 104.61215 l
133.833008 78.387829 l
stroke
grestore
gsave
446.4 304.92 72 43.56 clipbox
236.87262 190.705479 m
199.429617 147.667155 l
162.870994 104.61215 l
137.624048 80.450745 l
stroke
grestore
gsave
446.4 304.92 72 43.56 clipbox
236.87262 190.705479 m
223.967604 184.796739 l
stroke
grestore
gsave
446.4 304.92 72 43.56 clipbox
236.87262 190.705479 m
187.855979 149.348717 l
183.849179 146.447741 l
stroke
grestore
gsave
446.4 304.92 72 43.56 clipbox
236.87262 190.705479 m
187.855979 149.348717 l
165.094727 129.181701 l
stroke
grestore
gsave
446.4 304.92 72 43.56 clipbox
236.87262 190.705479 m
225.087444 243.030149 l
stroke
grestore
gsave
446.4 304.92 72 43.56 clipbox
236.87262 190.705479 m
200.576192 222.837807 l
181.829011 237.907394 l
139.547828 268.903046 l
stroke
grestore
gsave
446.4 304.92 72 43.56 clipbox
236.87262 190.705479 m
200.576192 222.837807 l
181.829011 237.907394 l
135.322688 277.548415 l
stroke
grestore
gsave
446.4 304.92 72 43.56 clipbox
236.87262 190.705479 m
200.576192 222.837807 l
181.829011 237.907394 l
138.227003 280.739489 l
134.737557 284.719226 l
stroke
grestore
gsave
446.4 304.92 72 43.56 clipbox
236.87262 190.705479 m
211.987775 226.98478 l
187.131777 263.296795 l
stroke
grestore
gsave
446.4 304.92 72 43.56 clipbox
236.87262 190.705479 m
211.987775 226.98478 l
182.485202 264.577954 l
169.303685 278.087168 l
stroke
grestore
gsave
446.4 304.92 72 43.56 clipbox
236.87262 190.705479 m
211.987775 226.98478 l
175.053449 268.832301 l
stroke
grestore
gsave
446.4 304.92 72 43.56 clipbox
236.87262 190.705479 m
211.987775 226.98478 l
167.996462 273.53477 l
stroke
grestore
gsave
446.4 304.92 72 43.56 clipbox
236.87262 190.705479 m
217.306489 187.991748 l
159.274841 184.23894 l
139.662744 180.786611 l
stroke
grestore
gsave
446.4 304.92 72 43.56 clipbox
236.87262 190.705479 m
217.306489 187.991748 l
159.274841 184.23894 l
128.141874 182.736355 l
stroke
grestore
gsave
446.4 304.92 72 43.56 clipbox
236.87262 190.705479 m
233.698371 189.507769 l
234.626373 180.434014 l
stroke
grestore
gsave
446.4 304.92 72 43.56 clipbox
236.87262 190.705479 m
233.698371 189.507769 l
197.576897 206.678429 l
stroke
grestore
gsave
446.4 304.92 72 43.56 clipbox
236.87262 190.705479 m
233.698371 189.507769 l
195.224411 205.532794 l
stroke
grestore
gsave
446.4 304.92 72 43.56 clipbox
236.87262 190.705479 m
233.698371 189.507769 l
183.921177 202.748113 l
stroke
grestore
gsave
446.4 304.92 72 43.56 clipbox
236.87262 190.705479 m
233.698371 189.507769 l
177.488721 211.498277 l
stroke
grestore
gsave
446.4 304.92 72 43.56 clipbox
236.87262 190.705479 m
233.698371 189.507769 l
173.424463 206.654086 l
stroke
grestore
gsave
446.4 304.92 72 43.56 clipbox
236.87262 190.705479 m
233.698371 189.507769 l
167.887644 205.490159 l
109.924476 219.185717 l
stroke
grestore
gsave
446.4 304.92 72 43.56 clipbox
236.87262 190.705479 m
233.698371 189.507769 l
205.458227 207.184048 l
stroke
grestore
gsave
446.4 304.92 72 43.56 clipbox
236.87262 190.705479 m
233.698371 189.507769 l
176.661329 213.492646 l
stroke
grestore
gsave
446.4 304.92 72 43.56 clipbox
236.87262 190.705479 m
233.698371 189.507769 l
197.456587 201.837223 l
stroke
grestore
gsave
446.4 304.92 72 43.56 clipbox
236.87262 190.705479 m
233.698371 189.507769 l
171.037034 213.896312 l
152.907112 221.167088 l
stroke
grestore
gsave
446.4 304.92 72 43.56 clipbox
236.87262 190.705479 m
233.698371 189.507769 l
171.037034 213.896312 l
141.640464 224.067896 l
stroke
grestore
gsave
446.4 304.92 72 43.56 clipbox
236.87262 190.705479 m
233.698371 189.507769 l
178.009593 200.654776 l
151.079017 204.277944 l
stroke
grestore
gsave
446.4 304.92 72 43.56 clipbox
236.87262 190.705479 m
233.698371 189.507769 l
178.009593 200.654776 l
139.479582 205.81182 l
stroke
grestore
gsave
446.4 304.92 72 43.56 clipbox
236.87262 190.705479 m
233.698371 189.507769 l
178.009593 200.654776 l
131.898205 207.576455 l
stroke
grestore
gsave
446.4 304.92 72 43.56 clipbox
236.87262 190.705479 m
233.698371 189.507769 l
178.009593 200.654776 l
129.277192 210.970408 l
stroke
grestore
gsave
446.4 304.92 72 43.56 clipbox
236.87262 190.705479 m
233.698371 189.507769 l
178.009593 200.654776 l
112.531652 208.982402 l
stroke
grestore
gsave
446.4 304.92 72 43.56 clipbox
236.87262 190.705479 m
233.698371 189.507769 l
178.009593 200.654776 l
154.439007 206.451646 l
stroke
grestore
gsave
446.4 304.92 72 43.56 clipbox
236.87262 190.705479 m
233.698371 189.507769 l
169.29876 204.685693 l
stroke
grestore
gsave
446.4 304.92 72 43.56 clipbox
236.87262 190.705479 m
233.698371 189.507769 l
185.106449 205.070313 l
158.826905 212.133352 l
stroke
grestore
gsave
446.4 304.92 72 43.56 clipbox
236.87262 190.705479 m
202.348003 212.75882 l
147.099421 244.59743 l
stroke
grestore
gsave
446.4 304.92 72 43.56 clipbox
236.87262 190.705479 m
219.735898 157.576102 l
196.525537 111.450374 l
stroke
grestore
gsave
446.4 304.92 72 43.56 clipbox
236.87262 190.705479 m
219.735898 157.576102 l
191.1102 102.168088 l
stroke
grestore
gsave
446.4 304.92 72 43.56 clipbox
236.87262 190.705479 m
219.735898 157.576102 l
259.59846 130.519791 l
269.525756 134.052033 l
stroke
grestore
gsave
446.4 304.92 72 43.56 clipbox
236.87262 190.705479 m
219.735898 157.576102 l
259.59846 130.519791 l
291.415995 123.200374 l
352.940372 112.481623 l
stroke
grestore
gsave
446.4 304.92 72 43.56 clipbox
236.87262 190.705479 m
219.735898 157.576102 l
259.59846 130.519791 l
287.82078 122.160753 l
343.500881 106.272362 l
375.583426 103.095103 l
stroke
grestore
gsave
446.4 304.92 72 43.56 clipbox
236.87262 190.705479 m
219.735898 157.576102 l
259.59846 130.519791 l
287.82078 122.160753 l
343.500881 106.272362 l
384.530422 96.329926 l
stroke
grestore
gsave
446.4 304.92 72 43.56 clipbox
236.87262 190.705479 m
219.735898 157.576102 l
259.59846 130.519791 l
287.82078 122.160753 l
343.500881 106.272362 l
369.035585 94.414361 l
stroke
grestore
gsave
446.4 304.92 72 43.56 clipbox
236.87262 190.705479 m
219.735898 157.576102 l
259.59846 130.519791 l
284.347516 119.367569 l
stroke
grestore
gsave
446.4 304.92 72 43.56 clipbox
236.87262 190.705479 m
219.735898 157.576102 l
259.59846 130.519791 l
302.492447 126.635288 l
342.551069 133.379116 l
378.944119 127.469999 l
stroke
grestore
gsave
446.4 304.92 72 43.56 clipbox
236.87262 190.705479 m
219.735898 157.576102 l
259.59846 130.519791 l
302.492447 126.635288 l
342.551069 133.379116 l
398.580607 138.392195 l
stroke
grestore
gsave
446.4 304.92 72 43.56 clipbox
236.87262 190.705479 m
219.735898 157.576102 l
259.59846 130.519791 l
302.492447 126.635288 l
342.551069 133.379116 l
399.441301 139.449398 l
stroke
grestore
gsave
446.4 304.92 72 43.56 clipbox
236.87262 190.705479 m
219.735898 157.576102 l
259.59846 130.519791 l
302.492447 126.635288 l
343.477429 138.247565 l
stroke
grestore
gsave
446.4 304.92 72 43.56 clipbox
236.87262 190.705479 m
219.735898 157.576102 l
259.59846 130.519791 l
302.492447 126.635288 l
347.79028 128.516109 l
stroke
grestore
gsave
446.4 304.92 72 43.56 clipbox
236.87262 190.705479 m
219.735898 157.576102 l
259.59846 130.519791 l
302.492447 126.635288 l
348.726021 122.247196 l
406.62235 120.043417 l
435.794483 123.163327 l
stroke
grestore
gsave
446.4 304.92 72 43.56 clipbox
236.87262 190.705479 m
219.735898 157.576102 l
259.59846 130.519791 l
302.492447 126.635288 l
348.726021 122.247196 l
406.62235 120.043417 l
446.108739 118.184155 l
stroke
grestore
gsave
446.4 304.92 72 43.56 clipbox
236.87262 190.705479 m
219.735898 157.576102 l
259.59846 130.519791 l
302.492447 126.635288 l
348.726021 122.247196 l
406.62235 120.043417 l
457.834816 118.286924 l
stroke
grestore
gsave
446.4 304.92 72 43.56 clipbox
236.87262 190.705479 m
219.735898 157.576102 l
259.59846 130.519791 l
302.492447 126.635288 l
348.726021 122.247196 l
406.62235 120.043417 l
447.407989 120.661706 l
stroke
grestore
gsave
446.4 304.92 72 43.56 clipbox
236.87262 190.705479 m
219.735898 157.576102 l
259.59846 130.519791 l
302.492447 126.635288 l
350.993844 146.279878 l
stroke
grestore
gsave
446.4 304.92 72 43.56 clipbox
236.87262 190.705479 m
219.735898 157.576102 l
259.59846 130.519791 l
302.492447 126.635288 l
363.43052 133.026226 l
398.915973 127.931309 l
stroke
grestore
gsave
446.4 304.92 72 43.56 clipbox
236.87262 190.705479 m
219.735898 157.576102 l
259.59846 130.519791 l
302.492447 126.635288 l
363.43052 133.026226 l
427.194578 130.278043 l
stroke
grestore
gsave
446.4 304.92 72 43.56 clipbox
236.87262 190.705479 m
219.735898 157.576102 l
259.59846 130.519791 l
302.492447 126.635288 l
372.325922 129.086467 l
stroke
grestore
gsave
446.4 304.92 72 43.56 clipbox
236.87262 190.705479 m
219.735898 157.576102 l
259.59846 130.519791 l
302.492447 126.635288 l
370.604534 112.56995 l
stroke
grestore
gsave
446.4 304.92 72 43.56 clipbox
236.87262 190.705479 m
219.735898 157.576102 l
259.59846 130.519791 l
302.492447 126.635288 l
364.394404 118.304296 l
375.222263 117.546191 l
stroke
grestore
gsave
446.4 304.92 72 43.56 clipbox
236.87262 190.705479 m
219.735898 157.576102 l
259.59846 130.519791 l
302.492447 126.635288 l
364.394404 118.304296 l
389.089521 122.220614 l
stroke
grestore
gsave
446.4 304.92 72 43.56 clipbox
236.87262 190.705479 m
219.735898 157.576102 l
259.59846 130.519791 l
302.492447 126.635288 l
364.394404 118.304296 l
410.71006 110.311542 l
441.800579 108.450397 l
stroke
grestore
gsave
446.4 304.92 72 43.56 clipbox
236.87262 190.705479 m
219.735898 157.576102 l
259.59846 130.519791 l
297.19226 124.684978 l
364.652378 113.016817 l
stroke
grestore
gsave
446.4 304.92 72 43.56 clipbox
236.87262 190.705479 m
185.675398 190.140375 l
148.282113 187.881946 l
stroke
grestore
gsave
446.4 304.92 72 43.56 clipbox
236.87262 190.705479 m
170.139989 180.302717 l
stroke
grestore
gsave
446.4 304.92 72 43.56 clipbox
236.87262 190.705479 m
193.20565 182.499233 l
stroke
grestore
gsave
446.4 304.92 72 43.56 clipbox
236.87262 190.705479 m
196.080649 142.589819 l
stroke
grestore
gsave
446.4 304.92 72 43.56 clipbox
236.87262 190.705479 m
219.81798 234.940068 l
208.555553 263.750569 l
stroke
grestore
gsave
446.4 304.92 72 43.56 clipbox
236.87262 190.705479 m
211.298282 143.30104 l
193.043361 109.682997 l
stroke
grestore
gsave
446.4 304.92 72 43.56 clipbox
236.87262 190.705479 m
221.46268 224.78121 l
208.977457 251.9855 l
stroke
grestore
gsave
446.4 304.92 72 43.56 clipbox
236.87262 190.705479 m
221.46268 224.78121 l
204.94697 260.017813 l
stroke
grestore
gsave
446.4 304.92 72 43.56 clipbox
236.87262 190.705479 m
171.647024 177.949912 l
stroke
grestore
gsave
446.4 304.92 72 43.56 clipbox
236.87262 190.705479 m
243.555311 186.213822 l
stroke
grestore
gsave
446.4 304.92 72 43.56 clipbox
236.87262 190.705479 m
186.152181 156.820718 l
172.170007 145.511517 l
stroke
grestore
gsave
446.4 304.92 72 43.56 clipbox
236.87262 190.705479 m
186.152181 156.820718 l
162.639052 139.415071 l
stroke
grestore
gsave
446.4 304.92 72 43.56 clipbox
236.87262 190.705479 m
211.090965 182.757014 l
stroke
grestore
gsave
446.4 304.92 72 43.56 clipbox
236.87262 190.705479 m
219.655691 174.460369 l
stroke
grestore
gsave
446.4 304.92 72 43.56 clipbox
236.87262 190.705479 m
225.615118 235.917107 l
214.780927 282.234768 l
stroke
grestore
gsave
446.4 304.92 72 43.56 clipbox
236.87262 190.705479 m
213.154051 246.976188 l
stroke
grestore
gsave
446.4 304.92 72 43.56 clipbox
236.87262 190.705479 m
205.288668 180.664837 l
stroke
grestore
gsave
446.4 304.92 72 43.56 clipbox
236.87262 190.705479 m
225.811178 166.782411 l
221.834162 140.198712 l
210.047813 93.057642 l
stroke
grestore
gsave
446.4 304.92 72 43.56 clipbox
236.87262 190.705479 m
225.811178 166.782411 l
240.35503 129.706848 l
290.789823 109.113477 l
321.983531 99.612257 l
stroke
grestore
gsave
446.4 304.92 72 43.56 clipbox
236.87262 190.705479 m
225.811178 166.782411 l
245.703059 120.393376 l
260.628009 95.96092 l
stroke
grestore
gsave
446.4 304.92 72 43.56 clipbox
236.87262 190.705479 m
225.811178 166.782411 l
222.205409 116.251636 l
stroke
grestore
gsave
446.4 304.92 72 43.56 clipbox
236.87262 190.705479 m
225.811178 166.782411 l
219.943918 110.492801 l
stroke
grestore
gsave
446.4 304.92 72 43.56 clipbox
236.87262 190.705479 m
225.811178 166.782411 l
208.249737 111.265557 l
stroke
grestore
gsave
446.4 304.92 72 43.56 clipbox
236.87262 190.705479 m
225.811178 166.782411 l
210.745749 130.515396 l
202.793828 101.280214 l
stroke
grestore
gsave
446.4 304.92 72 43.56 clipbox
236.87262 190.705479 m
210.461744 175.185822 l
148.856222 151.535542 l
stroke
grestore
gsave
446.4 304.92 72 43.56 clipbox
236.87262 190.705479 m
227.495511 236.875098 l
219.744809 285.71887 l
stroke
grestore
gsave
446.4 304.92 72 43.56 clipbox
236.87262 190.705479 m
203.78773 135.594616 l
196.659683 121.915028 l
stroke
grestore
gsave
446.4 304.92 72 43.56 clipbox
236.87262 190.705479 m
203.78773 135.594616 l
177.70495 93.077735 l
stroke
grestore
gsave
446.4 304.92 72 43.56 clipbox
236.87262 190.705479 m
205.570328 244.954924 l
194.204008 264.212507 l
stroke
grestore
gsave
446.4 304.92 72 43.56 clipbox
236.87262 190.705479 m
205.570328 244.954924 l
179.737782 282.862894 l
stroke
grestore
gsave
446.4 304.92 72 43.56 clipbox
236.87262 190.705479 m
225.457988 225.312637 l
216.35996 257.615612 l
stroke
grestore
gsave
446.4 304.92 72 43.56 clipbox
236.87262 190.705479 m
190.167189 163.144469 l
151.09731 141.26324 l
stroke
grestore
gsave
446.4 304.92 72 43.56 clipbox
236.87262 190.705479 m
169.580889 173.615821 l
stroke
grestore
gsave
446.4 304.92 72 43.56 clipbox
236.87262 190.705479 m
173.965973 191.239711 l
165.449558 191.799331 l
stroke
grestore
gsave
446.4 304.92 72 43.56 clipbox
236.87262 190.705479 m
173.965973 191.239711 l
113.957543 188.69784 l
stroke
grestore
1.750 setlinewidth
0.750 0.750 0.000 setrgbcolor
gsave
446.4 304.92 72 43.56 clipbox
236.87262 190.705479 m
230.460333 199.467486 l
249.997383 231.12945 l
310.412239 214.797373 l
353.526676 201.334584 l
stroke
grestore
gsave
446.4 304.92 72 43.56 clipbox
/o {
gsave
newpath
translate
0 -3.5 m
0.928211 -3.5 1.81853 -3.131218 2.474874 -2.474874 c
3.131218 -1.81853 3.5 -0.928211 3.5 0 c
3.5 0.928211 3.131218 1.81853 2.474874 2.474874 c
1.81853 3.131218 0.928211 3.5 0 3.5 c
-0.928211 3.5 -1.81853 3.131218 -2.474874 2.474874 c
-3.131218 1.81853 -3.5 0.928211 -3.5 0 c
-3.5 -0.928211 -3.131218 -1.81853 -2.474874 -2.474874 c
-1.81853 -3.131218 -0.928211 -3.5 0 -3.5 c
cl

0.750 0.750 0.000 setrgbcolor
fill
grestore
} bind def
236.873 190.705 o
230.46 199.467 o
249.997 231.129 o
310.412 214.797 o
353.527 201.335 o
grestore
gsave
446.4 304.92 72 43.56 clipbox
/o {
gsave
newpath
translate
0 -3.5 m
0.928211 -3.5 1.81853 -3.131218 2.474874 -2.474874 c
3.131218 -1.81853 3.5 -0.928211 3.5 0 c
3.5 0.928211 3.131218 1.81853 2.474874 2.474874 c
1.81853 3.131218 0.928211 3.5 0 3.5 c
-0.928211 3.5 -1.81853 3.131218 -2.474874 2.474874 c
-3.131218 1.81853 -3.5 0.928211 -3.5 0 c
-3.5 -0.928211 -3.131218 -1.81853 -2.474874 -2.474874 c
-1.81853 -3.131218 -0.928211 -3.5 0 -3.5 c
cl

0.000 0.500 0.000 setrgbcolor
fill
grestore
} bind def
236.873 190.705 o
grestore
gsave
446.4 304.92 72 43.56 clipbox
/o {
gsave
newpath
translate
-3.5 -3.5 m
3.5 3.5 l
-3.5 3.5 m
3.5 -3.5 l

1.000 0.000 0.000 setrgbcolor
fill
grestore
} bind def
353.527 201.335 o
grestore
0.000 setgray
gsave
446.4 304.92 72 43.56 clipbox
95.452153 293.536226 m
468.747102 327.549437 l
494.947847 98.503774 l
121.653367 64.490563 l
95.452153 293.536226 l
stroke
grestore
gsave
72 43.56 m
72 348.48 l
grestore
gsave
518.4 43.56 m
518.4 348.48 l
grestore
gsave
72 43.56 m
518.4 43.56 l
grestore
gsave
72 348.48 m
518.4 348.48 l
grestore

end
showpage
