%!PS-Adobe-3.0 EPSF-3.0
%%Title: rrt.eps
%%Creator: Matplotlib v3.4.3, https://matplotlib.org/
%%CreationDate: Wed May 18 16:10:48 2022
%%Orientation: portrait
%%BoundingBox: 18 198 594 594
%%HiResBoundingBox: 18.000000 198.000000 594.000000 594.000000
%%EndComments
%%BeginProlog
/mpldict 12 dict def
mpldict begin
/_d { bind def } bind def
/m { moveto } _d
/l { lineto } _d
/r { rlineto } _d
/c { curveto } _d
/cl { closepath } _d
/ce { closepath eofill } _d
/box {
      m
      1 index 0 r
      0 exch r
      neg 0 r
      cl
    } _d
/clipbox {
      box
      clip
      newpath
    } _d
/sc { setcachedevice } _d
%!PS-Adobe-3.0 Resource-Font
%%Creator: Converted from TrueType to Type 3 by Matplotlib.
10 dict begin
/FontName /LiberationSans def
/PaintType 0 def
/FontMatrix [0.00048828125 0 0 0.00048828125 0 0] def
/FontBBox [-1114 -621 2666 2007] def
/FontType 3 def
/Encoding [/space /m /zero /one /two /minus /four /five /six /eight /bracketleft /bracketright] def
/CharStrings 13 dict dup begin
/.notdef 0 def
/space{569 0 0 0 0 0 sc
ce} _d
/m{1706 0 136 0 1571 1102 sc
768 0 m
768 686 l
768 791 754 863 725 903 c
696 943 645 963 570 963 c
493 963 433 934 388 875 c
343 816 321 734 321 627 c
321 0 l
142 0 l
142 851 l
142 977 140 1054 136 1082 c
306 1082 l
307 1079 307 1070 308 1055 c
309 1040 309 1023 310 1004 c
311 985 313 950 314 897 c
317 897 l
356 974 400 1027 450 1057 c
500 1087 561 1102 633 1102 c
715 1102 780 1086 827 1053 c
875 1020 908 968 927 897 c
930 897 l
967 970 1012 1022 1065 1054 c
1118 1086 1183 1102 1258 1102 c
1367 1102 1447 1072 1496 1013 c
1546 954 1571 856 1571 721 c
1571 0 l
1393 0 l
1393 686 l
1393 791 1379 863 1350 903 c
1321 943 1270 963 1195 963 c
1116 963 1055 934 1011 875 c
968 817 946 734 946 627 c
946 0 l
768 0 l

ce} _d
/zero{1139 0 80 -20 1059 1430 sc
1059 705 m
1059 470 1017 290 934 166 c
851 42 729 -20 567 -20 c
405 -20 283 42 202 165 c
121 288 80 468 80 705 c
80 947 119 1128 198 1249 c
277 1370 402 1430 573 1430 c
739 1430 861 1369 940 1247 c
1019 1125 1059 944 1059 705 c

876 705 m
876 908 852 1056 805 1147 c
758 1238 681 1284 573 1284 c
462 1284 383 1239 334 1149 c
286 1059 262 911 262 705 c
262 505 286 359 335 266 c
384 173 462 127 569 127 c
675 127 753 174 802 269 c
851 364 876 509 876 705 c

ce} _d
/one{1139 0 156 0 1039 1409 sc
156 0 m
156 153 l
515 153 l
515 1237 l
197 1010 l
197 1180 l
530 1409 l
696 1409 l
696 153 l
1039 153 l
1039 0 l
156 0 l

ce} _d
/two{1139 0 103 0 1036 1430 sc
103 0 m
103 127 l
137 205 178 274 227 333 c
276 393 328 447 382 495 c
436 544 489 589 542 630 c
595 671 643 713 686 754 c
729 795 763 839 789 884 c
816 929 829 981 829 1038 c
829 1115 806 1175 761 1218 c
716 1261 653 1282 572 1282 c
495 1282 432 1261 382 1219 c
333 1178 304 1119 295 1044 c
111 1061 l
124 1174 172 1263 254 1330 c
337 1397 443 1430 572 1430 c
714 1430 823 1396 899 1329 c
976 1262 1014 1167 1014 1044 c
1014 989 1001 935 976 881 c
951 827 914 773 865 719 c
816 665 721 581 582 468 c
505 405 444 349 399 298 c
354 248 321 200 301 153 c
1036 153 l
1036 0 l
103 0 l

ce} _d
/minus{1196 0 101 608 1096 754 sc
101 608 m
101 754 l
1096 754 l
1096 608 l
101 608 l

ce} _d
/four{1139 0 47 0 1079 1409 sc
881 319 m
881 0 l
711 0 l
711 319 l
47 319 l
47 459 l
692 1409 l
881 1409 l
881 461 l
1079 461 l
1079 319 l
881 319 l

711 1206 m
710 1202 700 1184 683 1153 c
666 1122 653 1100 644 1087 c
283 555 l
229 481 l
213 461 l
711 461 l
711 1206 l

ce} _d
/five{1139 0 82 -20 1053 1409 sc
1053 459 m
1053 310 1009 193 920 108 c
832 23 710 -20 553 -20 c
422 -20 316 9 235 66 c
154 123 103 206 82 315 c
264 336 l
302 197 400 127 557 127 c
654 127 729 156 784 214 c
839 273 866 353 866 455 c
866 544 838 615 783 670 c
728 725 654 752 561 752 c
512 752 467 744 425 729 c
383 714 341 688 299 651 c
123 651 l
170 1409 l
971 1409 l
971 1256 l
334 1256 l
307 809 l
385 869 482 899 598 899 c
737 899 847 858 929 777 c
1012 696 1053 590 1053 459 c

ce} _d
/six{1139 0 104 -20 1049 1430 sc
1049 461 m
1049 312 1009 195 928 109 c
847 23 736 -20 594 -20 c
435 -20 314 39 230 157 c
146 275 104 447 104 672 c
104 916 148 1103 235 1234 c
322 1365 447 1430 608 1430 c
821 1430 955 1334 1010 1143 c
838 1112 l
803 1227 725 1284 606 1284 c
503 1284 424 1236 367 1140 c
311 1045 283 906 283 725 c
316 786 362 832 421 863 c
480 895 548 911 625 911 c
755 911 858 870 934 789 c
1011 708 1049 598 1049 461 c

866 453 m
866 555 841 634 791 689 c
741 744 671 772 582 772 c
498 772 430 747 378 698 c
327 649 301 582 301 496 c
301 387 328 298 381 229 c
435 160 504 125 588 125 c
675 125 743 154 792 212 c
841 271 866 351 866 453 c

ce} _d
/eight{1139 0 89 -20 1050 1430 sc
1050 393 m
1050 263 1009 162 926 89 c
843 16 725 -20 570 -20 c
419 -20 301 16 216 87 c
131 158 89 260 89 391 c
89 483 115 560 168 623 c
221 686 288 724 370 737 c
370 741 l
293 759 233 798 188 858 c
144 918 122 988 122 1069 c
122 1176 162 1263 242 1330 c
323 1397 431 1430 566 1430 c
705 1430 814 1397 894 1332 c
975 1267 1015 1178 1015 1067 c
1015 986 993 916 948 856 c
903 796 842 758 765 743 c
765 739 l
855 724 925 686 975 624 c
1025 563 1050 486 1050 393 c

828 1057 m
828 1216 741 1296 566 1296 c
481 1296 417 1276 372 1236 c
328 1196 306 1136 306 1057 c
306 976 329 915 374 872 c
420 830 485 809 568 809 c
653 809 717 828 761 867 c
806 906 828 970 828 1057 c

863 410 m
863 497 837 563 785 607 c
733 652 660 674 566 674 c
475 674 403 650 352 602 c
301 555 275 489 275 406 c
275 212 374 115 572 115 c
670 115 743 138 791 185 c
839 232 863 307 863 410 c

ce} _d
/bracketleft{569 0 146 -425 553 1484 sc
146 -425 m
146 1484 l
553 1484 l
553 1355 l
320 1355 l
320 -296 l
553 -296 l
553 -425 l
146 -425 l

ce} _d
/bracketright{569 0 16 -425 423 1484 sc
16 -425 m
16 -296 l
249 -296 l
249 1355 l
16 1355 l
16 1484 l
423 1484 l
423 -425 l
16 -425 l

ce} _d
end readonly def

/BuildGlyph {
 exch begin
 CharStrings exch
 2 copy known not {pop /.notdef} if
 true 3 1 roll get exec
 end
} _d

/BuildChar {
 1 index /Encoding get exch get
 1 index /BuildGlyph get exec
} _d

FontName currentdict end definefont pop
%!PS-Adobe-3.0 Resource-Font
%%Creator: Converted from TrueType to Type 3 by Matplotlib.
10 dict begin
/FontName /DejaVuSans-Oblique def
/PaintType 0 def
/FontMatrix [0.00048828125 0 0 0.00048828125 0 0] def
/FontBBox [-2080 -717 3398 2187] def
/FontType 3 def
/Encoding [/x /y] def
/CharStrings 3 dict dup begin
/.notdef 0 def
/x{1212 0 -53 0 1229 1120 sc
1229 1120 m
715 571 l
1030 0 l
819 0 l
582 444 l
170 0 l
-53 0 l
498 590 l
205 1120 l
416 1120 l
631 715 l
1006 1120 l
1229 1120 l

ce} _d
/y{1212 0 -51 -426 1235 1120 sc
508 -104 m
423 -247 353 -337 299 -372 c
246 -408 177 -426 94 -426 c
-51 -426 l
-20 -272 l
86 -272 l
137 -272 181 -258 217 -230 c
253 -202 293 -147 338 -66 c
395 41 l
147 1120 l
342 1120 l
528 262 l
1042 1120 l
1235 1120 l
508 -104 l

ce} _d
end readonly def

/BuildGlyph {
 exch begin
 CharStrings exch
 2 copy known not {pop /.notdef} if
 true 3 1 roll get exec
 end
} _d

/BuildChar {
 1 index /Encoding get exch get
 1 index /BuildGlyph get exec
} _d

FontName currentdict end definefont pop
end
%%EndProlog
mpldict begin
18 198 translate
576 396 0 0 clipbox
gsave
0 0 m
576 0 l
576 396 l
0 396 l
cl
1.000 setgray
fill
grestore
gsave
72 43.56 m
518.4 43.56 l
518.4 348.48 l
72 348.48 l
cl
0.918 0.918 0.949 setrgbcolor
fill
grestore
1.000 setlinewidth
1 setlinejoin
1 setlinecap
[] 0 setdash
1.000 setgray
gsave
446.4 304.92 72 43.56 clipbox
87.72325 43.56 m
87.72325 348.48 l
stroke
grestore
0.150 setgray
/LiberationSans 10.000 selectfont
gsave

84.942000 29.310000 translate
0.000000 rotate
0.000000 0 m /six glyphshow
grestore
1.000 setgray
gsave
446.4 304.92 72 43.56 clipbox
156.400226 43.56 m
156.400226 348.48 l
stroke
grestore
0.150 setgray
gsave

153.618976 29.310000 translate
0.000000 rotate
0.000000 0 m /eight glyphshow
grestore
1.000 setgray
gsave
446.4 304.92 72 43.56 clipbox
225.077202 43.56 m
225.077202 348.48 l
stroke
grestore
0.150 setgray
gsave

219.514702 29.310000 translate
0.000000 rotate
0.000000 0 m /one glyphshow
5.561523 0 m /zero glyphshow
grestore
1.000 setgray
gsave
446.4 304.92 72 43.56 clipbox
293.754178 43.56 m
293.754178 348.48 l
stroke
grestore
0.150 setgray
gsave

288.191678 29.310000 translate
0.000000 rotate
0.000000 0 m /one glyphshow
5.561523 0 m /two glyphshow
grestore
1.000 setgray
gsave
446.4 304.92 72 43.56 clipbox
362.431154 43.56 m
362.431154 348.48 l
stroke
grestore
0.150 setgray
gsave

356.868654 29.310000 translate
0.000000 rotate
0.000000 0 m /one glyphshow
5.561523 0 m /four glyphshow
grestore
1.000 setgray
gsave
446.4 304.92 72 43.56 clipbox
431.10813 43.56 m
431.10813 348.48 l
stroke
grestore
0.150 setgray
gsave

425.545630 29.310000 translate
0.000000 rotate
0.000000 0 m /one glyphshow
5.561523 0 m /six glyphshow
grestore
1.000 setgray
gsave
446.4 304.92 72 43.56 clipbox
499.785106 43.56 m
499.785106 348.48 l
stroke
grestore
0.150 setgray
gsave

494.222606 29.310000 translate
0.000000 rotate
0.000000 0 m /one glyphshow
5.561523 0 m /eight glyphshow
grestore
gsave
282.700000 15.231875 translate
0.000000 rotate
/DejaVuSans-Oblique 11.0 selectfont
0.000000 0.031250 moveto
/x glyphshow
/LiberationSans 11.0 selectfont
6.509766 0.031250 moveto
/space glyphshow
9.565918 0.031250 moveto
/bracketleft glyphshow
12.622070 0.031250 moveto
/m glyphshow
21.785156 0.031250 moveto
/bracketright glyphshow
grestore
1.000 setgray
gsave
446.4 304.92 72 43.56 clipbox
72 66.515819 m
518.4 66.515819 l
stroke
grestore
0.150 setgray
gsave

48.031250 62.890819 translate
0.000000 rotate
0.000000 0 m /minus glyphshow
5.839844 0 m /one glyphshow
11.401367 0 m /five glyphshow
grestore
1.000 setgray
gsave
446.4 304.92 72 43.56 clipbox
72 132.088884 m
518.4 132.088884 l
stroke
grestore
0.150 setgray
gsave

48.031250 128.463884 translate
0.000000 rotate
0.000000 0 m /minus glyphshow
5.839844 0 m /one glyphshow
11.401367 0 m /zero glyphshow
grestore
1.000 setgray
gsave
446.4 304.92 72 43.56 clipbox
72 197.66195 m
518.4 197.66195 l
stroke
grestore
0.150 setgray
gsave

53.593750 194.036950 translate
0.000000 rotate
0.000000 0 m /minus glyphshow
5.839844 0 m /five glyphshow
grestore
1.000 setgray
gsave
446.4 304.92 72 43.56 clipbox
72 263.235015 m
518.4 263.235015 l
stroke
grestore
0.150 setgray
gsave

59.437500 259.610015 translate
0.000000 rotate
0.000000 0 m /zero glyphshow
grestore
1.000 setgray
gsave
446.4 304.92 72 43.56 clipbox
72 328.80808 m
518.4 328.80808 l
stroke
grestore
0.150 setgray
gsave

59.437500 325.183080 translate
0.000000 rotate
0.000000 0 m /five glyphshow
grestore
gsave
41.031250 183.520000 translate
90.000000 rotate
/DejaVuSans-Oblique 11.0 selectfont
0.000000 0.031250 moveto
/y glyphshow
/LiberationSans 11.0 selectfont
6.509766 0.031250 moveto
/space glyphshow
9.565918 0.031250 moveto
/bracketleft glyphshow
12.622070 0.031250 moveto
/m glyphshow
21.785156 0.031250 moveto
/bracketright glyphshow
grestore
0.300 setlinewidth
0 setlinejoin
0 setlinecap
1.000 0.000 0.000 setrgbcolor
gsave
446.4 304.92 72 43.56 clipbox
71.832772 303.116684 m
81.723894 303.116684 91.211233 304.617554 98.205313 307.288745 c
105.199392 309.959936 109.129177 313.583356 109.129177 317.36099 c
109.129177 321.138624 105.199392 324.762045 98.205313 327.433236 c
91.211233 330.104426 81.723894 331.605296 71.832772 331.605296 c
61.941649 331.605296 52.45431 330.104426 45.46023 327.433236 c
38.466151 324.762045 34.536366 321.138624 34.536366 317.36099 c
34.536366 313.583356 38.466151 309.959936 45.46023 307.288745 c
52.45431 304.617554 61.941649 303.116684 71.832772 303.116684 c
cl
gsave
fill
grestore
stroke
grestore
gsave
446.4 304.92 72 43.56 clipbox
105.782548 283.894334 m
115.727126 283.894334 125.265739 285.403315 132.297618 288.088942 c
139.329497 290.774569 143.28052 294.417572 143.28052 298.215622 c
143.28052 302.013673 139.329497 305.656676 132.297618 308.342303 c
125.265739 311.02793 115.727126 312.536911 105.782548 312.536911 c
95.837969 312.536911 86.299356 311.02793 79.267477 308.342303 c
72.235599 305.656676 68.284576 302.013673 68.284576 298.215622 c
68.284576 294.417572 72.235599 290.774569 79.267477 288.088942 c
86.299356 285.403315 95.837969 283.894334 105.782548 283.894334 c
cl
gsave
fill
grestore
stroke
grestore
gsave
446.4 304.92 72 43.56 clipbox
139.218964 263.188065 m
149.192228 263.188065 158.758356 264.701399 165.810519 267.394773 c
172.862682 270.088147 176.825102 273.741658 176.825102 277.550664 c
176.825102 281.35967 172.862682 285.013182 165.810519 287.706556 c
158.758356 290.39993 149.192228 291.913264 139.218964 291.913264 c
129.245699 291.913264 119.679571 290.39993 112.627408 287.706556 c
105.575245 285.013182 101.612825 281.35967 101.612825 277.550664 c
101.612825 273.741658 105.575245 270.088147 112.627408 267.394773 c
119.679571 264.701399 129.245699 263.188065 139.218964 263.188065 c
cl
gsave
fill
grestore
stroke
grestore
gsave
446.4 304.92 72 43.56 clipbox
171.191186 239.547466 m
181.198055 239.547466 190.796414 241.065899 197.872339 243.768348 c
204.948263 246.470797 208.924034 250.136619 208.924034 253.958459 c
208.924034 257.780299 204.948263 261.446121 197.872339 264.14857 c
190.796414 266.851018 181.198055 268.369452 171.191186 268.369452 c
161.184318 268.369452 151.585958 266.851018 144.510034 264.14857 c
137.43411 261.446121 133.458339 257.780299 133.458339 253.958459 c
133.458339 250.136619 137.43411 246.470797 144.510034 243.768348 c
151.585958 241.065899 161.184318 239.547466 171.191186 239.547466 c
cl
gsave
fill
grestore
stroke
grestore
gsave
446.4 304.92 72 43.56 clipbox
207.664155 215.761296 m
217.658638 215.761296 227.245118 217.27785 234.312285 219.976954 c
241.379452 222.676058 245.350302 226.337343 245.350302 230.154453 c
245.350302 233.971562 241.379452 237.632847 234.312285 240.331951 c
227.245118 243.031056 217.658638 244.547609 207.664155 244.547609 c
197.669672 244.547609 188.083191 243.031056 181.016025 240.331951 c
173.948858 237.632847 169.978008 233.971562 169.978008 230.154453 c
169.978008 226.337343 173.948858 222.676058 181.016025 219.976954 c
188.083191 217.27785 197.669672 215.761296 207.664155 215.761296 c
cl
gsave
fill
grestore
stroke
grestore
gsave
446.4 304.92 72 43.56 clipbox
239.65389 193.553404 m
249.672233 193.553404 259.281599 195.073578 266.365637 197.779125 c
273.449675 200.484673 277.430004 204.154698 277.430004 207.980921 c
277.430004 211.807143 273.449675 215.477168 266.365637 218.182716 c
259.281599 220.888263 249.672233 222.408438 239.65389 222.408438 c
229.635548 222.408438 220.026182 220.888263 212.942144 218.182716 c
205.858106 215.477168 201.877776 211.807143 201.877776 207.980921 c
201.877776 204.154698 205.858106 200.484673 212.942144 197.779125 c
220.026182 195.073578 229.635548 193.553404 239.65389 193.553404 c
cl
gsave
fill
grestore
stroke
grestore
gsave
446.4 304.92 72 43.56 clipbox
269.329211 172.639399 m
279.298651 172.639399 288.861111 174.152153 295.910569 176.844494 c
302.960027 179.536835 306.920928 183.188945 306.920928 186.99649 c
306.920928 190.804036 302.960027 194.456146 295.910569 197.148487 c
288.861111 199.840828 279.298651 201.353582 269.329211 201.353582 c
259.359772 201.353582 249.797312 199.840828 242.747854 197.148487 c
235.698396 194.456146 231.737495 190.804036 231.737495 186.99649 c
231.737495 183.188945 235.698396 179.536835 242.747854 176.844494 c
249.797312 174.152153 259.359772 172.639399 269.329211 172.639399 c
cl
gsave
fill
grestore
stroke
grestore
gsave
446.4 304.92 72 43.56 clipbox
288.301226 151.043697 m
298.302812 151.043697 307.896106 152.561328 314.968295 155.262351 c
322.040485 157.963373 326.014157 161.62726 326.014157 165.447083 c
326.014157 169.266905 322.040485 172.930792 314.968295 175.631815 c
307.896106 178.332837 298.302812 179.850469 288.301226 179.850469 c
278.29964 179.850469 268.706346 178.332837 261.634157 175.631815 c
254.561967 172.930792 250.588295 169.266905 250.588295 165.447083 c
250.588295 161.62726 254.561967 157.963373 261.634157 155.262351 c
268.706346 152.561328 278.29964 151.043697 288.301226 151.043697 c
cl
gsave
fill
grestore
stroke
grestore
gsave
446.4 304.92 72 43.56 clipbox
311.311447 129.110424 m
321.313124 129.110424 330.906505 130.62807 337.978759 133.329117 c
345.051013 136.030164 349.024721 139.694084 349.024721 143.513942 c
349.024721 147.333799 345.051013 150.997719 337.978759 153.698766 c
330.906505 156.399813 321.313124 157.917459 311.311447 157.917459 c
301.30977 157.917459 291.716389 156.399813 284.644135 153.698766 c
277.571881 150.997719 273.598172 147.333799 273.598172 143.513942 c
273.598172 139.694084 277.571881 136.030164 284.644135 133.329117 c
291.716389 130.62807 301.30977 129.110424 311.311447 129.110424 c
cl
gsave
fill
grestore
stroke
grestore
gsave
446.4 304.92 72 43.56 clipbox
335.094284 108.569006 m
344.74927 108.569006 354.010113 110.034045 360.837219 112.641465 c
367.664325 115.248885 371.500292 118.785801 371.500292 122.47325 c
371.500292 126.160698 367.664325 129.697615 360.837219 132.305035 c
354.010113 134.912455 344.74927 136.377494 335.094284 136.377494 c
325.439297 136.377494 316.178455 134.912455 309.351348 132.305035 c
302.524242 129.697615 298.688275 126.160698 298.688275 122.47325 c
298.688275 118.785801 302.524242 115.248885 309.351348 112.641465 c
316.178455 110.034045 325.439297 108.569006 335.094284 108.569006 c
cl
gsave
fill
grestore
stroke
grestore
0.000 0.000 1.000 setrgbcolor
gsave
446.4 304.92 72 43.56 clipbox
71.832772 311.247745 m
76.077756 311.247745 80.149449 311.891875 83.151107 313.038273 c
86.152764 314.184671 87.839314 315.739739 87.839314 317.36099 c
87.839314 318.982242 86.152764 320.53731 83.151107 321.683708 c
80.149449 322.830106 76.077756 323.474236 71.832772 323.474236 c
67.587787 323.474236 63.516094 322.830106 60.514437 321.683708 c
57.512779 320.53731 55.826229 318.982242 55.826229 317.36099 c
55.826229 315.739739 57.512779 314.184671 60.514437 313.038273 c
63.516094 311.891875 67.587787 311.247745 71.832772 311.247745 c
cl
gsave
fill
grestore
stroke
grestore
gsave
446.4 304.92 72 43.56 clipbox
105.782548 292.025394 m
110.080989 292.025394 114.203955 292.677635 117.243412 293.83847 c
120.282869 294.999304 121.990658 296.573955 121.990658 298.215622 c
121.990658 299.85729 120.282869 301.431941 117.243412 302.592775 c
114.203955 303.753609 110.080989 304.405851 105.782548 304.405851 c
101.484107 304.405851 97.36114 303.753609 94.321684 302.592775 c
91.282227 301.431941 89.574438 299.85729 89.574438 298.215622 c
89.574438 296.573955 91.282227 294.999304 94.321684 293.83847 c
97.36114 292.677635 101.484107 292.025394 105.782548 292.025394 c
cl
gsave
fill
grestore
stroke
grestore
gsave
446.4 304.92 72 43.56 clipbox
139.218964 271.319125 m
143.546091 271.319125 147.696572 271.975719 150.756313 273.1443 c
153.816054 274.312882 155.53524 275.898041 155.53524 277.550664 c
155.53524 279.203288 153.816054 280.788447 150.756313 281.957028 c
147.696572 283.12561 143.546091 283.782204 139.218964 283.782204 c
134.891837 283.782204 130.741355 283.12561 127.681614 281.957028 c
124.621874 280.788447 122.902688 279.203288 122.902688 277.550664 c
122.902688 275.898041 124.621874 274.312882 127.681614 273.1443 c
130.741355 271.975719 134.891837 271.319125 139.218964 271.319125 c
cl
gsave
fill
grestore
stroke
grestore
gsave
446.4 304.92 72 43.56 clipbox
171.191186 247.678527 m
175.551917 247.678527 179.73463 248.34022 182.818133 249.517876 c
185.901635 250.695532 187.634171 252.293001 187.634171 253.958459 c
187.634171 255.623917 185.901635 257.221385 182.818133 258.399042 c
179.73463 259.576698 175.551917 260.238391 171.191186 260.238391 c
166.830456 260.238391 162.647742 259.576698 159.56424 258.399042 c
156.480738 257.221385 154.748201 255.623917 154.748201 253.958459 c
154.748201 252.293001 156.480738 250.695532 159.56424 249.517876 c
162.647742 248.34022 166.830456 247.678527 171.191186 247.678527 c
cl
gsave
fill
grestore
stroke
grestore
gsave
446.4 304.92 72 43.56 clipbox
207.664155 223.892356 m
212.0125 223.892356 216.183334 224.55217 219.258079 225.726482 c
222.332823 226.900793 224.060439 228.493725 224.060439 230.154453 c
224.060439 231.81518 222.332823 233.408112 219.258079 234.582424 c
216.183334 235.756735 212.0125 236.416549 207.664155 236.416549 c
203.315809 236.416549 199.144975 235.756735 196.070231 234.582424 c
192.995486 233.408112 191.26787 231.81518 191.26787 230.154453 c
191.26787 228.493725 192.995486 226.900793 196.070231 225.726482 c
199.144975 224.55217 203.315809 223.892356 207.664155 223.892356 c
cl
gsave
fill
grestore
stroke
grestore
gsave
446.4 304.92 72 43.56 clipbox
239.65389 201.684464 m
244.026095 201.684464 248.219815 202.347898 251.31143 203.528653 c
254.403046 204.709408 256.140142 206.311081 256.140142 207.980921 c
256.140142 209.65076 254.403046 211.252433 251.31143 212.433188 c
248.219815 213.613943 244.026095 214.277377 239.65389 214.277377 c
235.281685 214.277377 231.087966 213.613943 227.99635 212.433188 c
224.904734 211.252433 223.167639 209.65076 223.167639 207.980921 c
223.167639 206.311081 224.904734 204.709408 227.99635 203.528653 c
231.087966 202.347898 235.281685 201.684464 239.65389 201.684464 c
cl
gsave
fill
grestore
stroke
grestore
gsave
446.4 304.92 72 43.56 clipbox
269.329211 180.770459 m
273.652514 180.770459 277.799327 181.426473 280.856363 182.594021 c
283.913399 183.76157 285.631065 185.345328 285.631065 186.99649 c
285.631065 188.647653 283.913399 190.231411 280.856363 191.39896 c
277.799327 192.566508 273.652514 193.222522 269.329211 193.222522 c
265.005909 193.222522 260.859096 192.566508 257.80206 191.39896 c
254.745024 190.231411 253.027358 188.647653 253.027358 186.99649 c
253.027358 185.345328 254.745024 183.76157 257.80206 182.594021 c
260.859096 181.426473 265.005909 180.770459 269.329211 180.770459 c
cl
gsave
fill
grestore
stroke
grestore
gsave
446.4 304.92 72 43.56 clipbox
288.301226 159.174757 m
292.656675 159.174757 296.834322 159.835649 299.914089 161.011879 c
302.993857 162.188109 304.724295 163.783643 304.724295 165.447083 c
304.724295 167.110523 302.993857 168.706057 299.914089 169.882287 c
296.834322 171.058517 292.656675 171.719409 288.301226 171.719409 c
283.945777 171.719409 279.76813 171.058517 276.688363 169.882287 c
273.608596 168.706057 271.878157 167.110523 271.878157 165.447083 c
271.878157 163.783643 273.608596 162.188109 276.688363 161.011879 c
279.76813 159.835649 283.945777 159.174757 288.301226 159.174757 c
cl
gsave
fill
grestore
stroke
grestore
gsave
446.4 304.92 72 43.56 clipbox
311.311447 137.241484 m
315.666987 137.241484 319.844721 137.90239 322.924553 139.078645 c
326.004385 140.254899 327.734859 141.850467 327.734859 143.513942 c
327.734859 145.177417 326.004385 146.772984 322.924553 147.949239 c
319.844721 149.125493 315.666987 149.786399 311.311447 149.786399 c
306.955907 149.786399 302.778173 149.125493 299.698341 147.949239 c
296.618509 146.772984 294.888035 145.177417 294.888035 143.513942 c
294.888035 141.850467 296.618509 140.254899 299.698341 139.078645 c
302.778173 137.90239 306.955907 137.241484 311.311447 137.241484 c
cl
gsave
fill
grestore
stroke
grestore
gsave
446.4 304.92 72 43.56 clipbox
335.094284 116.700066 m
339.103132 116.700066 342.948329 117.308365 345.783013 118.390992 c
348.617697 119.47362 350.210429 120.942184 350.210429 122.47325 c
350.210429 124.004316 348.617697 125.47288 345.783013 126.555507 c
342.948329 127.638135 339.103132 128.246434 335.094284 128.246434 c
331.085435 128.246434 327.240239 127.638135 324.405554 126.555507 c
321.57087 125.47288 319.978138 124.004316 319.978138 122.47325 c
319.978138 120.942184 321.57087 119.47362 324.405554 118.390992 c
327.240239 117.308365 331.085435 116.700066 335.094284 116.700066 c
cl
gsave
fill
grestore
stroke
grestore
0.100 setlinewidth
1 setlinejoin
1 setlinecap
0.000 setgray
gsave
446.4 304.92 72 43.56 clipbox
295.199828 128.804985 m
278.84784 130.008907 l
274.232748 123.692909 l
stroke
grestore
gsave
446.4 304.92 72 43.56 clipbox
295.199828 128.804985 m
278.84784 130.008907 l
271.461632 126.16239 l
stroke
grestore
gsave
446.4 304.92 72 43.56 clipbox
295.199828 128.804985 m
278.84784 130.008907 l
220.486833 117.134291 l
stroke
grestore
gsave
446.4 304.92 72 43.56 clipbox
295.199828 128.804985 m
278.84784 130.008907 l
213.109209 123.055539 l
128.263956 118.179526 l
stroke
grestore
gsave
446.4 304.92 72 43.56 clipbox
295.199828 128.804985 m
278.84784 130.008907 l
224.551136 122.76964 l
136.990396 112.532373 l
stroke
grestore
gsave
446.4 304.92 72 43.56 clipbox
295.199828 128.804985 m
278.84784 130.008907 l
224.551136 122.76964 l
178.71784 115.888403 l
stroke
grestore
gsave
446.4 304.92 72 43.56 clipbox
295.199828 128.804985 m
278.84784 130.008907 l
224.551136 122.76964 l
161.110093 113.988095 l
121.43094 109.37044 l
stroke
grestore
gsave
446.4 304.92 72 43.56 clipbox
295.199828 128.804985 m
278.84784 130.008907 l
203.56929 116.015614 l
stroke
grestore
gsave
446.4 304.92 72 43.56 clipbox
295.199828 128.804985 m
278.84784 130.008907 l
185.644943 116.433971 l
153.806297 111.207797 l
stroke
grestore
gsave
446.4 304.92 72 43.56 clipbox
295.199828 128.804985 m
278.84784 130.008907 l
185.644943 116.433971 l
128.612835 107.394068 l
stroke
grestore
gsave
446.4 304.92 72 43.56 clipbox
295.199828 128.804985 m
278.84784 130.008907 l
185.644943 116.433971 l
120.473927 106.798664 l
stroke
grestore
gsave
446.4 304.92 72 43.56 clipbox
295.199828 128.804985 m
278.84784 130.008907 l
232.288285 127.494835 l
stroke
grestore
gsave
446.4 304.92 72 43.56 clipbox
295.199828 128.804985 m
265.335645 134.054109 l
195.813943 145.725983 l
stroke
grestore
gsave
446.4 304.92 72 43.56 clipbox
295.199828 128.804985 m
267.014797 140.580072 l
270.816068 146.974495 l
stroke
grestore
gsave
446.4 304.92 72 43.56 clipbox
295.199828 128.804985 m
267.014797 140.580072 l
258.77356 151.647887 l
261.41419 153.181903 l
stroke
grestore
gsave
446.4 304.92 72 43.56 clipbox
295.199828 128.804985 m
267.014797 140.580072 l
253.567846 157.896476 l
stroke
grestore
gsave
446.4 304.92 72 43.56 clipbox
295.199828 128.804985 m
267.014797 140.580072 l
246.590265 163.888018 l
251.977974 170.114311 l
stroke
grestore
gsave
446.4 304.92 72 43.56 clipbox
295.199828 128.804985 m
267.014797 140.580072 l
246.590265 163.888018 l
228.174534 179.387261 l
192.28532 209.57251 l
190.773739 216.104374 l
stroke
grestore
gsave
446.4 304.92 72 43.56 clipbox
295.199828 128.804985 m
267.014797 140.580072 l
246.590265 163.888018 l
228.174534 179.387261 l
192.28532 209.57251 l
186.241402 215.334678 l
stroke
grestore
gsave
446.4 304.92 72 43.56 clipbox
295.199828 128.804985 m
267.014797 140.580072 l
246.590265 163.888018 l
228.174534 179.387261 l
192.480706 209.186154 l
175.093069 220.321771 l
stroke
grestore
gsave
446.4 304.92 72 43.56 clipbox
295.199828 128.804985 m
267.014797 140.580072 l
246.590265 163.888018 l
226.292785 185.905092 l
230.454609 192.26686 l
stroke
grestore
gsave
446.4 304.92 72 43.56 clipbox
295.199828 128.804985 m
267.014797 140.580072 l
246.590265 163.888018 l
206.82973 200.180611 l
200.99459 205.173344 l
stroke
grestore
gsave
446.4 304.92 72 43.56 clipbox
295.199828 128.804985 m
267.014797 140.580072 l
246.590265 163.888018 l
198.231029 198.181944 l
191.359897 203.024777 l
stroke
grestore
gsave
446.4 304.92 72 43.56 clipbox
295.199828 128.804985 m
267.014797 140.580072 l
246.590265 163.888018 l
198.231029 198.181944 l
158.348592 229.63013 l
stroke
grestore
gsave
446.4 304.92 72 43.56 clipbox
295.199828 128.804985 m
267.014797 140.580072 l
246.590265 163.888018 l
205.721627 199.662584 l
stroke
grestore
gsave
446.4 304.92 72 43.56 clipbox
295.199828 128.804985 m
267.014797 140.580072 l
238.359329 174.108367 l
214.078928 194.236413 l
214.331659 195.517055 l
stroke
grestore
gsave
446.4 304.92 72 43.56 clipbox
295.199828 128.804985 m
267.014797 140.580072 l
207.106154 169.416614 l
196.449205 174.557936 l
131.164185 199.429537 l
stroke
grestore
gsave
446.4 304.92 72 43.56 clipbox
295.199828 128.804985 m
267.014797 140.580072 l
207.106154 169.416614 l
148.104391 200.497329 l
stroke
grestore
gsave
446.4 304.92 72 43.56 clipbox
295.199828 128.804985 m
267.014797 140.580072 l
236.505051 160.36517 l
212.971855 176.340867 l
177.524577 199.141802 l
150.686645 218.504348 l
stroke
grestore
gsave
446.4 304.92 72 43.56 clipbox
295.199828 128.804985 m
267.014797 140.580072 l
236.505051 160.36517 l
212.971855 176.340867 l
188.991572 198.254337 l
177.241971 210.980101 l
stroke
grestore
gsave
446.4 304.92 72 43.56 clipbox
295.199828 128.804985 m
267.014797 140.580072 l
236.505051 160.36517 l
212.971855 176.340867 l
188.991572 198.254337 l
159.526745 223.088299 l
stroke
grestore
gsave
446.4 304.92 72 43.56 clipbox
295.199828 128.804985 m
267.014797 140.580072 l
236.505051 160.36517 l
212.971855 176.340867 l
188.991572 198.254337 l
150.276987 228.848368 l
stroke
grestore
gsave
446.4 304.92 72 43.56 clipbox
295.199828 128.804985 m
267.014797 140.580072 l
236.505051 160.36517 l
188.865206 194.56454 l
161.26908 213.384928 l
134.871024 231.742895 l
stroke
grestore
gsave
446.4 304.92 72 43.56 clipbox
295.199828 128.804985 m
267.014797 140.580072 l
236.505051 160.36517 l
188.865206 194.56454 l
161.26908 213.384928 l
137.811772 238.203284 l
stroke
grestore
gsave
446.4 304.92 72 43.56 clipbox
295.199828 128.804985 m
267.014797 140.580072 l
236.505051 160.36517 l
188.865206 194.56454 l
161.26908 213.384928 l
126.691253 243.199296 l
stroke
grestore
gsave
446.4 304.92 72 43.56 clipbox
295.199828 128.804985 m
267.014797 140.580072 l
236.505051 160.36517 l
188.865206 194.56454 l
161.26908 213.384928 l
126.265456 249.754504 l
stroke
grestore
gsave
446.4 304.92 72 43.56 clipbox
295.199828 128.804985 m
267.014797 140.580072 l
247.60325 153.981501 l
stroke
grestore
gsave
446.4 304.92 72 43.56 clipbox
295.199828 128.804985 m
267.014797 140.580072 l
212.681351 172.36491 l
180.037811 193.883367 l
stroke
grestore
gsave
446.4 304.92 72 43.56 clipbox
295.199828 128.804985 m
267.014797 140.580072 l
212.681351 172.36491 l
161.775573 196.530421 l
stroke
grestore
gsave
446.4 304.92 72 43.56 clipbox
295.199828 128.804985 m
267.014797 140.580072 l
212.681351 172.36491 l
158.194412 201.886953 l
stroke
grestore
gsave
446.4 304.92 72 43.56 clipbox
295.199828 128.804985 m
267.014797 140.580072 l
254.227144 146.493057 l
195.75076 176.85155 l
stroke
grestore
gsave
446.4 304.92 72 43.56 clipbox
295.199828 128.804985 m
263.017797 118.727716 l
233.239461 112.74483 l
stroke
grestore
gsave
446.4 304.92 72 43.56 clipbox
295.199828 128.804985 m
263.017797 118.727716 l
192.444307 104.243938 l
stroke
grestore
gsave
446.4 304.92 72 43.56 clipbox
295.199828 128.804985 m
263.017797 118.727716 l
177.596688 107.537017 l
stroke
grestore
gsave
446.4 304.92 72 43.56 clipbox
295.199828 128.804985 m
263.017797 118.727716 l
178.405703 109.332408 l
160.630384 106.531126 l
stroke
grestore
gsave
446.4 304.92 72 43.56 clipbox
295.199828 128.804985 m
263.017797 118.727716 l
249.969172 119.298202 l
stroke
grestore
gsave
446.4 304.92 72 43.56 clipbox
295.199828 128.804985 m
263.017797 118.727716 l
209.923971 104.768522 l
stroke
grestore
gsave
446.4 304.92 72 43.56 clipbox
295.199828 128.804985 m
249.725369 114.576941 l
stroke
grestore
gsave
446.4 304.92 72 43.56 clipbox
295.199828 128.804985 m
253.46483 108.17701 l
225.544205 94.581091 l
184.369611 72.281003 l
stroke
grestore
gsave
446.4 304.92 72 43.56 clipbox
295.199828 128.804985 m
253.46483 108.17701 l
225.544205 94.581091 l
170.149357 68.606288 l
stroke
grestore
gsave
446.4 304.92 72 43.56 clipbox
295.199828 128.804985 m
253.46483 108.17701 l
225.544205 94.581091 l
189.078105 68.555141 l
stroke
grestore
gsave
446.4 304.92 72 43.56 clipbox
295.199828 128.804985 m
253.46483 108.17701 l
225.544205 94.581091 l
189.517637 68.762352 l
stroke
grestore
gsave
446.4 304.92 72 43.56 clipbox
295.199828 128.804985 m
253.46483 108.17701 l
191.488667 78.248152 l
155.127298 65.43124 l
stroke
grestore
gsave
446.4 304.92 72 43.56 clipbox
295.199828 128.804985 m
222.916281 107.505542 l
209.478601 103.422963 l
136.750026 80.604848 l
stroke
grestore
gsave
446.4 304.92 72 43.56 clipbox
295.199828 128.804985 m
241.710766 150.916747 l
stroke
grestore
gsave
446.4 304.92 72 43.56 clipbox
295.199828 128.804985 m
288.867811 120.264749 l
stroke
grestore
gsave
446.4 304.92 72 43.56 clipbox
295.199828 128.804985 m
252.036349 129.907924 l
198.752974 126.651566 l
131.33107 124.630604 l
stroke
grestore
gsave
446.4 304.92 72 43.56 clipbox
295.199828 128.804985 m
252.036349 129.907924 l
198.752974 126.651566 l
120.100667 129.59055 l
stroke
grestore
gsave
446.4 304.92 72 43.56 clipbox
295.199828 128.804985 m
252.036349 129.907924 l
198.752974 126.651566 l
115.993097 135.957826 l
stroke
grestore
gsave
446.4 304.92 72 43.56 clipbox
295.199828 128.804985 m
252.036349 129.907924 l
198.752974 126.651566 l
107.188709 132.089802 l
stroke
grestore
gsave
446.4 304.92 72 43.56 clipbox
295.199828 128.804985 m
252.036349 129.907924 l
168.142959 140.125126 l
stroke
grestore
gsave
446.4 304.92 72 43.56 clipbox
295.199828 128.804985 m
228.071518 154.90018 l
180.424806 172.2036 l
stroke
grestore
gsave
446.4 304.92 72 43.56 clipbox
295.199828 128.804985 m
228.071518 154.90018 l
167.125166 176.350572 l
stroke
grestore
gsave
446.4 304.92 72 43.56 clipbox
295.199828 128.804985 m
228.071518 154.90018 l
190.632608 167.589879 l
stroke
grestore
gsave
446.4 304.92 72 43.56 clipbox
295.199828 128.804985 m
284.805568 119.683772 l
stroke
grestore
gsave
446.4 304.92 72 43.56 clipbox
295.199828 128.804985 m
230.118092 146.079553 l
157.928976 166.593431 l
135.522769 172.310878 l
stroke
grestore
gsave
446.4 304.92 72 43.56 clipbox
295.199828 128.804985 m
230.118092 146.079553 l
160.086806 168.579639 l
130.878832 176.687224 l
stroke
grestore
gsave
446.4 304.92 72 43.56 clipbox
295.199828 128.804985 m
292.315395 115.672011 l
365.79976 95.454524 l
392.195755 85.924135 l
stroke
grestore
gsave
446.4 304.92 72 43.56 clipbox
295.199828 128.804985 m
292.315395 115.672011 l
365.79976 95.454524 l
434.432095 81.104514 l
stroke
grestore
gsave
446.4 304.92 72 43.56 clipbox
295.199828 128.804985 m
292.315395 115.672011 l
365.79976 95.454524 l
420.037401 82.530073 l
stroke
grestore
gsave
446.4 304.92 72 43.56 clipbox
295.199828 128.804985 m
292.315395 115.672011 l
290.986496 85.437582 l
stroke
grestore
gsave
446.4 304.92 72 43.56 clipbox
295.199828 128.804985 m
212.950565 146.130963 l
147.400108 156.810848 l
stroke
grestore
gsave
446.4 304.92 72 43.56 clipbox
295.199828 128.804985 m
226.505683 151.158581 l
162.35555 170.674174 l
126.760274 182.82788 l
stroke
grestore
gsave
446.4 304.92 72 43.56 clipbox
295.199828 128.804985 m
226.505683 151.158581 l
154.567238 171.995078 l
stroke
grestore
gsave
446.4 304.92 72 43.56 clipbox
295.199828 128.804985 m
226.505683 151.158581 l
152.637758 172.831528 l
stroke
grestore
gsave
446.4 304.92 72 43.56 clipbox
295.199828 128.804985 m
226.505683 151.158581 l
170.587516 171.445707 l
stroke
grestore
gsave
446.4 304.92 72 43.56 clipbox
295.199828 128.804985 m
226.505683 151.158581 l
188.048637 164.908859 l
146.292692 178.924708 l
stroke
grestore
gsave
446.4 304.92 72 43.56 clipbox
295.199828 128.804985 m
226.505683 151.158581 l
188.048637 164.908859 l
145.213777 178.775726 l
stroke
grestore
gsave
446.4 304.92 72 43.56 clipbox
295.199828 128.804985 m
242.061018 110.702885 l
209.451473 96.865656 l
148.131175 75.694736 l
stroke
grestore
gsave
446.4 304.92 72 43.56 clipbox
295.199828 128.804985 m
242.061018 110.702885 l
197.779821 92.057839 l
stroke
grestore
gsave
446.4 304.92 72 43.56 clipbox
295.199828 128.804985 m
242.061018 110.702885 l
194.906376 91.176537 l
142.496572 69.87316 l
stroke
grestore
gsave
446.4 304.92 72 43.56 clipbox
295.199828 128.804985 m
242.061018 110.702885 l
184.125465 91.619811 l
stroke
grestore
gsave
446.4 304.92 72 43.56 clipbox
295.199828 128.804985 m
242.061018 110.702885 l
170.230396 87.768049 l
stroke
grestore
gsave
446.4 304.92 72 43.56 clipbox
295.199828 128.804985 m
242.061018 110.702885 l
176.944943 81.732704 l
stroke
grestore
gsave
446.4 304.92 72 43.56 clipbox
295.199828 128.804985 m
242.061018 110.702885 l
191.578634 87.449364 l
stroke
grestore
gsave
446.4 304.92 72 43.56 clipbox
295.199828 128.804985 m
242.061018 110.702885 l
182.07271 84.671689 l
stroke
grestore
gsave
446.4 304.92 72 43.56 clipbox
295.199828 128.804985 m
274.201843 130.601687 l
179.401862 143.800365 l
166.632752 144.877599 l
stroke
grestore
gsave
446.4 304.92 72 43.56 clipbox
295.199828 128.804985 m
257.616353 101.815111 l
215.654034 71.959695 l
208.855014 61.120467 l
stroke
grestore
gsave
446.4 304.92 72 43.56 clipbox
295.199828 128.804985 m
257.616353 101.815111 l
221.051701 65.735499 l
stroke
grestore
gsave
446.4 304.92 72 43.56 clipbox
295.199828 128.804985 m
257.616353 101.815111 l
199.821931 69.423328 l
stroke
grestore
gsave
446.4 304.92 72 43.56 clipbox
295.199828 128.804985 m
299.529912 115.91332 l
301.614258 115.871354 l
stroke
grestore
gsave
446.4 304.92 72 43.56 clipbox
295.199828 128.804985 m
299.529912 115.91332 l
304.265189 114.110061 l
stroke
grestore
gsave
446.4 304.92 72 43.56 clipbox
295.199828 128.804985 m
299.529912 115.91332 l
308.835642 109.922565 l
381.300153 98.275477 l
stroke
grestore
gsave
446.4 304.92 72 43.56 clipbox
295.199828 128.804985 m
299.529912 115.91332 l
308.835642 109.922565 l
386.341043 104.542951 l
295.199828 263.235015 l
290.828539 256.89368 l
stroke
grestore
gsave
446.4 304.92 72 43.56 clipbox
295.199828 128.804985 m
299.529912 115.91332 l
308.835642 109.922565 l
386.341043 104.542951 l
295.199828 263.235015 l
305.151122 268.578446 l
365.906209 293.081251 l
388.367014 301.854534 l
stroke
grestore
gsave
446.4 304.92 72 43.56 clipbox
295.199828 128.804985 m
299.529912 115.91332 l
308.835642 109.922565 l
386.341043 104.542951 l
295.199828 263.235015 l
305.151122 268.578446 l
365.906209 293.081251 l
411.051019 308.510725 l
stroke
grestore
gsave
446.4 304.92 72 43.56 clipbox
295.199828 128.804985 m
299.529912 115.91332 l
308.835642 109.922565 l
386.341043 104.542951 l
295.199828 263.235015 l
305.151122 268.578446 l
365.906209 293.081251 l
422.887496 313.260575 l
stroke
grestore
gsave
446.4 304.92 72 43.56 clipbox
295.199828 128.804985 m
299.529912 115.91332 l
308.835642 109.922565 l
386.341043 104.542951 l
295.199828 263.235015 l
320.541632 265.672025 l
406.497735 281.486753 l
stroke
grestore
gsave
446.4 304.92 72 43.56 clipbox
295.199828 128.804985 m
299.529912 115.91332 l
308.835642 109.922565 l
386.341043 104.542951 l
295.199828 263.235015 l
320.541632 265.672025 l
418.29644 276.723526 l
stroke
grestore
gsave
446.4 304.92 72 43.56 clipbox
295.199828 128.804985 m
299.529912 115.91332 l
308.835642 109.922565 l
386.341043 104.542951 l
295.199828 263.235015 l
320.541632 265.672025 l
402.967739 273.771334 l
stroke
grestore
gsave
446.4 304.92 72 43.56 clipbox
295.199828 128.804985 m
299.529912 115.91332 l
308.835642 109.922565 l
386.341043 104.542951 l
295.199828 263.235015 l
303.973312 275.120251 l
stroke
grestore
gsave
446.4 304.92 72 43.56 clipbox
295.199828 128.804985 m
299.529912 115.91332 l
308.835642 109.922565 l
386.341043 104.542951 l
295.199828 263.235015 l
290.924687 279.382251 l
stroke
grestore
gsave
446.4 304.92 72 43.56 clipbox
295.199828 128.804985 m
299.529912 115.91332 l
308.835642 109.922565 l
386.341043 104.542951 l
295.199828 263.235015 l
284.290491 285.430186 l
259.309241 316.31169 l
stroke
grestore
gsave
446.4 304.92 72 43.56 clipbox
295.199828 128.804985 m
299.529912 115.91332 l
308.835642 109.922565 l
386.341043 104.542951 l
295.199828 263.235015 l
284.290491 285.430186 l
273.027467 320.254074 l
stroke
grestore
gsave
446.4 304.92 72 43.56 clipbox
295.199828 128.804985 m
299.529912 115.91332 l
308.835642 109.922565 l
386.341043 104.542951 l
295.199828 263.235015 l
284.290491 285.430186 l
271.777546 308.282531 l
261.970474 325.269758 l
stroke
grestore
gsave
446.4 304.92 72 43.56 clipbox
295.199828 128.804985 m
299.529912 115.91332 l
308.835642 109.922565 l
386.341043 104.542951 l
295.199828 263.235015 l
298.393308 289.168769 l
284.328263 325.190677 l
stroke
grestore
gsave
446.4 304.92 72 43.56 clipbox
295.199828 128.804985 m
299.529912 115.91332 l
308.835642 109.922565 l
386.341043 104.542951 l
295.199828 263.235015 l
298.393308 289.168769 l
301.003033 326.754463 l
stroke
grestore
gsave
446.4 304.92 72 43.56 clipbox
295.199828 128.804985 m
299.529912 115.91332 l
308.835642 109.922565 l
386.341043 104.542951 l
295.199828 263.235015 l
298.393308 289.168769 l
307.850127 326.847577 l
stroke
grestore
gsave
446.4 304.92 72 43.56 clipbox
295.199828 128.804985 m
299.529912 115.91332 l
308.835642 109.922565 l
386.341043 104.542951 l
295.199828 263.235015 l
314.734994 291.180813 l
stroke
grestore
gsave
446.4 304.92 72 43.56 clipbox
295.199828 128.804985 m
299.529912 115.91332 l
308.835642 109.922565 l
386.341043 104.542951 l
295.199828 263.235015 l
331.698207 292.192212 l
356.106004 310.009725 l
stroke
grestore
gsave
446.4 304.92 72 43.56 clipbox
295.199828 128.804985 m
299.529912 115.91332 l
308.835642 109.922565 l
386.341043 104.542951 l
295.199828 263.235015 l
268.98926 288.405498 l
252.908547 299.591739 l
stroke
grestore
gsave
446.4 304.92 72 43.56 clipbox
295.199828 128.804985 m
299.529912 115.91332 l
308.835642 109.922565 l
386.341043 104.542951 l
295.199828 263.235015 l
268.98926 288.405498 l
230.626302 309.126718 l
stroke
grestore
gsave
446.4 304.92 72 43.56 clipbox
295.199828 128.804985 m
299.529912 115.91332 l
308.835642 109.922565 l
386.341043 104.542951 l
295.199828 263.235015 l
268.98926 288.405498 l
214.282898 307.119396 l
stroke
grestore
gsave
446.4 304.92 72 43.56 clipbox
295.199828 128.804985 m
299.529912 115.91332 l
308.835642 109.922565 l
386.341043 104.542951 l
295.199828 263.235015 l
268.98926 288.405498 l
244.526522 312.976644 l
stroke
grestore
gsave
446.4 304.92 72 43.56 clipbox
295.199828 128.804985 m
299.529912 115.91332 l
308.835642 109.922565 l
386.341043 104.542951 l
295.199828 263.235015 l
273.690199 256.505828 l
stroke
grestore
gsave
446.4 304.92 72 43.56 clipbox
295.199828 128.804985 m
299.529912 115.91332 l
308.835642 109.922565 l
386.341043 104.542951 l
295.199828 263.235015 l
332.773002 261.069858 l
stroke
grestore
gsave
446.4 304.92 72 43.56 clipbox
295.199828 128.804985 m
299.529912 115.91332 l
308.835642 109.922565 l
386.341043 104.542951 l
295.199828 263.235015 l
310.171409 297.502056 l
317.111217 329.024209 l
stroke
grestore
gsave
446.4 304.92 72 43.56 clipbox
295.199828 128.804985 m
299.529912 115.91332 l
308.835642 109.922565 l
386.341043 104.542951 l
295.199828 263.235015 l
310.171409 297.502056 l
315.414896 330.521767 l
stroke
grestore
gsave
446.4 304.92 72 43.56 clipbox
295.199828 128.804985 m
299.529912 115.91332 l
308.835642 109.922565 l
386.341043 104.542951 l
295.199828 263.235015 l
264.418808 294.726086 l
256.569029 305.239416 l
stroke
grestore
gsave
446.4 304.92 72 43.56 clipbox
295.199828 128.804985 m
299.529912 115.91332 l
308.835642 109.922565 l
386.341043 104.542951 l
295.199828 263.235015 l
348.867451 292.273391 l
393.411338 317.0806 l
stroke
grestore
gsave
446.4 304.92 72 43.56 clipbox
295.199828 128.804985 m
299.529912 115.91332 l
308.835642 109.922565 l
386.341043 104.542951 l
295.199828 263.235015 l
348.867451 292.273391 l
378.350477 308.431381 l
stroke
grestore
gsave
446.4 304.92 72 43.56 clipbox
295.199828 128.804985 m
299.529912 115.91332 l
308.835642 109.922565 l
386.341043 104.542951 l
295.199828 263.235015 l
257.719369 258.913081 l
stroke
grestore
gsave
446.4 304.92 72 43.56 clipbox
295.199828 128.804985 m
299.529912 115.91332 l
308.835642 109.922565 l
386.341043 104.542951 l
295.199828 263.235015 l
308.076761 266.634873 l
379.627869 289.140048 l
434.754877 308.521479 l
stroke
grestore
gsave
446.4 304.92 72 43.56 clipbox
295.199828 128.804985 m
299.529912 115.91332 l
308.835642 109.922565 l
386.341043 104.542951 l
295.199828 263.235015 l
308.076761 266.634873 l
379.627869 289.140048 l
450.711973 310.942699 l
stroke
grestore
gsave
446.4 304.92 72 43.56 clipbox
295.199828 128.804985 m
299.529912 115.91332 l
308.835642 109.922565 l
386.341043 104.542951 l
295.199828 263.235015 l
308.076761 266.634873 l
379.627869 289.140048 l
438.631692 308.30535 l
stroke
grestore
gsave
446.4 304.92 72 43.56 clipbox
295.199828 128.804985 m
299.529912 115.91332 l
308.835642 109.922565 l
386.341043 104.542951 l
295.199828 263.235015 l
308.076761 266.634873 l
390.832517 284.172232 l
455.351102 304.629455 l
stroke
grestore
gsave
446.4 304.92 72 43.56 clipbox
295.199828 128.804985 m
299.529912 115.91332 l
308.835642 109.922565 l
386.341043 104.542951 l
295.199828 263.235015 l
308.076761 266.634873 l
379.689678 293.170168 l
stroke
grestore
gsave
446.4 304.92 72 43.56 clipbox
295.199828 128.804985 m
299.529912 115.91332 l
308.835642 109.922565 l
386.341043 104.542951 l
295.199828 263.235015 l
343.314918 255.893809 l
389.627236 246.696832 l
stroke
grestore
gsave
446.4 304.92 72 43.56 clipbox
295.199828 128.804985 m
299.529912 115.91332 l
308.835642 109.922565 l
386.341043 104.542951 l
295.199828 263.235015 l
343.314918 255.893809 l
412.259734 240.530603 l
stroke
grestore
gsave
446.4 304.92 72 43.56 clipbox
295.199828 128.804985 m
299.529912 115.91332 l
308.835642 109.922565 l
386.341043 104.542951 l
295.199828 263.235015 l
293.187593 250.39851 l
stroke
grestore
gsave
446.4 304.92 72 43.56 clipbox
295.199828 128.804985 m
299.529912 115.91332 l
308.835642 109.922565 l
386.341043 104.542951 l
295.199828 263.235015 l
346.158144 259.217327 l
stroke
grestore
gsave
446.4 304.92 72 43.56 clipbox
295.199828 128.804985 m
299.529912 115.91332 l
308.835642 109.922565 l
386.341043 104.542951 l
295.199828 263.235015 l
343.805958 249.339164 l
stroke
grestore
gsave
446.4 304.92 72 43.56 clipbox
295.199828 128.804985 m
299.529912 115.91332 l
308.835642 109.922565 l
386.341043 104.542951 l
295.199828 263.235015 l
304.436882 264.339845 l
stroke
grestore
gsave
446.4 304.92 72 43.56 clipbox
295.199828 128.804985 m
299.529912 115.91332 l
308.835642 109.922565 l
386.341043 104.542951 l
295.199828 263.235015 l
357.383396 245.326486 l
stroke
grestore
gsave
446.4 304.92 72 43.56 clipbox
295.199828 128.804985 m
299.529912 115.91332 l
308.835642 109.922565 l
386.341043 104.542951 l
295.199828 263.235015 l
296.140703 270.884257 l
stroke
grestore
gsave
446.4 304.92 72 43.56 clipbox
295.199828 128.804985 m
299.529912 115.91332 l
308.835642 109.922565 l
386.341043 104.542951 l
295.199828 263.235015 l
291.278373 243.881912 l
stroke
grestore
gsave
446.4 304.92 72 43.56 clipbox
295.199828 128.804985 m
299.529912 115.91332 l
308.835642 109.922565 l
386.341043 104.542951 l
295.199828 263.235015 l
275.723038 257.186411 l
stroke
grestore
gsave
446.4 304.92 72 43.56 clipbox
295.199828 128.804985 m
299.529912 115.91332 l
308.835642 109.922565 l
386.341043 104.542951 l
295.199828 263.235015 l
335.588758 250.31476 l
stroke
grestore
gsave
446.4 304.92 72 43.56 clipbox
295.199828 128.804985 m
299.529912 115.91332 l
308.835642 109.922565 l
386.341043 104.542951 l
295.199828 263.235015 l
355.113622 238.826753 l
stroke
grestore
gsave
446.4 304.92 72 43.56 clipbox
295.199828 128.804985 m
299.529912 115.91332 l
308.835642 109.922565 l
386.341043 104.542951 l
295.199828 263.235015 l
331.694773 246.974337 l
349.832363 226.262035 l
stroke
grestore
gsave
446.4 304.92 72 43.56 clipbox
295.199828 128.804985 m
299.529912 115.91332 l
308.835642 109.922565 l
386.341043 104.542951 l
295.199828 263.235015 l
331.694773 246.974337 l
350.94493 221.809493 l
stroke
grestore
gsave
446.4 304.92 72 43.56 clipbox
295.199828 128.804985 m
299.529912 115.91332 l
308.835642 109.922565 l
386.341043 104.542951 l
295.199828 263.235015 l
292.669082 278.639439 l
stroke
grestore
gsave
446.4 304.92 72 43.56 clipbox
295.199828 128.804985 m
299.529912 115.91332 l
308.835642 109.922565 l
386.341043 104.542951 l
295.199828 263.235015 l
356.569574 232.293184 l
stroke
grestore
gsave
446.4 304.92 72 43.56 clipbox
295.199828 128.804985 m
299.529912 115.91332 l
308.835642 109.922565 l
386.341043 104.542951 l
295.199828 263.235015 l
252.304189 252.69042 l
stroke
grestore
gsave
446.4 304.92 72 43.56 clipbox
295.199828 128.804985 m
299.529912 115.91332 l
308.835642 109.922565 l
386.341043 104.542951 l
295.199828 263.235015 l
313.649898 280.536468 l
stroke
grestore
gsave
446.4 304.92 72 43.56 clipbox
295.199828 128.804985 m
299.529912 115.91332 l
308.835642 109.922565 l
386.341043 104.542951 l
295.199828 263.235015 l
239.701964 249.336804 l
stroke
grestore
gsave
446.4 304.92 72 43.56 clipbox
295.199828 128.804985 m
299.529912 115.91332 l
308.835642 109.922565 l
386.341043 104.542951 l
295.199828 263.235015 l
374.126843 243.875223 l
395.09049 240.480374 l
stroke
grestore
gsave
446.4 304.92 72 43.56 clipbox
295.199828 128.804985 m
299.529912 115.91332 l
308.835642 109.922565 l
386.341043 104.542951 l
295.199828 263.235015 l
321.372624 253.991941 l
stroke
grestore
gsave
446.4 304.92 72 43.56 clipbox
295.199828 128.804985 m
299.529912 115.91332 l
308.835642 109.922565 l
386.341043 104.542951 l
295.199828 263.235015 l
330.80884 280.7724 l
372.801377 299.086433 l
stroke
grestore
gsave
446.4 304.92 72 43.56 clipbox
295.199828 128.804985 m
299.529912 115.91332 l
308.835642 109.922565 l
386.341043 104.542951 l
295.199828 263.235015 l
330.80884 280.7724 l
382.605016 305.899212 l
stroke
grestore
gsave
446.4 304.92 72 43.56 clipbox
295.199828 128.804985 m
299.529912 115.91332 l
308.835642 109.922565 l
386.341043 104.542951 l
295.199828 263.235015 l
330.80884 280.7724 l
394.726502 310.542572 l
stroke
grestore
gsave
446.4 304.92 72 43.56 clipbox
295.199828 128.804985 m
299.529912 115.91332 l
308.835642 109.922565 l
386.341043 104.542951 l
295.199828 263.235015 l
282.501455 268.237164 l
240.076254 299.121449 l
stroke
grestore
gsave
446.4 304.92 72 43.56 clipbox
295.199828 128.804985 m
299.529912 115.91332 l
308.835642 109.922565 l
386.341043 104.542951 l
295.199828 263.235015 l
282.501455 268.237164 l
238.891576 303.378846 l
stroke
grestore
gsave
446.4 304.92 72 43.56 clipbox
295.199828 128.804985 m
299.529912 115.91332 l
308.835642 109.922565 l
386.341043 104.542951 l
295.199828 263.235015 l
282.501455 268.237164 l
208.775348 293.813178 l
212.909702 298.023493 l
143.627339 298.743748 l
stroke
grestore
gsave
446.4 304.92 72 43.56 clipbox
295.199828 128.804985 m
299.529912 115.91332 l
308.835642 109.922565 l
386.341043 104.542951 l
295.199828 263.235015 l
282.501455 268.237164 l
208.775348 293.813178 l
201.639467 302.682984 l
stroke
grestore
gsave
446.4 304.92 72 43.56 clipbox
295.199828 128.804985 m
299.529912 115.91332 l
308.835642 109.922565 l
386.341043 104.542951 l
295.199828 263.235015 l
282.501455 268.237164 l
208.775348 293.813178 l
185.599959 300.343731 l
stroke
grestore
gsave
446.4 304.92 72 43.56 clipbox
295.199828 128.804985 m
299.529912 115.91332 l
308.835642 109.922565 l
386.341043 104.542951 l
295.199828 263.235015 l
282.501455 268.237164 l
208.775348 293.813178 l
169.036103 302.069614 l
stroke
grestore
gsave
446.4 304.92 72 43.56 clipbox
295.199828 128.804985 m
299.529912 115.91332 l
308.835642 109.922565 l
386.341043 104.542951 l
295.199828 263.235015 l
282.501455 268.237164 l
208.775348 293.813178 l
171.853576 308.538003 l
142.375701 302.67223 l
stroke
grestore
gsave
446.4 304.92 72 43.56 clipbox
295.199828 128.804985 m
299.529912 115.91332 l
308.835642 109.922565 l
386.341043 104.542951 l
295.199828 263.235015 l
282.501455 268.237164 l
208.775348 293.813178 l
159.364324 313.037627 l
stroke
grestore
gsave
446.4 304.92 72 43.56 clipbox
295.199828 128.804985 m
299.529912 115.91332 l
308.835642 109.922565 l
386.341043 104.542951 l
295.199828 263.235015 l
282.501455 268.237164 l
208.775348 293.813178 l
144.164049 316.086643 l
stroke
grestore
gsave
446.4 304.92 72 43.56 clipbox
295.199828 128.804985 m
299.529912 115.91332 l
308.835642 109.922565 l
386.341043 104.542951 l
295.199828 263.235015 l
282.501455 268.237164 l
208.775348 293.813178 l
128.800323 313.159593 l
stroke
grestore
gsave
446.4 304.92 72 43.56 clipbox
295.199828 128.804985 m
299.529912 115.91332 l
308.835642 109.922565 l
386.341043 104.542951 l
295.199828 263.235015 l
282.501455 268.237164 l
195.671095 285.012617 l
182.187057 288.702807 l
stroke
grestore
gsave
446.4 304.92 72 43.56 clipbox
295.199828 128.804985 m
299.529912 115.91332 l
308.835642 109.922565 l
386.341043 104.542951 l
295.199828 263.235015 l
282.501455 268.237164 l
195.671095 285.012617 l
165.580278 290.367576 l
stroke
grestore
gsave
446.4 304.92 72 43.56 clipbox
295.199828 128.804985 m
299.529912 115.91332 l
308.835642 109.922565 l
386.341043 104.542951 l
295.199828 263.235015 l
282.501455 268.237164 l
195.671095 285.012617 l
159.799736 296.542067 l
stroke
grestore
gsave
446.4 304.92 72 43.56 clipbox
295.199828 128.804985 m
299.529912 115.91332 l
308.835642 109.922565 l
386.341043 104.542951 l
295.199828 263.235015 l
229.160048 254.512224 l
stroke
grestore
gsave
446.4 304.92 72 43.56 clipbox
295.199828 128.804985 m
299.529912 115.91332 l
308.835642 109.922565 l
386.341043 104.542951 l
295.199828 263.235015 l
348.118872 264.763943 l
442.36772 269.286858 l
459.536964 269.328772 l
stroke
grestore
gsave
446.4 304.92 72 43.56 clipbox
295.199828 128.804985 m
299.529912 115.91332 l
308.835642 109.922565 l
386.341043 104.542951 l
295.199828 263.235015 l
348.118872 264.763943 l
401.367565 264.618856 l
stroke
grestore
gsave
446.4 304.92 72 43.56 clipbox
295.199828 128.804985 m
299.529912 115.91332 l
308.835642 109.922565 l
386.341043 104.542951 l
295.199828 263.235015 l
316.733494 291.203501 l
stroke
grestore
gsave
446.4 304.92 72 43.56 clipbox
295.199828 128.804985 m
299.529912 115.91332 l
308.835642 109.922565 l
386.341043 104.542951 l
295.199828 263.235015 l
392.247263 270.173786 l
435.002114 275.210139 l
stroke
grestore
gsave
446.4 304.92 72 43.56 clipbox
295.199828 128.804985 m
299.529912 115.91332 l
308.835642 109.922565 l
386.341043 104.542951 l
295.199828 263.235015 l
326.616111 286.233718 l
360.532235 303.674056 l
stroke
grestore
gsave
446.4 304.92 72 43.56 clipbox
295.199828 128.804985 m
299.529912 115.91332 l
308.835642 109.922565 l
386.341043 104.542951 l
295.199828 263.235015 l
307.699038 287.354362 l
317.118085 303.498844 l
stroke
grestore
gsave
446.4 304.92 72 43.56 clipbox
295.199828 128.804985 m
299.529912 115.91332 l
308.835642 109.922565 l
386.341043 104.542951 l
295.199828 263.235015 l
307.699038 287.354362 l
323.889635 322.999618 l
stroke
grestore
gsave
446.4 304.92 72 43.56 clipbox
295.199828 128.804985 m
299.529912 115.91332 l
308.835642 109.922565 l
386.341043 104.542951 l
402.960871 106.191458 l
stroke
grestore
gsave
446.4 304.92 72 43.56 clipbox
295.199828 128.804985 m
299.529912 115.91332 l
308.835642 109.922565 l
386.341043 104.542951 l
418.001129 103.030836 l
stroke
grestore
gsave
446.4 304.92 72 43.56 clipbox
295.199828 128.804985 m
299.529912 115.91332 l
308.835642 109.922565 l
386.341043 104.542951 l
389.242645 110.965177 l
408.825885 146.677711 l
415.83437 177.862687 l
stroke
grestore
gsave
446.4 304.92 72 43.56 clipbox
295.199828 128.804985 m
299.529912 115.91332 l
308.835642 109.922565 l
386.341043 104.542951 l
389.242645 110.965177 l
408.825885 146.677711 l
415.449779 178.167208 l
stroke
grestore
gsave
446.4 304.92 72 43.56 clipbox
295.199828 128.804985 m
299.529912 115.91332 l
308.835642 109.922565 l
386.341043 104.542951 l
394.111843 117.253634 l
stroke
grestore
gsave
446.4 304.92 72 43.56 clipbox
295.199828 128.804985 m
299.529912 115.91332 l
308.835642 109.922565 l
386.341043 104.542951 l
433.724723 105.662939 l
stroke
grestore
gsave
446.4 304.92 72 43.56 clipbox
295.199828 128.804985 m
299.529912 115.91332 l
308.835642 109.922565 l
386.341043 104.542951 l
442.587486 111.279928 l
stroke
grestore
gsave
446.4 304.92 72 43.56 clipbox
295.199828 128.804985 m
299.529912 115.91332 l
308.835642 109.922565 l
386.341043 104.542951 l
404.100909 122.587347 l
423.244616 143.116175 l
stroke
grestore
gsave
446.4 304.92 72 43.56 clipbox
295.199828 128.804985 m
299.529912 115.91332 l
308.835642 109.922565 l
386.341043 104.542951 l
404.100909 122.587347 l
434.438963 148.08727 l
stroke
grestore
gsave
446.4 304.92 72 43.56 clipbox
295.199828 128.804985 m
299.529912 115.91332 l
308.835642 109.922565 l
386.341043 104.542951 l
404.100909 122.587347 l
442.213197 153.93442 l
stroke
grestore
gsave
446.4 304.92 72 43.56 clipbox
295.199828 128.804985 m
299.529912 115.91332 l
308.835642 109.922565 l
386.341043 104.542951 l
407.984592 128.974164 l
437.495089 160.239532 l
stroke
grestore
gsave
446.4 304.92 72 43.56 clipbox
295.199828 128.804985 m
299.529912 115.91332 l
308.835642 109.922565 l
386.341043 104.542951 l
390.82565 128.748592 l
394.623486 150.361868 l
401.759024 182.124018 l
stroke
grestore
gsave
446.4 304.92 72 43.56 clipbox
295.199828 128.804985 m
299.529912 115.91332 l
308.835642 109.922565 l
386.341043 104.542951 l
390.82565 128.748592 l
390.348345 149.03939 l
stroke
grestore
gsave
446.4 304.92 72 43.56 clipbox
295.199828 128.804985 m
299.529912 115.91332 l
308.835642 109.922565 l
386.341043 104.542951 l
452.58342 116.611018 l
stroke
grestore
gsave
446.4 304.92 72 43.56 clipbox
295.199828 128.804985 m
299.529912 115.91332 l
308.835642 109.922565 l
386.341043 104.542951 l
374.511434 126.705335 l
361.531485 164.076081 l
355.106754 170.156803 l
stroke
grestore
gsave
446.4 304.92 72 43.56 clipbox
295.199828 128.804985 m
299.529912 115.91332 l
308.835642 109.922565 l
386.341043 104.542951 l
374.511434 126.705335 l
361.531485 164.076081 l
338.82001 172.233108 l
stroke
grestore
gsave
446.4 304.92 72 43.56 clipbox
295.199828 128.804985 m
299.529912 115.91332 l
308.835642 109.922565 l
386.341043 104.542951 l
374.511434 126.705335 l
363.818429 131.835772 l
stroke
grestore
gsave
446.4 304.92 72 43.56 clipbox
295.199828 128.804985 m
299.529912 115.91332 l
308.835642 109.922565 l
386.341043 104.542951 l
410.584016 135.45593 l
438.19216 170.065 l
445.303661 176.033592 l
stroke
grestore
gsave
446.4 304.92 72 43.56 clipbox
295.199828 128.804985 m
299.529912 115.91332 l
308.835642 109.922565 l
386.341043 104.542951 l
410.584016 135.45593 l
438.19216 170.065 l
446.436831 182.576604 l
stroke
grestore
gsave
446.4 304.92 72 43.56 clipbox
295.199828 128.804985 m
299.529912 115.91332 l
308.835642 109.922565 l
386.341043 104.542951 l
385.279984 122.391939 l
383.648906 155.404699 l
stroke
grestore
gsave
446.4 304.92 72 43.56 clipbox
295.199828 128.804985 m
299.529912 115.91332 l
308.835642 109.922565 l
386.341043 104.542951 l
385.279984 122.391939 l
377.320322 161.50024 l
stroke
grestore
gsave
446.4 304.92 72 43.56 clipbox
295.199828 128.804985 m
299.529912 115.91332 l
308.835642 109.922565 l
386.341043 104.542951 l
459.320631 109.808468 l
stroke
grestore
gsave
446.4 304.92 72 43.56 clipbox
295.199828 128.804985 m
299.529912 115.91332 l
308.835642 109.922565 l
386.341043 104.542951 l
427.413308 136.755195 l
stroke
grestore
gsave
446.4 304.92 72 43.56 clipbox
295.199828 128.804985 m
299.529912 115.91332 l
308.835642 109.922565 l
386.341043 104.542951 l
464.059343 103.505585 l
stroke
grestore
gsave
446.4 304.92 72 43.56 clipbox
295.199828 128.804985 m
299.529912 115.91332 l
308.835642 109.922565 l
386.341043 104.542951 l
408.461897 135.674682 l
426.482735 165.269904 l
432.629325 176.50021 l
stroke
grestore
gsave
446.4 304.92 72 43.56 clipbox
295.199828 128.804985 m
299.529912 115.91332 l
308.835642 109.922565 l
386.341043 104.542951 l
416.569214 123.921103 l
stroke
grestore
gsave
446.4 304.92 72 43.56 clipbox
295.199828 128.804985 m
299.529912 115.91332 l
308.835642 109.922565 l
386.341043 104.542951 l
416.201792 127.464672 l
stroke
grestore
gsave
446.4 304.92 72 43.56 clipbox
295.199828 128.804985 m
299.529912 115.91332 l
308.835642 109.922565 l
386.341043 104.542951 l
439.733958 117.245765 l
stroke
grestore
gsave
446.4 304.92 72 43.56 clipbox
295.199828 128.804985 m
299.529912 115.91332 l
308.835642 109.922565 l
386.341043 104.542951 l
414.79048 123.789957 l
stroke
grestore
gsave
446.4 304.92 72 43.56 clipbox
295.199828 128.804985 m
299.529912 115.91332 l
308.835642 109.922565 l
388.562743 92.333246 l
451.323198 82.282207 l
stroke
grestore
gsave
446.4 304.92 72 43.56 clipbox
295.199828 128.804985 m
299.529912 115.91332 l
308.835642 109.922565 l
388.562743 92.333246 l
457.174476 68.233833 l
stroke
grestore
gsave
446.4 304.92 72 43.56 clipbox
295.199828 128.804985 m
299.529912 115.91332 l
308.835642 109.922565 l
386.533339 100.573157 l
stroke
grestore
gsave
446.4 304.92 72 43.56 clipbox
295.199828 128.804985 m
299.529912 115.91332 l
307.180527 103.395422 l
320.970864 71.738058 l
stroke
grestore
gsave
446.4 304.92 72 43.56 clipbox
295.199828 128.804985 m
299.529912 115.91332 l
312.156174 97.12008 l
332.549802 75.039006 l
stroke
grestore
gsave
446.4 304.92 72 43.56 clipbox
295.199828 128.804985 m
299.529912 115.91332 l
312.156174 97.12008 l
344.056629 65.437798 l
stroke
grestore
gsave
446.4 304.92 72 43.56 clipbox
295.199828 128.804985 m
299.529912 115.91332 l
329.019805 95.891241 l
stroke
grestore
gsave
446.4 304.92 72 43.56 clipbox
295.199828 128.804985 m
299.529912 115.91332 l
335.987084 89.897862 l
stroke
grestore
gsave
446.4 304.92 72 43.56 clipbox
295.199828 128.804985 m
299.529912 115.91332 l
352.840414 91.152931 l
372.591912 82.983838 l
428.951673 74.287538 l
stroke
grestore
gsave
446.4 304.92 72 43.56 clipbox
295.199828 128.804985 m
299.529912 115.91332 l
352.840414 91.152931 l
372.591912 82.983838 l
440.255903 69.353821 l
stroke
grestore
gsave
446.4 304.92 72 43.56 clipbox
295.199828 128.804985 m
299.529912 115.91332 l
330.400212 85.80348 l
stroke
grestore
gsave
446.4 304.92 72 43.56 clipbox
295.199828 128.804985 m
299.529912 115.91332 l
335.00157 83.351048 l
stroke
grestore
gsave
446.4 304.92 72 43.56 clipbox
295.199828 128.804985 m
299.529912 115.91332 l
320.634346 79.760266 l
329.043842 68.619403 l
stroke
grestore
gsave
446.4 304.92 72 43.56 clipbox
295.199828 128.804985 m
299.529912 115.91332 l
362.235424 85.664465 l
stroke
grestore
gsave
446.4 304.92 72 43.56 clipbox
295.199828 128.804985 m
299.529912 115.91332 l
347.583192 90.3713 l
405.069254 81.585821 l
stroke
grestore
gsave
446.4 304.92 72 43.56 clipbox
295.199828 128.804985 m
299.529912 115.91332 l
347.583192 90.3713 l
417.369301 77.477012 l
stroke
grestore
gsave
446.4 304.92 72 43.56 clipbox
295.199828 128.804985 m
299.529912 115.91332 l
347.583192 90.3713 l
419.371235 77.957007 l
stroke
grestore
gsave
446.4 304.92 72 43.56 clipbox
295.199828 128.804985 m
299.529912 115.91332 l
317.979981 100.208571 l
396.646023 120.99261 l
stroke
grestore
gsave
446.4 304.92 72 43.56 clipbox
295.199828 128.804985 m
299.529912 115.91332 l
325.318116 95.476819 l
stroke
grestore
gsave
446.4 304.92 72 43.56 clipbox
295.199828 128.804985 m
300.628743 95.604031 l
303.815355 81.079597 l
stroke
grestore
gsave
446.4 304.92 72 43.56 clipbox
295.199828 128.804985 m
300.628743 95.604031 l
304.80087 74.532782 l
stroke
grestore
gsave
446.4 304.92 72 43.56 clipbox
295.199828 128.804985 m
300.628743 95.604031 l
298.582169 84.637591 l
stroke
grestore
gsave
446.4 304.92 72 43.56 clipbox
295.199828 128.804985 m
233.768273 143.105159 l
162.053715 160.228123 l
stroke
grestore
gsave
446.4 304.92 72 43.56 clipbox
295.199828 128.804985 m
237.085371 130.660703 l
stroke
grestore
gsave
446.4 304.92 72 43.56 clipbox
295.199828 128.804985 m
264.878943 95.87288 l
231.16885 67.77351 l
stroke
grestore
gsave
446.4 304.92 72 43.56 clipbox
295.199828 128.804985 m
264.878943 95.87288 l
227.923863 64.442398 l
223.615069 58.837213 l
stroke
grestore
gsave
446.4 304.92 72 43.56 clipbox
295.199828 128.804985 m
264.878943 95.87288 l
236.47758 61.609642 l
stroke
grestore
1.750 setlinewidth
0.750 0.750 0.000 setrgbcolor
gsave
446.4 304.92 72 43.56 clipbox
295.199828 128.804985 m
299.529912 115.91332 l
308.835642 109.922565 l
386.341043 104.542951 l
295.199828 263.235015 l
stroke
grestore
gsave
446.4 304.92 72 43.56 clipbox
/o {
gsave
newpath
translate
0 -3.5 m
0.928211 -3.5 1.81853 -3.131218 2.474874 -2.474874 c
3.131218 -1.81853 3.5 -0.928211 3.5 0 c
3.5 0.928211 3.131218 1.81853 2.474874 2.474874 c
1.81853 3.131218 0.928211 3.5 0 3.5 c
-0.928211 3.5 -1.81853 3.131218 -2.474874 2.474874 c
-3.131218 1.81853 -3.5 0.928211 -3.5 0 c
-3.5 -0.928211 -3.131218 -1.81853 -2.474874 -2.474874 c
-1.81853 -3.131218 -0.928211 -3.5 0 -3.5 c
cl

0.750 0.750 0.000 setrgbcolor
fill
grestore
} bind def
295.2 128.805 o
299.53 115.913 o
308.836 109.923 o
386.341 104.543 o
295.2 263.235 o
grestore
gsave
446.4 304.92 72 43.56 clipbox
/o {
gsave
newpath
translate
0 -3.5 m
0.928211 -3.5 1.81853 -3.131218 2.474874 -2.474874 c
3.131218 -1.81853 3.5 -0.928211 3.5 0 c
3.5 0.928211 3.131218 1.81853 2.474874 2.474874 c
1.81853 3.131218 0.928211 3.5 0 3.5 c
-0.928211 3.5 -1.81853 3.131218 -2.474874 2.474874 c
-3.131218 1.81853 -3.5 0.928211 -3.5 0 c
-3.5 -0.928211 -3.131218 -1.81853 -2.474874 -2.474874 c
-1.81853 -3.131218 -0.928211 -3.5 0 -3.5 c
cl

0.000 0.500 0.000 setrgbcolor
fill
grestore
} bind def
295.2 128.805 o
grestore
gsave
446.4 304.92 72 43.56 clipbox
/o {
gsave
newpath
translate
-3.5 -3.5 m
3.5 3.5 l
-3.5 3.5 m
3.5 -3.5 l

1.000 0.000 0.000 setrgbcolor
fill
grestore
} bind def
295.2 263.235 o
grestore
0.000 setgray
gsave
446.4 304.92 72 43.56 clipbox
106.338488 56.674613 m
106.338488 335.365387 l
484.061512 335.365387 l
484.061512 56.674613 l
106.338488 56.674613 l
stroke
grestore
gsave
72 43.56 m
72 348.48 l
grestore
gsave
518.4 43.56 m
518.4 348.48 l
grestore
gsave
72 43.56 m
518.4 43.56 l
grestore
gsave
72 348.48 m
518.4 348.48 l
grestore

end
showpage
